%!PS-Adobe-3.0 EPSF-3.0
%%Title: /home/gomes/Documents/Mestrado/Trabalho final/images/30d_30pop_2000iter.eps
%%Creator: matplotlib version 2.2.2, http://matplotlib.org/
%%CreationDate: Fri Nov 30 21:56:10 2018
%%Orientation: portrait
%%BoundingBox: 126 108 486 684
%%EndComments
%%BeginProlog
/mpldict 9 dict def
mpldict begin
/m { moveto } bind def
/l { lineto } bind def
/r { rlineto } bind def
/c { curveto } bind def
/cl { closepath } bind def
/box {
m
1 index 0 r
0 exch r
neg 0 r
cl
} bind def
/clipbox {
box
clip
newpath
} bind def
%!PS-Adobe-3.0 Resource-Font
%%Title: DejaVu Sans
%%Copyright: Copyright (c) 2003 by Bitstream, Inc. All Rights Reserved. Copyright (c) 2006 by Tavmjong Bah. All Rights Reserved. DejaVu changes are in public domain 
%%Creator: Converted from TrueType to type 3 by PPR
25 dict begin
/_d{bind def}bind def
/_m{moveto}_d
/_l{lineto}_d
/_cl{closepath eofill}_d
/_c{curveto}_d
/_sc{7 -1 roll{setcachedevice}{pop pop pop pop pop pop}ifelse}_d
/_e{exec}_d
/FontName /DejaVuSans def
/PaintType 0 def
/FontMatrix[.001 0 0 .001 0 0]def
/FontBBox[-1021 -463 1793 1232]def
/FontType 3 def
/Encoding [ /parenleft /parenright /asterisk /plus /hyphen /period /zero /one /two /three /four /five /six /seven /eight /nine /e ] def
/FontInfo 10 dict dup begin
/FamilyName (DejaVu Sans) def
/FullName (DejaVu Sans) def
/Notice (Copyright (c) 2003 by Bitstream, Inc. All Rights Reserved. Copyright (c) 2006 by Tavmjong Bah. All Rights Reserved. DejaVu changes are in public domain ) def
/Weight (Book) def
/Version (Version 2.35) def
/ItalicAngle 0.0 def
/isFixedPitch false def
/UnderlinePosition -130 def
/UnderlineThickness 90 def
end readonly def
/CharStrings 18 dict dup begin
/.notdef 0 def
/parenleft{390 0 86 -131 310 759 _sc
310 759 _m
266 683 234 609 213 536 _c
191 463 181 389 181 314 _c
181 238 191 164 213 91 _c
234 17 266 -56 310 -131 _c
232 -131 _l
183 -54 146 20 122 94 _c
98 168 86 241 86 314 _c
86 386 98 459 122 533 _c
146 607 182 682 232 759 _c
310 759 _l
_cl}_d
/parenright{390 0 80 -131 304 759 _sc
80 759 _m
158 759 _l
206 682 243 607 267 533 _c
291 459 304 386 304 314 _c
304 241 291 168 267 94 _c
243 20 206 -54 158 -131 _c
80 -131 _l
123 -56 155 17 177 91 _c
198 164 209 238 209 314 _c
209 389 198 463 177 536 _c
155 609 123 683 80 759 _c
_cl}_d
/asterisk{500 0 30 286 470 742 _sc
470 609 _m
295 514 _l
470 419 _l
442 371 _l
278 470 _l
278 286 _l
222 286 _l
222 470 _l
58 371 _l
30 419 _l
205 514 _l
30 609 _l
58 657 _l
222 558 _l
222 742 _l
278 742 _l
278 558 _l
442 657 _l
470 609 _l
_cl}_d
/plus{838 0 106 0 732 627 _sc
460 627 _m
460 355 _l
732 355 _l
732 272 _l
460 272 _l
460 0 _l
378 0 _l
378 272 _l
106 272 _l
106 355 _l
378 355 _l
378 627 _l
460 627 _l
_cl}_d
/hyphen{361 0 49 234 312 314 _sc
49 314 _m
312 314 _l
312 234 _l
49 234 _l
49 314 _l
_cl}_d
/period{318 0 107 0 210 124 _sc
107 124 _m
210 124 _l
210 0 _l
107 0 _l
107 124 _l
_cl}_d
/zero{636 0 66 -13 570 742 _sc
318 664 _m
267 664 229 639 203 589 _c
177 539 165 464 165 364 _c
165 264 177 189 203 139 _c
229 89 267 64 318 64 _c
369 64 407 89 433 139 _c
458 189 471 264 471 364 _c
471 464 458 539 433 589 _c
407 639 369 664 318 664 _c
318 742 _m
399 742 461 709 505 645 _c
548 580 570 486 570 364 _c
570 241 548 147 505 83 _c
461 19 399 -13 318 -13 _c
236 -13 173 19 130 83 _c
87 147 66 241 66 364 _c
66 486 87 580 130 645 _c
173 709 236 742 318 742 _c
_cl}_d
/one{636 0 110 0 544 729 _sc
124 83 _m
285 83 _l
285 639 _l
110 604 _l
110 694 _l
284 729 _l
383 729 _l
383 83 _l
544 83 _l
544 0 _l
124 0 _l
124 83 _l
_cl}_d
/two{{636 0 73 0 536 742 _sc
192 83 _m
536 83 _l
536 0 _l
73 0 _l
73 83 _l
110 121 161 173 226 239 _c
290 304 331 346 348 365 _c
380 400 402 430 414 455 _c
426 479 433 504 433 528 _c
433 566 419 598 392 622 _c
365 646 330 659 286 659 _c
255 659 222 653 188 643 _c
154 632 117 616 78 594 _c
78 694 _l
118 710 155 722 189 730 _c
223 738 255 742 284 742 _c
}_e{359 742 419 723 464 685 _c
509 647 532 597 532 534 _c
532 504 526 475 515 449 _c
504 422 484 390 454 354 _c
446 344 420 317 376 272 _c
332 227 271 164 192 83 _c
_cl}_e}_d
/three{{636 0 76 -13 556 742 _sc
406 393 _m
453 383 490 362 516 330 _c
542 298 556 258 556 212 _c
556 140 531 84 482 45 _c
432 6 362 -13 271 -13 _c
240 -13 208 -10 176 -4 _c
144 1 110 10 76 22 _c
76 117 _l
103 101 133 89 166 81 _c
198 73 232 69 268 69 _c
330 69 377 81 409 105 _c
441 129 458 165 458 212 _c
458 254 443 288 413 312 _c
383 336 341 349 287 349 _c
}_e{202 349 _l
202 430 _l
291 430 _l
339 430 376 439 402 459 _c
428 478 441 506 441 543 _c
441 580 427 609 401 629 _c
374 649 336 659 287 659 _c
260 659 231 656 200 650 _c
169 644 135 635 98 623 _c
98 711 _l
135 721 170 729 203 734 _c
235 739 266 742 296 742 _c
370 742 429 725 473 691 _c
517 657 539 611 539 553 _c
539 513 527 479 504 451 _c
481 423 448 403 406 393 _c
_cl}_e}_d
/four{636 0 49 0 580 729 _sc
378 643 _m
129 254 _l
378 254 _l
378 643 _l
352 729 _m
476 729 _l
476 254 _l
580 254 _l
580 172 _l
476 172 _l
476 0 _l
378 0 _l
378 172 _l
49 172 _l
49 267 _l
352 729 _l
_cl}_d
/five{{636 0 77 -13 549 729 _sc
108 729 _m
495 729 _l
495 646 _l
198 646 _l
198 467 _l
212 472 227 476 241 478 _c
255 480 270 482 284 482 _c
365 482 429 459 477 415 _c
525 370 549 310 549 234 _c
549 155 524 94 475 51 _c
426 8 357 -13 269 -13 _c
238 -13 207 -10 175 -6 _c
143 -1 111 6 77 17 _c
77 116 _l
106 100 136 88 168 80 _c
199 72 232 69 267 69 _c
}_e{323 69 368 83 401 113 _c
433 143 450 183 450 234 _c
450 284 433 324 401 354 _c
368 384 323 399 267 399 _c
241 399 214 396 188 390 _c
162 384 135 375 108 363 _c
108 729 _l
_cl}_e}_d
/six{{636 0 70 -13 573 742 _sc
330 404 _m
286 404 251 388 225 358 _c
199 328 186 286 186 234 _c
186 181 199 139 225 109 _c
251 79 286 64 330 64 _c
374 64 409 79 435 109 _c
461 139 474 181 474 234 _c
474 286 461 328 435 358 _c
409 388 374 404 330 404 _c
526 713 _m
526 623 _l
501 635 476 644 451 650 _c
425 656 400 659 376 659 _c
310 659 260 637 226 593 _c
}_e{192 549 172 482 168 394 _c
187 422 211 444 240 459 _c
269 474 301 482 336 482 _c
409 482 467 459 509 415 _c
551 371 573 310 573 234 _c
573 159 550 99 506 54 _c
462 9 403 -13 330 -13 _c
246 -13 181 19 137 83 _c
92 147 70 241 70 364 _c
70 479 97 571 152 639 _c
206 707 280 742 372 742 _c
396 742 421 739 447 735 _c
472 730 498 723 526 713 _c
_cl}_e}_d
/seven{636 0 82 0 551 729 _sc
82 729 _m
551 729 _l
551 687 _l
286 0 _l
183 0 _l
432 646 _l
82 646 _l
82 729 _l
_cl}_d
/eight{{636 0 68 -13 568 742 _sc
318 346 _m
271 346 234 333 207 308 _c
180 283 167 249 167 205 _c
167 161 180 126 207 101 _c
234 76 271 64 318 64 _c
364 64 401 76 428 102 _c
455 127 469 161 469 205 _c
469 249 455 283 429 308 _c
402 333 365 346 318 346 _c
219 388 _m
177 398 144 418 120 447 _c
96 476 85 511 85 553 _c
85 611 105 657 147 691 _c
188 725 245 742 318 742 _c
}_e{390 742 447 725 489 691 _c
530 657 551 611 551 553 _c
551 511 539 476 515 447 _c
491 418 459 398 417 388 _c
464 377 501 355 528 323 _c
554 291 568 251 568 205 _c
568 134 546 80 503 43 _c
459 5 398 -13 318 -13 _c
237 -13 175 5 132 43 _c
89 80 68 134 68 205 _c
68 251 81 291 108 323 _c
134 355 171 377 219 388 _c
183 544 _m
183 506 194 476 218 455 _c
}_e{242 434 275 424 318 424 _c
360 424 393 434 417 455 _c
441 476 453 506 453 544 _c
453 582 441 611 417 632 _c
393 653 360 664 318 664 _c
275 664 242 653 218 632 _c
194 611 183 582 183 544 _c
_cl}_e}_d
/nine{{636 0 63 -13 566 742 _sc
110 15 _m
110 105 _l
134 93 159 84 185 78 _c
210 72 235 69 260 69 _c
324 69 374 90 408 134 _c
442 178 462 244 468 334 _c
448 306 424 284 396 269 _c
367 254 335 247 300 247 _c
226 247 168 269 126 313 _c
84 357 63 417 63 494 _c
63 568 85 628 129 674 _c
173 719 232 742 306 742 _c
390 742 455 709 499 645 _c
543 580 566 486 566 364 _c
}_e{566 248 538 157 484 89 _c
429 21 356 -13 264 -13 _c
239 -13 214 -10 189 -6 _c
163 -2 137 5 110 15 _c
306 324 _m
350 324 385 339 411 369 _c
437 399 450 441 450 494 _c
450 546 437 588 411 618 _c
385 648 350 664 306 664 _c
262 664 227 648 201 618 _c
175 588 162 546 162 494 _c
162 441 175 399 201 369 _c
227 339 262 324 306 324 _c
_cl}_e}_d
/e{{615 0 55 -13 562 560 _sc
562 296 _m
562 252 _l
149 252 _l
153 190 171 142 205 110 _c
238 78 284 62 344 62 _c
378 62 412 66 444 74 _c
476 82 509 95 541 113 _c
541 28 _l
509 14 476 3 442 -3 _c
408 -9 373 -13 339 -13 _c
251 -13 182 12 131 62 _c
80 112 55 181 55 268 _c
55 357 79 428 127 481 _c
175 533 241 560 323 560 _c
397 560 455 536 498 489 _c
}_e{540 441 562 377 562 296 _c
472 322 _m
471 371 457 410 431 440 _c
404 469 368 484 324 484 _c
274 484 234 469 204 441 _c
174 413 156 373 152 322 _c
472 322 _l
_cl}_e}_d
end readonly def

/BuildGlyph
 {exch begin
 CharStrings exch
 2 copy known not{pop /.notdef}if
 true 3 1 roll get exec
 end}_d

/BuildChar {
 1 index /Encoding get exch get
 1 index /BuildGlyph get exec
}_d

FontName currentdict end definefont pop
%!PS-Adobe-3.0 Resource-Font
%%Title: DejaVu Sans Oblique
%%Copyright: Copyright (c) 2003 by Bitstream, Inc. All Rights Reserved. Copyright (c) 2006 by Tavmjong Bah. All Rights Reserved. DejaVu changes are in public domain 
%%Creator: Converted from TrueType to type 3 by PPR
25 dict begin
/_d{bind def}bind def
/_m{moveto}_d
/_l{lineto}_d
/_cl{closepath eofill}_d
/_c{curveto}_d
/_sc{7 -1 roll{setcachedevice}{pop pop pop pop pop pop}ifelse}_d
/_e{exec}_d
/FontName /DejaVuSans-Oblique def
/PaintType 0 def
/FontMatrix[.001 0 0 .001 0 0]def
/FontBBox[-1016 -350 1659 1068]def
/FontType 3 def
/Encoding [ /X /f ] def
/FontInfo 10 dict dup begin
/FamilyName (DejaVu Sans) def
/FullName (DejaVu Sans Oblique) def
/Notice (Copyright (c) 2003 by Bitstream, Inc. All Rights Reserved. Copyright (c) 2006 by Tavmjong Bah. All Rights Reserved. DejaVu changes are in public domain ) def
/Weight (Oblique) def
/Version (Version 2.35) def
/ItalicAngle -11.0 def
/isFixedPitch false def
/UnderlinePosition -130 def
/UnderlineThickness 90 def
end readonly def
/CharStrings 3 dict dup begin
/.notdef 0 def
/X{685 0 -42 0 703 729 _sc
137 729 _m
237 729 _l
362 466 _l
588 729 _l
703 729 _l
403 381 _l
584 0 _l
485 0 _l
338 307 _l
72 0 _l
-42 0 _l
298 392 _l
137 729 _l
_cl}_d
/f{352 0 68 0 478 760 _sc
478 760 _m
464 685 _l
378 685 _l
345 685 321 678 307 665 _c
292 652 281 629 274 595 _c
264 547 _l
412 547 _l
399 477 _l
251 477 _l
158 0 _l
68 0 _l
161 477 _l
75 477 _l
88 547 _l
174 547 _l
181 585 _l
193 649 215 695 246 721 _c
277 747 326 760 393 760 _c
478 760 _l
_cl}_d
end readonly def

/BuildGlyph
 {exch begin
 CharStrings exch
 2 copy known not{pop /.notdef}if
 true 3 1 roll get exec
 end}_d

/BuildChar {
 1 index /Encoding get exch get
 1 index /BuildGlyph get exec
}_d

FontName currentdict end definefont pop
end
%%EndProlog
mpldict begin
126 108 translate
360 576 0 0 clipbox
gsave
0 0 m
360 0 l
360 576 l
0 576 l
cl
1.000 setgray
fill
grestore
gsave
29.92 522.43 m
289.37 522.43 l
289.37 562.68 l
29.92 562.68 l
cl
1.000 setgray
fill
grestore
0.800 setlinewidth
1 setlinejoin
0 setlinecap
[0.8 1.32] 0 setdash
0.502 setgray
gsave
259.4 40.25 29.92 522.4 clipbox
57.979639 522.43 m
57.979639 562.68 l
stroke
grestore
[] 0 setdash
1.000 setgray
gsave
/o {
gsave
newpath
translate
0.8 setlinewidth
1 setlinejoin
0 setlinecap
0 0 m
0 -3.5 l

gsave
1.000 setgray
fill
grestore
stroke
grestore
} bind def
57.9796 522.43 o
grestore
/DejaVuSans findfont
10.000 scalefont
setfont
gsave
54.799952 507.836250 translate
0.000000 rotate
0.000000 0.000000 m /three glyphshow
grestore
[0.8 1.32] 0 setdash
0.502 setgray
gsave
259.4 40.25 29.92 522.4 clipbox
82.379326 522.43 m
82.379326 562.68 l
stroke
grestore
[] 0 setdash
1.000 setgray
gsave
/o {
gsave
newpath
translate
0.8 setlinewidth
1 setlinejoin
0 setlinecap
0 0 m
0 -3.5 l

gsave
1.000 setgray
fill
grestore
stroke
grestore
} bind def
82.3793 522.43 o
grestore
gsave
79.199639 507.836250 translate
0.000000 rotate
0.000000 0.000000 m /six glyphshow
grestore
[0.8 1.32] 0 setdash
0.502 setgray
gsave
259.4 40.25 29.92 522.4 clipbox
106.779013 522.43 m
106.779013 562.68 l
stroke
grestore
[] 0 setdash
1.000 setgray
gsave
/o {
gsave
newpath
translate
0.8 setlinewidth
1 setlinejoin
0 setlinecap
0 0 m
0 -3.5 l

gsave
1.000 setgray
fill
grestore
stroke
grestore
} bind def
106.779 522.43 o
grestore
gsave
103.599325 507.836250 translate
0.000000 rotate
0.000000 0.000000 m /nine glyphshow
grestore
[0.8 1.32] 0 setdash
0.502 setgray
gsave
259.4 40.25 29.92 522.4 clipbox
131.178699 522.43 m
131.178699 562.68 l
stroke
grestore
[] 0 setdash
1.000 setgray
gsave
/o {
gsave
newpath
translate
0.8 setlinewidth
1 setlinejoin
0 setlinecap
0 0 m
0 -3.5 l

gsave
1.000 setgray
fill
grestore
stroke
grestore
} bind def
131.179 522.43 o
grestore
gsave
124.819324 507.836250 translate
0.000000 rotate
0.000000 0.000000 m /one glyphshow
6.362305 0.000000 m /two glyphshow
grestore
[0.8 1.32] 0 setdash
0.502 setgray
gsave
259.4 40.25 29.92 522.4 clipbox
155.578386 522.43 m
155.578386 562.68 l
stroke
grestore
[] 0 setdash
1.000 setgray
gsave
/o {
gsave
newpath
translate
0.8 setlinewidth
1 setlinejoin
0 setlinecap
0 0 m
0 -3.5 l

gsave
1.000 setgray
fill
grestore
stroke
grestore
} bind def
155.578 522.43 o
grestore
gsave
149.219011 507.836250 translate
0.000000 rotate
0.000000 0.000000 m /one glyphshow
6.362305 0.000000 m /five glyphshow
grestore
[0.8 1.32] 0 setdash
0.502 setgray
gsave
259.4 40.25 29.92 522.4 clipbox
179.978072 522.43 m
179.978072 562.68 l
stroke
grestore
[] 0 setdash
1.000 setgray
gsave
/o {
gsave
newpath
translate
0.8 setlinewidth
1 setlinejoin
0 setlinecap
0 0 m
0 -3.5 l

gsave
1.000 setgray
fill
grestore
stroke
grestore
} bind def
179.978 522.43 o
grestore
gsave
173.618697 507.836250 translate
0.000000 rotate
0.000000 0.000000 m /one glyphshow
6.362305 0.000000 m /eight glyphshow
grestore
[0.8 1.32] 0 setdash
0.502 setgray
gsave
259.4 40.25 29.92 522.4 clipbox
204.377759 522.43 m
204.377759 562.68 l
stroke
grestore
[] 0 setdash
1.000 setgray
gsave
/o {
gsave
newpath
translate
0.8 setlinewidth
1 setlinejoin
0 setlinecap
0 0 m
0 -3.5 l

gsave
1.000 setgray
fill
grestore
stroke
grestore
} bind def
204.378 522.43 o
grestore
gsave
198.018384 507.836250 translate
0.000000 rotate
0.000000 0.000000 m /two glyphshow
6.362305 0.000000 m /one glyphshow
grestore
[0.8 1.32] 0 setdash
0.502 setgray
gsave
259.4 40.25 29.92 522.4 clipbox
228.777445 522.43 m
228.777445 562.68 l
stroke
grestore
[] 0 setdash
1.000 setgray
gsave
/o {
gsave
newpath
translate
0.8 setlinewidth
1 setlinejoin
0 setlinecap
0 0 m
0 -3.5 l

gsave
1.000 setgray
fill
grestore
stroke
grestore
} bind def
228.777 522.43 o
grestore
gsave
222.418070 507.836250 translate
0.000000 rotate
0.000000 0.000000 m /two glyphshow
6.362305 0.000000 m /four glyphshow
grestore
[0.8 1.32] 0 setdash
0.502 setgray
gsave
259.4 40.25 29.92 522.4 clipbox
253.177132 522.43 m
253.177132 562.68 l
stroke
grestore
[] 0 setdash
1.000 setgray
gsave
/o {
gsave
newpath
translate
0.8 setlinewidth
1 setlinejoin
0 setlinecap
0 0 m
0 -3.5 l

gsave
1.000 setgray
fill
grestore
stroke
grestore
} bind def
253.177 522.43 o
grestore
gsave
246.817757 507.836250 translate
0.000000 rotate
0.000000 0.000000 m /two glyphshow
6.362305 0.000000 m /seven glyphshow
grestore
[0.8 1.32] 0 setdash
0.502 setgray
gsave
259.4 40.25 29.92 522.4 clipbox
277.576818 522.43 m
277.576818 562.68 l
stroke
grestore
[] 0 setdash
1.000 setgray
gsave
/o {
gsave
newpath
translate
0.8 setlinewidth
1 setlinejoin
0 setlinecap
0 0 m
0 -3.5 l

gsave
1.000 setgray
fill
grestore
stroke
grestore
} bind def
277.577 522.43 o
grestore
gsave
271.217443 507.836250 translate
0.000000 rotate
0.000000 0.000000 m /three glyphshow
6.362305 0.000000 m /zero glyphshow
grestore
[0.8 1.32] 0 setdash
0.502 setgray
gsave
259.4 40.25 29.92 522.4 clipbox
29.92 524.259545 m
289.37 524.259545 l
stroke
grestore
[] 0 setdash
0.000 setgray
gsave
/o {
gsave
newpath
translate
0.8 setlinewidth
1 setlinejoin
0 setlinecap
0 0 m
3.5 0 l

gsave
0.000 setgray
fill
grestore
stroke
grestore
} bind def
289.37 524.26 o
grestore
gsave
296.370000 520.462670 translate
0.000000 rotate
0.000000 0.000000 m /six glyphshow
6.362305 0.000000 m /period glyphshow
9.541016 0.000000 m /zero glyphshow
15.903320 0.000000 m /five glyphshow
22.265625 0.000000 m /e glyphshow
28.417969 0.000000 m /hyphen glyphshow
32.026367 0.000000 m /one glyphshow
38.388672 0.000000 m /four glyphshow
grestore
[0.8 1.32] 0 setdash
0.502 setgray
gsave
259.4 40.25 29.92 522.4 clipbox
29.92 560.850455 m
289.37 560.850455 l
stroke
grestore
[] 0 setdash
0.000 setgray
gsave
/o {
gsave
newpath
translate
0.8 setlinewidth
1 setlinejoin
0 setlinecap
0 0 m
3.5 0 l

gsave
0.000 setgray
fill
grestore
stroke
grestore
} bind def
289.37 560.85 o
grestore
gsave
296.370000 557.053580 translate
0.000000 rotate
0.000000 0.000000 m /eight glyphshow
6.362305 0.000000 m /period glyphshow
9.541016 0.000000 m /zero glyphshow
15.903320 0.000000 m /eight glyphshow
22.265625 0.000000 m /e glyphshow
28.417969 0.000000 m /plus glyphshow
36.796875 0.000000 m /zero glyphshow
43.159180 0.000000 m /zero glyphshow
grestore
gsave
23.841875 528.555000 translate
90.000000 rotate
/DejaVuSans-Oblique findfont
10.0 scalefont
setfont
0.000000 0.976562 moveto
/f glyphshow

/DejaVuSans findfont
7.0 scalefont
setfont
3.520508 -0.664062 moveto
/one glyphshow

/DejaVuSans findfont
10.0 scalefont
setfont
8.247559 0.976562 moveto
/parenleft glyphshow

/DejaVuSans-Oblique findfont
10.0 scalefont
setfont
12.148926 0.976562 moveto
/X glyphshow

/DejaVuSans findfont
7.0 scalefont
setfont
19.702064 4.804688 moveto
/asterisk glyphshow

/DejaVuSans findfont
10.0 scalefont
setfont
23.475501 0.976562 moveto
/parenright glyphshow


grestore
1.500 setlinewidth
2 setlinecap
gsave
259.4 40.25 29.92 522.4 clipbox
41.713182 524.259545 m
49.846411 524.259545 l
57.979639 524.259545 l
66.112868 524.683586 l
74.246097 524.694574 l
82.379326 526.171502 l
90.512555 531.581032 l
98.645784 530.499801 l
106.779013 533.961834 l
114.912241 534.815355 l
123.04547 538.028561 l
131.178699 538.701625 l
139.311928 539.859893 l
147.445157 539.395233 l
155.578386 540.975493 l
163.711614 546.503785 l
171.844843 544.719129 l
179.978072 543.366612 l
188.111301 545.569477 l
196.24453 549.559576 l
204.377759 548.643064 l
212.510987 552.861543 l
220.644216 552.282344 l
228.777445 558.084474 l
236.910674 553.475278 l
245.043903 554.367336 l
253.177132 560.850455 l
261.310361 556.07108 l
269.443589 554.37125 l
277.576818 556.532051 l
stroke
grestore
1.000 setlinewidth
0 setlinecap
1.000 0.000 0.000 setrgbcolor
gsave
259.4 40.25 29.92 522.4 clipbox
/o {
gsave
newpath
translate
1.0 setlinewidth
1 setlinejoin
0 setlinecap
0 -3 m
0.795609 -3 1.55874 -2.683901 2.12132 -2.12132 c
2.683901 -1.55874 3 -0.795609 3 0 c
3 0.795609 2.683901 1.55874 2.12132 2.12132 c
1.55874 2.683901 0.795609 3 0 3 c
-0.795609 3 -1.55874 2.683901 -2.12132 2.12132 c
-2.683901 1.55874 -3 0.795609 -3 0 c
-3 -0.795609 -2.683901 -1.55874 -2.12132 -2.12132 c
-1.55874 -2.683901 -0.795609 -3 0 -3 c
cl

gsave
1.000 0.000 0.000 setrgbcolor
fill
grestore
stroke
grestore
} bind def
49.8464 524.26 o
grestore
0.800 setlinewidth
0 setlinejoin
2 setlinecap
[] 0 setdash
0.000 setgray
gsave
29.92 522.43 m
29.92 562.68 l
stroke
grestore
gsave
289.37 522.43 m
289.37 562.68 l
stroke
grestore
gsave
29.92 522.43 m
289.37 522.43 l
stroke
grestore
gsave
29.92 562.68 m
289.37 562.68 l
stroke
grestore
gsave
29.92 451.78 m
289.37 451.78 l
289.37 492.03 l
29.92 492.03 l
cl
1.000 setgray
fill
grestore
1 setlinejoin
0 setlinecap
[0.8 1.32] 0 setdash
0.502 setgray
gsave
259.4 40.25 29.92 451.8 clipbox
57.979639 451.78 m
57.979639 492.03 l
stroke
grestore
[] 0 setdash
1.000 setgray
gsave
/o {
gsave
newpath
translate
0.8 setlinewidth
1 setlinejoin
0 setlinecap
0 0 m
0 -3.5 l

gsave
1.000 setgray
fill
grestore
stroke
grestore
} bind def
57.9796 451.78 o
grestore
gsave
54.799952 437.186250 translate
0.000000 rotate
0.000000 0.000000 m /three glyphshow
grestore
[0.8 1.32] 0 setdash
0.502 setgray
gsave
259.4 40.25 29.92 451.8 clipbox
82.379326 451.78 m
82.379326 492.03 l
stroke
grestore
[] 0 setdash
1.000 setgray
gsave
/o {
gsave
newpath
translate
0.8 setlinewidth
1 setlinejoin
0 setlinecap
0 0 m
0 -3.5 l

gsave
1.000 setgray
fill
grestore
stroke
grestore
} bind def
82.3793 451.78 o
grestore
gsave
79.199639 437.186250 translate
0.000000 rotate
0.000000 0.000000 m /six glyphshow
grestore
[0.8 1.32] 0 setdash
0.502 setgray
gsave
259.4 40.25 29.92 451.8 clipbox
106.779013 451.78 m
106.779013 492.03 l
stroke
grestore
[] 0 setdash
1.000 setgray
gsave
/o {
gsave
newpath
translate
0.8 setlinewidth
1 setlinejoin
0 setlinecap
0 0 m
0 -3.5 l

gsave
1.000 setgray
fill
grestore
stroke
grestore
} bind def
106.779 451.78 o
grestore
gsave
103.599325 437.186250 translate
0.000000 rotate
0.000000 0.000000 m /nine glyphshow
grestore
[0.8 1.32] 0 setdash
0.502 setgray
gsave
259.4 40.25 29.92 451.8 clipbox
131.178699 451.78 m
131.178699 492.03 l
stroke
grestore
[] 0 setdash
1.000 setgray
gsave
/o {
gsave
newpath
translate
0.8 setlinewidth
1 setlinejoin
0 setlinecap
0 0 m
0 -3.5 l

gsave
1.000 setgray
fill
grestore
stroke
grestore
} bind def
131.179 451.78 o
grestore
gsave
124.819324 437.186250 translate
0.000000 rotate
0.000000 0.000000 m /one glyphshow
6.362305 0.000000 m /two glyphshow
grestore
[0.8 1.32] 0 setdash
0.502 setgray
gsave
259.4 40.25 29.92 451.8 clipbox
155.578386 451.78 m
155.578386 492.03 l
stroke
grestore
[] 0 setdash
1.000 setgray
gsave
/o {
gsave
newpath
translate
0.8 setlinewidth
1 setlinejoin
0 setlinecap
0 0 m
0 -3.5 l

gsave
1.000 setgray
fill
grestore
stroke
grestore
} bind def
155.578 451.78 o
grestore
gsave
149.219011 437.186250 translate
0.000000 rotate
0.000000 0.000000 m /one glyphshow
6.362305 0.000000 m /five glyphshow
grestore
[0.8 1.32] 0 setdash
0.502 setgray
gsave
259.4 40.25 29.92 451.8 clipbox
179.978072 451.78 m
179.978072 492.03 l
stroke
grestore
[] 0 setdash
1.000 setgray
gsave
/o {
gsave
newpath
translate
0.8 setlinewidth
1 setlinejoin
0 setlinecap
0 0 m
0 -3.5 l

gsave
1.000 setgray
fill
grestore
stroke
grestore
} bind def
179.978 451.78 o
grestore
gsave
173.618697 437.186250 translate
0.000000 rotate
0.000000 0.000000 m /one glyphshow
6.362305 0.000000 m /eight glyphshow
grestore
[0.8 1.32] 0 setdash
0.502 setgray
gsave
259.4 40.25 29.92 451.8 clipbox
204.377759 451.78 m
204.377759 492.03 l
stroke
grestore
[] 0 setdash
1.000 setgray
gsave
/o {
gsave
newpath
translate
0.8 setlinewidth
1 setlinejoin
0 setlinecap
0 0 m
0 -3.5 l

gsave
1.000 setgray
fill
grestore
stroke
grestore
} bind def
204.378 451.78 o
grestore
gsave
198.018384 437.186250 translate
0.000000 rotate
0.000000 0.000000 m /two glyphshow
6.362305 0.000000 m /one glyphshow
grestore
[0.8 1.32] 0 setdash
0.502 setgray
gsave
259.4 40.25 29.92 451.8 clipbox
228.777445 451.78 m
228.777445 492.03 l
stroke
grestore
[] 0 setdash
1.000 setgray
gsave
/o {
gsave
newpath
translate
0.8 setlinewidth
1 setlinejoin
0 setlinecap
0 0 m
0 -3.5 l

gsave
1.000 setgray
fill
grestore
stroke
grestore
} bind def
228.777 451.78 o
grestore
gsave
222.418070 437.186250 translate
0.000000 rotate
0.000000 0.000000 m /two glyphshow
6.362305 0.000000 m /four glyphshow
grestore
[0.8 1.32] 0 setdash
0.502 setgray
gsave
259.4 40.25 29.92 451.8 clipbox
253.177132 451.78 m
253.177132 492.03 l
stroke
grestore
[] 0 setdash
1.000 setgray
gsave
/o {
gsave
newpath
translate
0.8 setlinewidth
1 setlinejoin
0 setlinecap
0 0 m
0 -3.5 l

gsave
1.000 setgray
fill
grestore
stroke
grestore
} bind def
253.177 451.78 o
grestore
gsave
246.817757 437.186250 translate
0.000000 rotate
0.000000 0.000000 m /two glyphshow
6.362305 0.000000 m /seven glyphshow
grestore
[0.8 1.32] 0 setdash
0.502 setgray
gsave
259.4 40.25 29.92 451.8 clipbox
277.576818 451.78 m
277.576818 492.03 l
stroke
grestore
[] 0 setdash
1.000 setgray
gsave
/o {
gsave
newpath
translate
0.8 setlinewidth
1 setlinejoin
0 setlinecap
0 0 m
0 -3.5 l

gsave
1.000 setgray
fill
grestore
stroke
grestore
} bind def
277.577 451.78 o
grestore
gsave
271.217443 437.186250 translate
0.000000 rotate
0.000000 0.000000 m /three glyphshow
6.362305 0.000000 m /zero glyphshow
grestore
[0.8 1.32] 0 setdash
0.502 setgray
gsave
259.4 40.25 29.92 451.8 clipbox
29.92 453.609545 m
289.37 453.609545 l
stroke
grestore
[] 0 setdash
0.000 setgray
gsave
/o {
gsave
newpath
translate
0.8 setlinewidth
1 setlinejoin
0 setlinecap
0 0 m
3.5 0 l

gsave
0.000 setgray
fill
grestore
stroke
grestore
} bind def
289.37 453.61 o
grestore
gsave
296.370000 449.812670 translate
0.000000 rotate
0.000000 0.000000 m /one glyphshow
6.362305 0.000000 m /period glyphshow
9.541016 0.000000 m /four glyphshow
15.903320 0.000000 m /e glyphshow
22.055664 0.000000 m /hyphen glyphshow
25.664062 0.000000 m /one glyphshow
32.026367 0.000000 m /two glyphshow
grestore
[0.8 1.32] 0 setdash
0.502 setgray
gsave
259.4 40.25 29.92 451.8 clipbox
29.92 490.200455 m
289.37 490.200455 l
stroke
grestore
[] 0 setdash
0.000 setgray
gsave
/o {
gsave
newpath
translate
0.8 setlinewidth
1 setlinejoin
0 setlinecap
0 0 m
3.5 0 l

gsave
0.000 setgray
fill
grestore
stroke
grestore
} bind def
289.37 490.2 o
grestore
gsave
296.370000 486.403580 translate
0.000000 rotate
0.000000 0.000000 m /three glyphshow
6.362305 0.000000 m /period glyphshow
9.541016 0.000000 m /six glyphshow
15.903320 0.000000 m /five glyphshow
22.265625 0.000000 m /e glyphshow
28.417969 0.000000 m /hyphen glyphshow
32.026367 0.000000 m /zero glyphshow
38.388672 0.000000 m /four glyphshow
grestore
gsave
23.841875 457.905000 translate
90.000000 rotate
/DejaVuSans-Oblique findfont
10.0 scalefont
setfont
0.000000 0.976562 moveto
/f glyphshow

/DejaVuSans findfont
7.0 scalefont
setfont
3.520508 -0.664062 moveto
/two glyphshow

/DejaVuSans findfont
10.0 scalefont
setfont
8.247559 0.976562 moveto
/parenleft glyphshow

/DejaVuSans-Oblique findfont
10.0 scalefont
setfont
12.148926 0.976562 moveto
/X glyphshow

/DejaVuSans findfont
7.0 scalefont
setfont
19.702064 4.804688 moveto
/asterisk glyphshow

/DejaVuSans findfont
10.0 scalefont
setfont
23.475501 0.976562 moveto
/parenright glyphshow


grestore
1.500 setlinewidth
2 setlinecap
gsave
259.4 40.25 29.92 451.8 clipbox
41.713182 455.615913 m
49.846411 453.615318 l
57.979639 453.610419 l
66.112868 453.609687 l
74.246097 453.610159 l
82.379326 453.610998 l
90.512555 453.609548 l
98.645784 453.609592 l
106.779013 453.609837 l
114.912241 453.609684 l
123.04547 453.609545 l
131.178699 453.609546 l
139.311928 453.60958 l
147.445157 453.609638 l
155.578386 490.200455 l
163.711614 453.617562 l
171.844843 453.610419 l
179.978072 453.94324 l
188.111301 453.60961 l
196.24453 453.610503 l
204.377759 453.609623 l
212.510987 453.609771 l
220.644216 453.609565 l
228.777445 453.60956 l
236.910674 454.018948 l
245.043903 455.784994 l
253.177132 453.60998 l
261.310361 453.624345 l
269.443589 453.658256 l
277.576818 456.232308 l
stroke
grestore
1.000 setlinewidth
0 setlinecap
1.000 0.000 0.000 setrgbcolor
gsave
259.4 40.25 29.92 451.8 clipbox
/o {
gsave
newpath
translate
1.0 setlinewidth
1 setlinejoin
0 setlinecap
0 -3 m
0.795609 -3 1.55874 -2.683901 2.12132 -2.12132 c
2.683901 -1.55874 3 -0.795609 3 0 c
3 0.795609 2.683901 1.55874 2.12132 2.12132 c
1.55874 2.683901 0.795609 3 0 3 c
-0.795609 3 -1.55874 2.683901 -2.12132 2.12132 c
-2.683901 1.55874 -3 0.795609 -3 0 c
-3 -0.795609 -2.683901 -1.55874 -2.12132 -2.12132 c
-1.55874 -2.683901 -0.795609 -3 0 -3 c
cl

gsave
1.000 0.000 0.000 setrgbcolor
fill
grestore
stroke
grestore
} bind def
123.045 453.61 o
grestore
0.800 setlinewidth
0 setlinejoin
2 setlinecap
[] 0 setdash
0.000 setgray
gsave
29.92 451.78 m
29.92 492.03 l
stroke
grestore
gsave
289.37 451.78 m
289.37 492.03 l
stroke
grestore
gsave
29.92 451.78 m
289.37 451.78 l
stroke
grestore
gsave
29.92 492.03 m
289.37 492.03 l
stroke
grestore
gsave
29.92 381.13 m
289.37 381.13 l
289.37 421.38 l
29.92 421.38 l
cl
1.000 setgray
fill
grestore
1 setlinejoin
0 setlinecap
[0.8 1.32] 0 setdash
0.502 setgray
gsave
259.4 40.25 29.92 381.1 clipbox
57.979639 381.13 m
57.979639 421.38 l
stroke
grestore
[] 0 setdash
1.000 setgray
gsave
/o {
gsave
newpath
translate
0.8 setlinewidth
1 setlinejoin
0 setlinecap
0 0 m
0 -3.5 l

gsave
1.000 setgray
fill
grestore
stroke
grestore
} bind def
57.9796 381.13 o
grestore
gsave
54.799952 366.536250 translate
0.000000 rotate
0.000000 0.000000 m /three glyphshow
grestore
[0.8 1.32] 0 setdash
0.502 setgray
gsave
259.4 40.25 29.92 381.1 clipbox
82.379326 381.13 m
82.379326 421.38 l
stroke
grestore
[] 0 setdash
1.000 setgray
gsave
/o {
gsave
newpath
translate
0.8 setlinewidth
1 setlinejoin
0 setlinecap
0 0 m
0 -3.5 l

gsave
1.000 setgray
fill
grestore
stroke
grestore
} bind def
82.3793 381.13 o
grestore
gsave
79.199639 366.536250 translate
0.000000 rotate
0.000000 0.000000 m /six glyphshow
grestore
[0.8 1.32] 0 setdash
0.502 setgray
gsave
259.4 40.25 29.92 381.1 clipbox
106.779013 381.13 m
106.779013 421.38 l
stroke
grestore
[] 0 setdash
1.000 setgray
gsave
/o {
gsave
newpath
translate
0.8 setlinewidth
1 setlinejoin
0 setlinecap
0 0 m
0 -3.5 l

gsave
1.000 setgray
fill
grestore
stroke
grestore
} bind def
106.779 381.13 o
grestore
gsave
103.599325 366.536250 translate
0.000000 rotate
0.000000 0.000000 m /nine glyphshow
grestore
[0.8 1.32] 0 setdash
0.502 setgray
gsave
259.4 40.25 29.92 381.1 clipbox
131.178699 381.13 m
131.178699 421.38 l
stroke
grestore
[] 0 setdash
1.000 setgray
gsave
/o {
gsave
newpath
translate
0.8 setlinewidth
1 setlinejoin
0 setlinecap
0 0 m
0 -3.5 l

gsave
1.000 setgray
fill
grestore
stroke
grestore
} bind def
131.179 381.13 o
grestore
gsave
124.819324 366.536250 translate
0.000000 rotate
0.000000 0.000000 m /one glyphshow
6.362305 0.000000 m /two glyphshow
grestore
[0.8 1.32] 0 setdash
0.502 setgray
gsave
259.4 40.25 29.92 381.1 clipbox
155.578386 381.13 m
155.578386 421.38 l
stroke
grestore
[] 0 setdash
1.000 setgray
gsave
/o {
gsave
newpath
translate
0.8 setlinewidth
1 setlinejoin
0 setlinecap
0 0 m
0 -3.5 l

gsave
1.000 setgray
fill
grestore
stroke
grestore
} bind def
155.578 381.13 o
grestore
gsave
149.219011 366.536250 translate
0.000000 rotate
0.000000 0.000000 m /one glyphshow
6.362305 0.000000 m /five glyphshow
grestore
[0.8 1.32] 0 setdash
0.502 setgray
gsave
259.4 40.25 29.92 381.1 clipbox
179.978072 381.13 m
179.978072 421.38 l
stroke
grestore
[] 0 setdash
1.000 setgray
gsave
/o {
gsave
newpath
translate
0.8 setlinewidth
1 setlinejoin
0 setlinecap
0 0 m
0 -3.5 l

gsave
1.000 setgray
fill
grestore
stroke
grestore
} bind def
179.978 381.13 o
grestore
gsave
173.618697 366.536250 translate
0.000000 rotate
0.000000 0.000000 m /one glyphshow
6.362305 0.000000 m /eight glyphshow
grestore
[0.8 1.32] 0 setdash
0.502 setgray
gsave
259.4 40.25 29.92 381.1 clipbox
204.377759 381.13 m
204.377759 421.38 l
stroke
grestore
[] 0 setdash
1.000 setgray
gsave
/o {
gsave
newpath
translate
0.8 setlinewidth
1 setlinejoin
0 setlinecap
0 0 m
0 -3.5 l

gsave
1.000 setgray
fill
grestore
stroke
grestore
} bind def
204.378 381.13 o
grestore
gsave
198.018384 366.536250 translate
0.000000 rotate
0.000000 0.000000 m /two glyphshow
6.362305 0.000000 m /one glyphshow
grestore
[0.8 1.32] 0 setdash
0.502 setgray
gsave
259.4 40.25 29.92 381.1 clipbox
228.777445 381.13 m
228.777445 421.38 l
stroke
grestore
[] 0 setdash
1.000 setgray
gsave
/o {
gsave
newpath
translate
0.8 setlinewidth
1 setlinejoin
0 setlinecap
0 0 m
0 -3.5 l

gsave
1.000 setgray
fill
grestore
stroke
grestore
} bind def
228.777 381.13 o
grestore
gsave
222.418070 366.536250 translate
0.000000 rotate
0.000000 0.000000 m /two glyphshow
6.362305 0.000000 m /four glyphshow
grestore
[0.8 1.32] 0 setdash
0.502 setgray
gsave
259.4 40.25 29.92 381.1 clipbox
253.177132 381.13 m
253.177132 421.38 l
stroke
grestore
[] 0 setdash
1.000 setgray
gsave
/o {
gsave
newpath
translate
0.8 setlinewidth
1 setlinejoin
0 setlinecap
0 0 m
0 -3.5 l

gsave
1.000 setgray
fill
grestore
stroke
grestore
} bind def
253.177 381.13 o
grestore
gsave
246.817757 366.536250 translate
0.000000 rotate
0.000000 0.000000 m /two glyphshow
6.362305 0.000000 m /seven glyphshow
grestore
[0.8 1.32] 0 setdash
0.502 setgray
gsave
259.4 40.25 29.92 381.1 clipbox
277.576818 381.13 m
277.576818 421.38 l
stroke
grestore
[] 0 setdash
1.000 setgray
gsave
/o {
gsave
newpath
translate
0.8 setlinewidth
1 setlinejoin
0 setlinecap
0 0 m
0 -3.5 l

gsave
1.000 setgray
fill
grestore
stroke
grestore
} bind def
277.577 381.13 o
grestore
gsave
271.217443 366.536250 translate
0.000000 rotate
0.000000 0.000000 m /three glyphshow
6.362305 0.000000 m /zero glyphshow
grestore
[0.8 1.32] 0 setdash
0.502 setgray
gsave
259.4 40.25 29.92 381.1 clipbox
29.92 382.959545 m
289.37 382.959545 l
stroke
grestore
[] 0 setdash
0.000 setgray
gsave
/o {
gsave
newpath
translate
0.8 setlinewidth
1 setlinejoin
0 setlinecap
0 0 m
3.5 0 l

gsave
0.000 setgray
fill
grestore
stroke
grestore
} bind def
289.37 382.96 o
grestore
gsave
296.370000 379.162670 translate
0.000000 rotate
0.000000 0.000000 m /three glyphshow
6.362305 0.000000 m /period glyphshow
9.541016 0.000000 m /six glyphshow
15.903320 0.000000 m /six glyphshow
22.265625 0.000000 m /e glyphshow
28.417969 0.000000 m /hyphen glyphshow
32.026367 0.000000 m /one glyphshow
38.388672 0.000000 m /six glyphshow
grestore
[0.8 1.32] 0 setdash
0.502 setgray
gsave
259.4 40.25 29.92 381.1 clipbox
29.92 419.550455 m
289.37 419.550455 l
stroke
grestore
[] 0 setdash
0.000 setgray
gsave
/o {
gsave
newpath
translate
0.8 setlinewidth
1 setlinejoin
0 setlinecap
0 0 m
3.5 0 l

gsave
0.000 setgray
fill
grestore
stroke
grestore
} bind def
289.37 419.55 o
grestore
gsave
296.370000 415.753580 translate
0.000000 rotate
0.000000 0.000000 m /two glyphshow
6.362305 0.000000 m /period glyphshow
9.541016 0.000000 m /three glyphshow
15.903320 0.000000 m /nine glyphshow
22.265625 0.000000 m /e glyphshow
28.417969 0.000000 m /hyphen glyphshow
32.026367 0.000000 m /zero glyphshow
38.388672 0.000000 m /one glyphshow
grestore
gsave
23.841875 387.255000 translate
90.000000 rotate
/DejaVuSans-Oblique findfont
10.0 scalefont
setfont
0.000000 0.976562 moveto
/f glyphshow

/DejaVuSans findfont
7.0 scalefont
setfont
3.520508 -0.664062 moveto
/three glyphshow

/DejaVuSans findfont
10.0 scalefont
setfont
8.247559 0.976562 moveto
/parenleft glyphshow

/DejaVuSans-Oblique findfont
10.0 scalefont
setfont
12.148926 0.976562 moveto
/X glyphshow

/DejaVuSans findfont
7.0 scalefont
setfont
19.702064 4.804688 moveto
/asterisk glyphshow

/DejaVuSans findfont
10.0 scalefont
setfont
23.475501 0.976562 moveto
/parenright glyphshow


grestore
1.500 setlinewidth
2 setlinecap
gsave
259.4 40.25 29.92 381.1 clipbox
41.713182 383.369768 m
49.846411 382.959545 l
57.979639 383.486861 l
66.112868 383.185742 l
74.246097 384.050581 l
82.379326 383.33581 l
90.512555 386.966281 l
98.645784 384.681342 l
106.779013 383.710249 l
114.912241 384.917723 l
123.04547 388.32545 l
131.178699 385.366279 l
139.311928 389.713211 l
147.445157 394.705314 l
155.578386 388.059586 l
163.711614 395.047135 l
171.844843 390.699148 l
179.978072 389.707888 l
188.111301 415.488144 l
196.24453 394.644326 l
204.377759 401.466803 l
212.510987 405.319596 l
220.644216 406.778164 l
228.777445 407.019835 l
236.910674 412.662169 l
245.043903 401.252627 l
253.177132 407.146216 l
261.310361 419.550455 l
269.443589 417.443977 l
277.576818 391.436747 l
stroke
grestore
1.000 setlinewidth
0 setlinecap
1.000 0.000 0.000 setrgbcolor
gsave
259.4 40.25 29.92 381.1 clipbox
/o {
gsave
newpath
translate
1.0 setlinewidth
1 setlinejoin
0 setlinecap
0 -3 m
0.795609 -3 1.55874 -2.683901 2.12132 -2.12132 c
2.683901 -1.55874 3 -0.795609 3 0 c
3 0.795609 2.683901 1.55874 2.12132 2.12132 c
1.55874 2.683901 0.795609 3 0 3 c
-0.795609 3 -1.55874 2.683901 -2.12132 2.12132 c
-2.683901 1.55874 -3 0.795609 -3 0 c
-3 -0.795609 -2.683901 -1.55874 -2.12132 -2.12132 c
-1.55874 -2.683901 -0.795609 -3 0 -3 c
cl

gsave
1.000 0.000 0.000 setrgbcolor
fill
grestore
stroke
grestore
} bind def
49.8464 382.96 o
grestore
0.800 setlinewidth
0 setlinejoin
2 setlinecap
[] 0 setdash
0.000 setgray
gsave
29.92 381.13 m
29.92 421.38 l
stroke
grestore
gsave
289.37 381.13 m
289.37 421.38 l
stroke
grestore
gsave
29.92 381.13 m
289.37 381.13 l
stroke
grestore
gsave
29.92 421.38 m
289.37 421.38 l
stroke
grestore
gsave
29.92 310.48 m
289.37 310.48 l
289.37 350.73 l
29.92 350.73 l
cl
1.000 setgray
fill
grestore
1 setlinejoin
0 setlinecap
[0.8 1.32] 0 setdash
0.502 setgray
gsave
259.4 40.25 29.92 310.5 clipbox
57.979639 310.48 m
57.979639 350.73 l
stroke
grestore
[] 0 setdash
1.000 setgray
gsave
/o {
gsave
newpath
translate
0.8 setlinewidth
1 setlinejoin
0 setlinecap
0 0 m
0 -3.5 l

gsave
1.000 setgray
fill
grestore
stroke
grestore
} bind def
57.9796 310.48 o
grestore
gsave
54.799952 295.886250 translate
0.000000 rotate
0.000000 0.000000 m /three glyphshow
grestore
[0.8 1.32] 0 setdash
0.502 setgray
gsave
259.4 40.25 29.92 310.5 clipbox
82.379326 310.48 m
82.379326 350.73 l
stroke
grestore
[] 0 setdash
1.000 setgray
gsave
/o {
gsave
newpath
translate
0.8 setlinewidth
1 setlinejoin
0 setlinecap
0 0 m
0 -3.5 l

gsave
1.000 setgray
fill
grestore
stroke
grestore
} bind def
82.3793 310.48 o
grestore
gsave
79.199639 295.886250 translate
0.000000 rotate
0.000000 0.000000 m /six glyphshow
grestore
[0.8 1.32] 0 setdash
0.502 setgray
gsave
259.4 40.25 29.92 310.5 clipbox
106.779013 310.48 m
106.779013 350.73 l
stroke
grestore
[] 0 setdash
1.000 setgray
gsave
/o {
gsave
newpath
translate
0.8 setlinewidth
1 setlinejoin
0 setlinecap
0 0 m
0 -3.5 l

gsave
1.000 setgray
fill
grestore
stroke
grestore
} bind def
106.779 310.48 o
grestore
gsave
103.599325 295.886250 translate
0.000000 rotate
0.000000 0.000000 m /nine glyphshow
grestore
[0.8 1.32] 0 setdash
0.502 setgray
gsave
259.4 40.25 29.92 310.5 clipbox
131.178699 310.48 m
131.178699 350.73 l
stroke
grestore
[] 0 setdash
1.000 setgray
gsave
/o {
gsave
newpath
translate
0.8 setlinewidth
1 setlinejoin
0 setlinecap
0 0 m
0 -3.5 l

gsave
1.000 setgray
fill
grestore
stroke
grestore
} bind def
131.179 310.48 o
grestore
gsave
124.819324 295.886250 translate
0.000000 rotate
0.000000 0.000000 m /one glyphshow
6.362305 0.000000 m /two glyphshow
grestore
[0.8 1.32] 0 setdash
0.502 setgray
gsave
259.4 40.25 29.92 310.5 clipbox
155.578386 310.48 m
155.578386 350.73 l
stroke
grestore
[] 0 setdash
1.000 setgray
gsave
/o {
gsave
newpath
translate
0.8 setlinewidth
1 setlinejoin
0 setlinecap
0 0 m
0 -3.5 l

gsave
1.000 setgray
fill
grestore
stroke
grestore
} bind def
155.578 310.48 o
grestore
gsave
149.219011 295.886250 translate
0.000000 rotate
0.000000 0.000000 m /one glyphshow
6.362305 0.000000 m /five glyphshow
grestore
[0.8 1.32] 0 setdash
0.502 setgray
gsave
259.4 40.25 29.92 310.5 clipbox
179.978072 310.48 m
179.978072 350.73 l
stroke
grestore
[] 0 setdash
1.000 setgray
gsave
/o {
gsave
newpath
translate
0.8 setlinewidth
1 setlinejoin
0 setlinecap
0 0 m
0 -3.5 l

gsave
1.000 setgray
fill
grestore
stroke
grestore
} bind def
179.978 310.48 o
grestore
gsave
173.618697 295.886250 translate
0.000000 rotate
0.000000 0.000000 m /one glyphshow
6.362305 0.000000 m /eight glyphshow
grestore
[0.8 1.32] 0 setdash
0.502 setgray
gsave
259.4 40.25 29.92 310.5 clipbox
204.377759 310.48 m
204.377759 350.73 l
stroke
grestore
[] 0 setdash
1.000 setgray
gsave
/o {
gsave
newpath
translate
0.8 setlinewidth
1 setlinejoin
0 setlinecap
0 0 m
0 -3.5 l

gsave
1.000 setgray
fill
grestore
stroke
grestore
} bind def
204.378 310.48 o
grestore
gsave
198.018384 295.886250 translate
0.000000 rotate
0.000000 0.000000 m /two glyphshow
6.362305 0.000000 m /one glyphshow
grestore
[0.8 1.32] 0 setdash
0.502 setgray
gsave
259.4 40.25 29.92 310.5 clipbox
228.777445 310.48 m
228.777445 350.73 l
stroke
grestore
[] 0 setdash
1.000 setgray
gsave
/o {
gsave
newpath
translate
0.8 setlinewidth
1 setlinejoin
0 setlinecap
0 0 m
0 -3.5 l

gsave
1.000 setgray
fill
grestore
stroke
grestore
} bind def
228.777 310.48 o
grestore
gsave
222.418070 295.886250 translate
0.000000 rotate
0.000000 0.000000 m /two glyphshow
6.362305 0.000000 m /four glyphshow
grestore
[0.8 1.32] 0 setdash
0.502 setgray
gsave
259.4 40.25 29.92 310.5 clipbox
253.177132 310.48 m
253.177132 350.73 l
stroke
grestore
[] 0 setdash
1.000 setgray
gsave
/o {
gsave
newpath
translate
0.8 setlinewidth
1 setlinejoin
0 setlinecap
0 0 m
0 -3.5 l

gsave
1.000 setgray
fill
grestore
stroke
grestore
} bind def
253.177 310.48 o
grestore
gsave
246.817757 295.886250 translate
0.000000 rotate
0.000000 0.000000 m /two glyphshow
6.362305 0.000000 m /seven glyphshow
grestore
[0.8 1.32] 0 setdash
0.502 setgray
gsave
259.4 40.25 29.92 310.5 clipbox
277.576818 310.48 m
277.576818 350.73 l
stroke
grestore
[] 0 setdash
1.000 setgray
gsave
/o {
gsave
newpath
translate
0.8 setlinewidth
1 setlinejoin
0 setlinecap
0 0 m
0 -3.5 l

gsave
1.000 setgray
fill
grestore
stroke
grestore
} bind def
277.577 310.48 o
grestore
gsave
271.217443 295.886250 translate
0.000000 rotate
0.000000 0.000000 m /three glyphshow
6.362305 0.000000 m /zero glyphshow
grestore
[0.8 1.32] 0 setdash
0.502 setgray
gsave
259.4 40.25 29.92 310.5 clipbox
29.92 312.309545 m
289.37 312.309545 l
stroke
grestore
[] 0 setdash
0.000 setgray
gsave
/o {
gsave
newpath
translate
0.8 setlinewidth
1 setlinejoin
0 setlinecap
0 0 m
3.5 0 l

gsave
0.000 setgray
fill
grestore
stroke
grestore
} bind def
289.37 312.31 o
grestore
gsave
296.370000 308.512670 translate
0.000000 rotate
0.000000 0.000000 m /hyphen glyphshow
3.608398 0.000000 m /two glyphshow
9.970703 0.000000 m /period glyphshow
13.149414 0.000000 m /nine glyphshow
19.511719 0.000000 m /four glyphshow
25.874023 0.000000 m /e glyphshow
32.026367 0.000000 m /plus glyphshow
40.405273 0.000000 m /zero glyphshow
46.767578 0.000000 m /one glyphshow
grestore
[0.8 1.32] 0 setdash
0.502 setgray
gsave
259.4 40.25 29.92 310.5 clipbox
29.92 348.900455 m
289.37 348.900455 l
stroke
grestore
[] 0 setdash
0.000 setgray
gsave
/o {
gsave
newpath
translate
0.8 setlinewidth
1 setlinejoin
0 setlinecap
0 0 m
3.5 0 l

gsave
0.000 setgray
fill
grestore
stroke
grestore
} bind def
289.37 348.9 o
grestore
gsave
296.370000 345.103580 translate
0.000000 rotate
0.000000 0.000000 m /hyphen glyphshow
3.608398 0.000000 m /two glyphshow
9.970703 0.000000 m /period glyphshow
13.149414 0.000000 m /seven glyphshow
19.511719 0.000000 m /three glyphshow
25.874023 0.000000 m /e glyphshow
32.026367 0.000000 m /plus glyphshow
40.405273 0.000000 m /zero glyphshow
46.767578 0.000000 m /one glyphshow
grestore
gsave
23.841875 316.605000 translate
90.000000 rotate
/DejaVuSans-Oblique findfont
10.0 scalefont
setfont
0.000000 0.976562 moveto
/f glyphshow

/DejaVuSans findfont
7.0 scalefont
setfont
3.520508 -0.664062 moveto
/four glyphshow

/DejaVuSans findfont
10.0 scalefont
setfont
8.247559 0.976562 moveto
/parenleft glyphshow

/DejaVuSans-Oblique findfont
10.0 scalefont
setfont
12.148926 0.976562 moveto
/X glyphshow

/DejaVuSans findfont
7.0 scalefont
setfont
19.702064 4.804688 moveto
/asterisk glyphshow

/DejaVuSans findfont
10.0 scalefont
setfont
23.475501 0.976562 moveto
/parenright glyphshow


grestore
1.500 setlinewidth
2 setlinecap
gsave
259.4 40.25 29.92 310.5 clipbox
41.713182 312.616418 m
49.846411 312.309545 l
57.979639 312.458979 l
66.112868 314.860175 l
74.246097 314.765631 l
82.379326 314.466491 l
90.512555 317.323783 l
98.645784 320.520402 l
106.779013 318.729954 l
114.912241 320.777501 l
123.04547 320.252847 l
131.178699 320.833409 l
139.311928 322.067375 l
147.445157 325.318356 l
155.578386 326.792709 l
163.711614 329.15395 l
171.844843 333.44173 l
179.978072 331.350773 l
188.111301 333.44991 l
196.24453 338.617239 l
204.377759 333.734367 l
212.510987 338.873751 l
220.644216 342.449784 l
228.777445 340.63166 l
236.910674 340.143464 l
245.043903 344.553741 l
253.177132 348.900455 l
261.310361 343.249978 l
269.443589 344.756459 l
277.576818 345.157176 l
stroke
grestore
1.000 setlinewidth
0 setlinecap
1.000 0.000 0.000 setrgbcolor
gsave
259.4 40.25 29.92 310.5 clipbox
/o {
gsave
newpath
translate
1.0 setlinewidth
1 setlinejoin
0 setlinecap
0 -3 m
0.795609 -3 1.55874 -2.683901 2.12132 -2.12132 c
2.683901 -1.55874 3 -0.795609 3 0 c
3 0.795609 2.683901 1.55874 2.12132 2.12132 c
1.55874 2.683901 0.795609 3 0 3 c
-0.795609 3 -1.55874 2.683901 -2.12132 2.12132 c
-2.683901 1.55874 -3 0.795609 -3 0 c
-3 -0.795609 -2.683901 -1.55874 -2.12132 -2.12132 c
-1.55874 -2.683901 -0.795609 -3 0 -3 c
cl

gsave
1.000 0.000 0.000 setrgbcolor
fill
grestore
stroke
grestore
} bind def
49.8464 312.31 o
grestore
0.800 setlinewidth
0 setlinejoin
2 setlinecap
[] 0 setdash
0.000 setgray
gsave
29.92 310.48 m
29.92 350.73 l
stroke
grestore
gsave
289.37 310.48 m
289.37 350.73 l
stroke
grestore
gsave
29.92 310.48 m
289.37 310.48 l
stroke
grestore
gsave
29.92 350.73 m
289.37 350.73 l
stroke
grestore
gsave
29.92 239.83 m
289.37 239.83 l
289.37 280.08 l
29.92 280.08 l
cl
1.000 setgray
fill
grestore
1 setlinejoin
0 setlinecap
[0.8 1.32] 0 setdash
0.502 setgray
gsave
259.4 40.25 29.92 239.8 clipbox
57.979639 239.83 m
57.979639 280.08 l
stroke
grestore
[] 0 setdash
1.000 setgray
gsave
/o {
gsave
newpath
translate
0.8 setlinewidth
1 setlinejoin
0 setlinecap
0 0 m
0 -3.5 l

gsave
1.000 setgray
fill
grestore
stroke
grestore
} bind def
57.9796 239.83 o
grestore
gsave
54.799952 225.236250 translate
0.000000 rotate
0.000000 0.000000 m /three glyphshow
grestore
[0.8 1.32] 0 setdash
0.502 setgray
gsave
259.4 40.25 29.92 239.8 clipbox
82.379326 239.83 m
82.379326 280.08 l
stroke
grestore
[] 0 setdash
1.000 setgray
gsave
/o {
gsave
newpath
translate
0.8 setlinewidth
1 setlinejoin
0 setlinecap
0 0 m
0 -3.5 l

gsave
1.000 setgray
fill
grestore
stroke
grestore
} bind def
82.3793 239.83 o
grestore
gsave
79.199639 225.236250 translate
0.000000 rotate
0.000000 0.000000 m /six glyphshow
grestore
[0.8 1.32] 0 setdash
0.502 setgray
gsave
259.4 40.25 29.92 239.8 clipbox
106.779013 239.83 m
106.779013 280.08 l
stroke
grestore
[] 0 setdash
1.000 setgray
gsave
/o {
gsave
newpath
translate
0.8 setlinewidth
1 setlinejoin
0 setlinecap
0 0 m
0 -3.5 l

gsave
1.000 setgray
fill
grestore
stroke
grestore
} bind def
106.779 239.83 o
grestore
gsave
103.599325 225.236250 translate
0.000000 rotate
0.000000 0.000000 m /nine glyphshow
grestore
[0.8 1.32] 0 setdash
0.502 setgray
gsave
259.4 40.25 29.92 239.8 clipbox
131.178699 239.83 m
131.178699 280.08 l
stroke
grestore
[] 0 setdash
1.000 setgray
gsave
/o {
gsave
newpath
translate
0.8 setlinewidth
1 setlinejoin
0 setlinecap
0 0 m
0 -3.5 l

gsave
1.000 setgray
fill
grestore
stroke
grestore
} bind def
131.179 239.83 o
grestore
gsave
124.819324 225.236250 translate
0.000000 rotate
0.000000 0.000000 m /one glyphshow
6.362305 0.000000 m /two glyphshow
grestore
[0.8 1.32] 0 setdash
0.502 setgray
gsave
259.4 40.25 29.92 239.8 clipbox
155.578386 239.83 m
155.578386 280.08 l
stroke
grestore
[] 0 setdash
1.000 setgray
gsave
/o {
gsave
newpath
translate
0.8 setlinewidth
1 setlinejoin
0 setlinecap
0 0 m
0 -3.5 l

gsave
1.000 setgray
fill
grestore
stroke
grestore
} bind def
155.578 239.83 o
grestore
gsave
149.219011 225.236250 translate
0.000000 rotate
0.000000 0.000000 m /one glyphshow
6.362305 0.000000 m /five glyphshow
grestore
[0.8 1.32] 0 setdash
0.502 setgray
gsave
259.4 40.25 29.92 239.8 clipbox
179.978072 239.83 m
179.978072 280.08 l
stroke
grestore
[] 0 setdash
1.000 setgray
gsave
/o {
gsave
newpath
translate
0.8 setlinewidth
1 setlinejoin
0 setlinecap
0 0 m
0 -3.5 l

gsave
1.000 setgray
fill
grestore
stroke
grestore
} bind def
179.978 239.83 o
grestore
gsave
173.618697 225.236250 translate
0.000000 rotate
0.000000 0.000000 m /one glyphshow
6.362305 0.000000 m /eight glyphshow
grestore
[0.8 1.32] 0 setdash
0.502 setgray
gsave
259.4 40.25 29.92 239.8 clipbox
204.377759 239.83 m
204.377759 280.08 l
stroke
grestore
[] 0 setdash
1.000 setgray
gsave
/o {
gsave
newpath
translate
0.8 setlinewidth
1 setlinejoin
0 setlinecap
0 0 m
0 -3.5 l

gsave
1.000 setgray
fill
grestore
stroke
grestore
} bind def
204.378 239.83 o
grestore
gsave
198.018384 225.236250 translate
0.000000 rotate
0.000000 0.000000 m /two glyphshow
6.362305 0.000000 m /one glyphshow
grestore
[0.8 1.32] 0 setdash
0.502 setgray
gsave
259.4 40.25 29.92 239.8 clipbox
228.777445 239.83 m
228.777445 280.08 l
stroke
grestore
[] 0 setdash
1.000 setgray
gsave
/o {
gsave
newpath
translate
0.8 setlinewidth
1 setlinejoin
0 setlinecap
0 0 m
0 -3.5 l

gsave
1.000 setgray
fill
grestore
stroke
grestore
} bind def
228.777 239.83 o
grestore
gsave
222.418070 225.236250 translate
0.000000 rotate
0.000000 0.000000 m /two glyphshow
6.362305 0.000000 m /four glyphshow
grestore
[0.8 1.32] 0 setdash
0.502 setgray
gsave
259.4 40.25 29.92 239.8 clipbox
253.177132 239.83 m
253.177132 280.08 l
stroke
grestore
[] 0 setdash
1.000 setgray
gsave
/o {
gsave
newpath
translate
0.8 setlinewidth
1 setlinejoin
0 setlinecap
0 0 m
0 -3.5 l

gsave
1.000 setgray
fill
grestore
stroke
grestore
} bind def
253.177 239.83 o
grestore
gsave
246.817757 225.236250 translate
0.000000 rotate
0.000000 0.000000 m /two glyphshow
6.362305 0.000000 m /seven glyphshow
grestore
[0.8 1.32] 0 setdash
0.502 setgray
gsave
259.4 40.25 29.92 239.8 clipbox
277.576818 239.83 m
277.576818 280.08 l
stroke
grestore
[] 0 setdash
1.000 setgray
gsave
/o {
gsave
newpath
translate
0.8 setlinewidth
1 setlinejoin
0 setlinecap
0 0 m
0 -3.5 l

gsave
1.000 setgray
fill
grestore
stroke
grestore
} bind def
277.577 239.83 o
grestore
gsave
271.217443 225.236250 translate
0.000000 rotate
0.000000 0.000000 m /three glyphshow
6.362305 0.000000 m /zero glyphshow
grestore
[0.8 1.32] 0 setdash
0.502 setgray
gsave
259.4 40.25 29.92 239.8 clipbox
29.92 241.659545 m
289.37 241.659545 l
stroke
grestore
[] 0 setdash
0.000 setgray
gsave
/o {
gsave
newpath
translate
0.8 setlinewidth
1 setlinejoin
0 setlinecap
0 0 m
3.5 0 l

gsave
0.000 setgray
fill
grestore
stroke
grestore
} bind def
289.37 241.66 o
grestore
gsave
296.370000 237.862670 translate
0.000000 rotate
0.000000 0.000000 m /seven glyphshow
6.362305 0.000000 m /period glyphshow
9.541016 0.000000 m /three glyphshow
15.903320 0.000000 m /nine glyphshow
22.265625 0.000000 m /e glyphshow
28.417969 0.000000 m /hyphen glyphshow
32.026367 0.000000 m /one glyphshow
38.388672 0.000000 m /four glyphshow
grestore
[0.8 1.32] 0 setdash
0.502 setgray
gsave
259.4 40.25 29.92 239.8 clipbox
29.92 278.250455 m
289.37 278.250455 l
stroke
grestore
[] 0 setdash
0.000 setgray
gsave
/o {
gsave
newpath
translate
0.8 setlinewidth
1 setlinejoin
0 setlinecap
0 0 m
3.5 0 l

gsave
0.000 setgray
fill
grestore
stroke
grestore
} bind def
289.37 278.25 o
grestore
gsave
296.370000 274.453580 translate
0.000000 rotate
0.000000 0.000000 m /two glyphshow
6.362305 0.000000 m /period glyphshow
9.541016 0.000000 m /nine glyphshow
15.903320 0.000000 m /four glyphshow
22.265625 0.000000 m /e glyphshow
28.417969 0.000000 m /plus glyphshow
36.796875 0.000000 m /zero glyphshow
43.159180 0.000000 m /one glyphshow
grestore
gsave
23.841875 245.955000 translate
90.000000 rotate
/DejaVuSans-Oblique findfont
10.0 scalefont
setfont
0.000000 0.976562 moveto
/f glyphshow

/DejaVuSans findfont
7.0 scalefont
setfont
3.520508 -0.664062 moveto
/five glyphshow

/DejaVuSans findfont
10.0 scalefont
setfont
8.247559 0.976562 moveto
/parenleft glyphshow

/DejaVuSans-Oblique findfont
10.0 scalefont
setfont
12.148926 0.976562 moveto
/X glyphshow

/DejaVuSans findfont
7.0 scalefont
setfont
19.702064 4.804688 moveto
/asterisk glyphshow

/DejaVuSans findfont
10.0 scalefont
setfont
23.475501 0.976562 moveto
/parenright glyphshow


grestore
1.500 setlinewidth
2 setlinecap
gsave
259.4 40.25 29.92 239.8 clipbox
41.713182 241.659545 m
49.846411 241.659545 l
57.979639 242.651834 l
66.112868 242.651834 l
74.246097 243.64896 l
82.379326 245.897946 l
90.512555 246.939928 l
98.645784 250.696582 l
106.779013 251.459691 l
114.912241 252.565046 l
123.04547 253.093006 l
131.178699 253.108457 l
139.311928 254.857788 l
147.445157 254.096753 l
155.578386 258.659905 l
163.711614 259.232438 l
171.844843 257.480206 l
179.978072 261.942524 l
188.111301 262.795544 l
196.24453 262.551904 l
204.377759 268.302962 l
212.510987 265.486078 l
220.644216 274.869204 l
228.777445 267.212167 l
236.910674 273.041411 l
245.043903 271.982167 l
253.177132 272.812411 l
261.310361 278.250455 l
269.443589 276.01786 l
277.576818 278.044651 l
stroke
grestore
1.000 setlinewidth
0 setlinecap
1.000 0.000 0.000 setrgbcolor
gsave
259.4 40.25 29.92 239.8 clipbox
/o {
gsave
newpath
translate
1.0 setlinewidth
1 setlinejoin
0 setlinecap
0 -3 m
0.795609 -3 1.55874 -2.683901 2.12132 -2.12132 c
2.683901 -1.55874 3 -0.795609 3 0 c
3 0.795609 2.683901 1.55874 2.12132 2.12132 c
1.55874 2.683901 0.795609 3 0 3 c
-0.795609 3 -1.55874 2.683901 -2.12132 2.12132 c
-2.683901 1.55874 -3 0.795609 -3 0 c
-3 -0.795609 -2.683901 -1.55874 -2.12132 -2.12132 c
-1.55874 -2.683901 -0.795609 -3 0 -3 c
cl

gsave
1.000 0.000 0.000 setrgbcolor
fill
grestore
stroke
grestore
} bind def
49.8464 241.66 o
grestore
0.800 setlinewidth
0 setlinejoin
2 setlinecap
[] 0 setdash
0.000 setgray
gsave
29.92 239.83 m
29.92 280.08 l
stroke
grestore
gsave
289.37 239.83 m
289.37 280.08 l
stroke
grestore
gsave
29.92 239.83 m
289.37 239.83 l
stroke
grestore
gsave
29.92 280.08 m
289.37 280.08 l
stroke
grestore
gsave
29.92 169.18 m
289.37 169.18 l
289.37 209.43 l
29.92 209.43 l
cl
1.000 setgray
fill
grestore
1 setlinejoin
0 setlinecap
[0.8 1.32] 0 setdash
0.502 setgray
gsave
259.4 40.25 29.92 169.2 clipbox
57.979639 169.18 m
57.979639 209.43 l
stroke
grestore
[] 0 setdash
1.000 setgray
gsave
/o {
gsave
newpath
translate
0.8 setlinewidth
1 setlinejoin
0 setlinecap
0 0 m
0 -3.5 l

gsave
1.000 setgray
fill
grestore
stroke
grestore
} bind def
57.9796 169.18 o
grestore
gsave
54.799952 154.586250 translate
0.000000 rotate
0.000000 0.000000 m /three glyphshow
grestore
[0.8 1.32] 0 setdash
0.502 setgray
gsave
259.4 40.25 29.92 169.2 clipbox
82.379326 169.18 m
82.379326 209.43 l
stroke
grestore
[] 0 setdash
1.000 setgray
gsave
/o {
gsave
newpath
translate
0.8 setlinewidth
1 setlinejoin
0 setlinecap
0 0 m
0 -3.5 l

gsave
1.000 setgray
fill
grestore
stroke
grestore
} bind def
82.3793 169.18 o
grestore
gsave
79.199639 154.586250 translate
0.000000 rotate
0.000000 0.000000 m /six glyphshow
grestore
[0.8 1.32] 0 setdash
0.502 setgray
gsave
259.4 40.25 29.92 169.2 clipbox
106.779013 169.18 m
106.779013 209.43 l
stroke
grestore
[] 0 setdash
1.000 setgray
gsave
/o {
gsave
newpath
translate
0.8 setlinewidth
1 setlinejoin
0 setlinecap
0 0 m
0 -3.5 l

gsave
1.000 setgray
fill
grestore
stroke
grestore
} bind def
106.779 169.18 o
grestore
gsave
103.599325 154.586250 translate
0.000000 rotate
0.000000 0.000000 m /nine glyphshow
grestore
[0.8 1.32] 0 setdash
0.502 setgray
gsave
259.4 40.25 29.92 169.2 clipbox
131.178699 169.18 m
131.178699 209.43 l
stroke
grestore
[] 0 setdash
1.000 setgray
gsave
/o {
gsave
newpath
translate
0.8 setlinewidth
1 setlinejoin
0 setlinecap
0 0 m
0 -3.5 l

gsave
1.000 setgray
fill
grestore
stroke
grestore
} bind def
131.179 169.18 o
grestore
gsave
124.819324 154.586250 translate
0.000000 rotate
0.000000 0.000000 m /one glyphshow
6.362305 0.000000 m /two glyphshow
grestore
[0.8 1.32] 0 setdash
0.502 setgray
gsave
259.4 40.25 29.92 169.2 clipbox
155.578386 169.18 m
155.578386 209.43 l
stroke
grestore
[] 0 setdash
1.000 setgray
gsave
/o {
gsave
newpath
translate
0.8 setlinewidth
1 setlinejoin
0 setlinecap
0 0 m
0 -3.5 l

gsave
1.000 setgray
fill
grestore
stroke
grestore
} bind def
155.578 169.18 o
grestore
gsave
149.219011 154.586250 translate
0.000000 rotate
0.000000 0.000000 m /one glyphshow
6.362305 0.000000 m /five glyphshow
grestore
[0.8 1.32] 0 setdash
0.502 setgray
gsave
259.4 40.25 29.92 169.2 clipbox
179.978072 169.18 m
179.978072 209.43 l
stroke
grestore
[] 0 setdash
1.000 setgray
gsave
/o {
gsave
newpath
translate
0.8 setlinewidth
1 setlinejoin
0 setlinecap
0 0 m
0 -3.5 l

gsave
1.000 setgray
fill
grestore
stroke
grestore
} bind def
179.978 169.18 o
grestore
gsave
173.618697 154.586250 translate
0.000000 rotate
0.000000 0.000000 m /one glyphshow
6.362305 0.000000 m /eight glyphshow
grestore
[0.8 1.32] 0 setdash
0.502 setgray
gsave
259.4 40.25 29.92 169.2 clipbox
204.377759 169.18 m
204.377759 209.43 l
stroke
grestore
[] 0 setdash
1.000 setgray
gsave
/o {
gsave
newpath
translate
0.8 setlinewidth
1 setlinejoin
0 setlinecap
0 0 m
0 -3.5 l

gsave
1.000 setgray
fill
grestore
stroke
grestore
} bind def
204.378 169.18 o
grestore
gsave
198.018384 154.586250 translate
0.000000 rotate
0.000000 0.000000 m /two glyphshow
6.362305 0.000000 m /one glyphshow
grestore
[0.8 1.32] 0 setdash
0.502 setgray
gsave
259.4 40.25 29.92 169.2 clipbox
228.777445 169.18 m
228.777445 209.43 l
stroke
grestore
[] 0 setdash
1.000 setgray
gsave
/o {
gsave
newpath
translate
0.8 setlinewidth
1 setlinejoin
0 setlinecap
0 0 m
0 -3.5 l

gsave
1.000 setgray
fill
grestore
stroke
grestore
} bind def
228.777 169.18 o
grestore
gsave
222.418070 154.586250 translate
0.000000 rotate
0.000000 0.000000 m /two glyphshow
6.362305 0.000000 m /four glyphshow
grestore
[0.8 1.32] 0 setdash
0.502 setgray
gsave
259.4 40.25 29.92 169.2 clipbox
253.177132 169.18 m
253.177132 209.43 l
stroke
grestore
[] 0 setdash
1.000 setgray
gsave
/o {
gsave
newpath
translate
0.8 setlinewidth
1 setlinejoin
0 setlinecap
0 0 m
0 -3.5 l

gsave
1.000 setgray
fill
grestore
stroke
grestore
} bind def
253.177 169.18 o
grestore
gsave
246.817757 154.586250 translate
0.000000 rotate
0.000000 0.000000 m /two glyphshow
6.362305 0.000000 m /seven glyphshow
grestore
[0.8 1.32] 0 setdash
0.502 setgray
gsave
259.4 40.25 29.92 169.2 clipbox
277.576818 169.18 m
277.576818 209.43 l
stroke
grestore
[] 0 setdash
1.000 setgray
gsave
/o {
gsave
newpath
translate
0.8 setlinewidth
1 setlinejoin
0 setlinecap
0 0 m
0 -3.5 l

gsave
1.000 setgray
fill
grestore
stroke
grestore
} bind def
277.577 169.18 o
grestore
gsave
271.217443 154.586250 translate
0.000000 rotate
0.000000 0.000000 m /three glyphshow
6.362305 0.000000 m /zero glyphshow
grestore
[0.8 1.32] 0 setdash
0.502 setgray
gsave
259.4 40.25 29.92 169.2 clipbox
29.92 171.009545 m
289.37 171.009545 l
stroke
grestore
[] 0 setdash
0.000 setgray
gsave
/o {
gsave
newpath
translate
0.8 setlinewidth
1 setlinejoin
0 setlinecap
0 0 m
3.5 0 l

gsave
0.000 setgray
fill
grestore
stroke
grestore
} bind def
289.37 171.01 o
grestore
gsave
296.370000 167.212670 translate
0.000000 rotate
0.000000 0.000000 m /one glyphshow
6.362305 0.000000 m /period glyphshow
9.541016 0.000000 m /seven glyphshow
15.903320 0.000000 m /one glyphshow
22.265625 0.000000 m /e glyphshow
28.417969 0.000000 m /hyphen glyphshow
32.026367 0.000000 m /zero glyphshow
38.388672 0.000000 m /one glyphshow
grestore
[0.8 1.32] 0 setdash
0.502 setgray
gsave
259.4 40.25 29.92 169.2 clipbox
29.92 207.600455 m
289.37 207.600455 l
stroke
grestore
[] 0 setdash
0.000 setgray
gsave
/o {
gsave
newpath
translate
0.8 setlinewidth
1 setlinejoin
0 setlinecap
0 0 m
3.5 0 l

gsave
0.000 setgray
fill
grestore
stroke
grestore
} bind def
289.37 207.6 o
grestore
gsave
296.370000 203.803580 translate
0.000000 rotate
0.000000 0.000000 m /five glyphshow
6.362305 0.000000 m /period glyphshow
9.541016 0.000000 m /four glyphshow
15.903320 0.000000 m /one glyphshow
22.265625 0.000000 m /e glyphshow
28.417969 0.000000 m /plus glyphshow
36.796875 0.000000 m /zero glyphshow
43.159180 0.000000 m /one glyphshow
grestore
gsave
23.841875 175.305000 translate
90.000000 rotate
/DejaVuSans-Oblique findfont
10.0 scalefont
setfont
0.000000 0.976562 moveto
/f glyphshow

/DejaVuSans findfont
7.0 scalefont
setfont
3.520508 -0.664062 moveto
/six glyphshow

/DejaVuSans findfont
10.0 scalefont
setfont
8.247559 0.976562 moveto
/parenleft glyphshow

/DejaVuSans-Oblique findfont
10.0 scalefont
setfont
12.148926 0.976562 moveto
/X glyphshow

/DejaVuSans findfont
7.0 scalefont
setfont
19.702064 4.804688 moveto
/asterisk glyphshow

/DejaVuSans findfont
10.0 scalefont
setfont
23.475501 0.976562 moveto
/parenright glyphshow


grestore
1.500 setlinewidth
2 setlinecap
gsave
259.4 40.25 29.92 169.2 clipbox
41.713182 171.009545 m
49.846411 171.225881 l
57.979639 171.345088 l
66.112868 171.37767 l
74.246097 171.156102 l
82.379326 176.642068 l
90.512555 187.754117 l
98.645784 176.053555 l
106.779013 181.321644 l
114.912241 181.163376 l
123.04547 186.520667 l
131.178699 207.600455 l
139.311928 186.261898 l
147.445157 172.073217 l
155.578386 198.699272 l
163.711614 190.559723 l
171.844843 181.695501 l
179.978072 191.098695 l
188.111301 187.261606 l
196.24453 189.502639 l
204.377759 195.367072 l
212.510987 186.456035 l
220.644216 195.427437 l
228.777445 194.303336 l
236.910674 197.127672 l
245.043903 204.37163 l
253.177132 177.26218 l
261.310361 190.272201 l
269.443589 197.656439 l
277.576818 187.522483 l
stroke
grestore
1.000 setlinewidth
0 setlinecap
1.000 0.000 0.000 setrgbcolor
gsave
259.4 40.25 29.92 169.2 clipbox
/o {
gsave
newpath
translate
1.0 setlinewidth
1 setlinejoin
0 setlinecap
0 -3 m
0.795609 -3 1.55874 -2.683901 2.12132 -2.12132 c
2.683901 -1.55874 3 -0.795609 3 0 c
3 0.795609 2.683901 1.55874 2.12132 2.12132 c
1.55874 2.683901 0.795609 3 0 3 c
-0.795609 3 -1.55874 2.683901 -2.12132 2.12132 c
-2.683901 1.55874 -3 0.795609 -3 0 c
-3 -0.795609 -2.683901 -1.55874 -2.12132 -2.12132 c
-1.55874 -2.683901 -0.795609 -3 0 -3 c
cl

gsave
1.000 0.000 0.000 setrgbcolor
fill
grestore
stroke
grestore
} bind def
41.7132 171.01 o
grestore
0.800 setlinewidth
0 setlinejoin
2 setlinecap
[] 0 setdash
0.000 setgray
gsave
29.92 169.18 m
29.92 209.43 l
stroke
grestore
gsave
289.37 169.18 m
289.37 209.43 l
stroke
grestore
gsave
29.92 169.18 m
289.37 169.18 l
stroke
grestore
gsave
29.92 209.43 m
289.37 209.43 l
stroke
grestore
gsave
29.92 98.53 m
289.37 98.53 l
289.37 138.78 l
29.92 138.78 l
cl
1.000 setgray
fill
grestore
1 setlinejoin
0 setlinecap
[0.8 1.32] 0 setdash
0.502 setgray
gsave
259.4 40.25 29.92 98.53 clipbox
57.979639 98.53 m
57.979639 138.78 l
stroke
grestore
[] 0 setdash
1.000 setgray
gsave
/o {
gsave
newpath
translate
0.8 setlinewidth
1 setlinejoin
0 setlinecap
0 0 m
0 -3.5 l

gsave
1.000 setgray
fill
grestore
stroke
grestore
} bind def
57.9796 98.53 o
grestore
gsave
54.799952 83.936250 translate
0.000000 rotate
0.000000 0.000000 m /three glyphshow
grestore
[0.8 1.32] 0 setdash
0.502 setgray
gsave
259.4 40.25 29.92 98.53 clipbox
82.379326 98.53 m
82.379326 138.78 l
stroke
grestore
[] 0 setdash
1.000 setgray
gsave
/o {
gsave
newpath
translate
0.8 setlinewidth
1 setlinejoin
0 setlinecap
0 0 m
0 -3.5 l

gsave
1.000 setgray
fill
grestore
stroke
grestore
} bind def
82.3793 98.53 o
grestore
gsave
79.199639 83.936250 translate
0.000000 rotate
0.000000 0.000000 m /six glyphshow
grestore
[0.8 1.32] 0 setdash
0.502 setgray
gsave
259.4 40.25 29.92 98.53 clipbox
106.779013 98.53 m
106.779013 138.78 l
stroke
grestore
[] 0 setdash
1.000 setgray
gsave
/o {
gsave
newpath
translate
0.8 setlinewidth
1 setlinejoin
0 setlinecap
0 0 m
0 -3.5 l

gsave
1.000 setgray
fill
grestore
stroke
grestore
} bind def
106.779 98.53 o
grestore
gsave
103.599325 83.936250 translate
0.000000 rotate
0.000000 0.000000 m /nine glyphshow
grestore
[0.8 1.32] 0 setdash
0.502 setgray
gsave
259.4 40.25 29.92 98.53 clipbox
131.178699 98.53 m
131.178699 138.78 l
stroke
grestore
[] 0 setdash
1.000 setgray
gsave
/o {
gsave
newpath
translate
0.8 setlinewidth
1 setlinejoin
0 setlinecap
0 0 m
0 -3.5 l

gsave
1.000 setgray
fill
grestore
stroke
grestore
} bind def
131.179 98.53 o
grestore
gsave
124.819324 83.936250 translate
0.000000 rotate
0.000000 0.000000 m /one glyphshow
6.362305 0.000000 m /two glyphshow
grestore
[0.8 1.32] 0 setdash
0.502 setgray
gsave
259.4 40.25 29.92 98.53 clipbox
155.578386 98.53 m
155.578386 138.78 l
stroke
grestore
[] 0 setdash
1.000 setgray
gsave
/o {
gsave
newpath
translate
0.8 setlinewidth
1 setlinejoin
0 setlinecap
0 0 m
0 -3.5 l

gsave
1.000 setgray
fill
grestore
stroke
grestore
} bind def
155.578 98.53 o
grestore
gsave
149.219011 83.936250 translate
0.000000 rotate
0.000000 0.000000 m /one glyphshow
6.362305 0.000000 m /five glyphshow
grestore
[0.8 1.32] 0 setdash
0.502 setgray
gsave
259.4 40.25 29.92 98.53 clipbox
179.978072 98.53 m
179.978072 138.78 l
stroke
grestore
[] 0 setdash
1.000 setgray
gsave
/o {
gsave
newpath
translate
0.8 setlinewidth
1 setlinejoin
0 setlinecap
0 0 m
0 -3.5 l

gsave
1.000 setgray
fill
grestore
stroke
grestore
} bind def
179.978 98.53 o
grestore
gsave
173.618697 83.936250 translate
0.000000 rotate
0.000000 0.000000 m /one glyphshow
6.362305 0.000000 m /eight glyphshow
grestore
[0.8 1.32] 0 setdash
0.502 setgray
gsave
259.4 40.25 29.92 98.53 clipbox
204.377759 98.53 m
204.377759 138.78 l
stroke
grestore
[] 0 setdash
1.000 setgray
gsave
/o {
gsave
newpath
translate
0.8 setlinewidth
1 setlinejoin
0 setlinecap
0 0 m
0 -3.5 l

gsave
1.000 setgray
fill
grestore
stroke
grestore
} bind def
204.378 98.53 o
grestore
gsave
198.018384 83.936250 translate
0.000000 rotate
0.000000 0.000000 m /two glyphshow
6.362305 0.000000 m /one glyphshow
grestore
[0.8 1.32] 0 setdash
0.502 setgray
gsave
259.4 40.25 29.92 98.53 clipbox
228.777445 98.53 m
228.777445 138.78 l
stroke
grestore
[] 0 setdash
1.000 setgray
gsave
/o {
gsave
newpath
translate
0.8 setlinewidth
1 setlinejoin
0 setlinecap
0 0 m
0 -3.5 l

gsave
1.000 setgray
fill
grestore
stroke
grestore
} bind def
228.777 98.53 o
grestore
gsave
222.418070 83.936250 translate
0.000000 rotate
0.000000 0.000000 m /two glyphshow
6.362305 0.000000 m /four glyphshow
grestore
[0.8 1.32] 0 setdash
0.502 setgray
gsave
259.4 40.25 29.92 98.53 clipbox
253.177132 98.53 m
253.177132 138.78 l
stroke
grestore
[] 0 setdash
1.000 setgray
gsave
/o {
gsave
newpath
translate
0.8 setlinewidth
1 setlinejoin
0 setlinecap
0 0 m
0 -3.5 l

gsave
1.000 setgray
fill
grestore
stroke
grestore
} bind def
253.177 98.53 o
grestore
gsave
246.817757 83.936250 translate
0.000000 rotate
0.000000 0.000000 m /two glyphshow
6.362305 0.000000 m /seven glyphshow
grestore
[0.8 1.32] 0 setdash
0.502 setgray
gsave
259.4 40.25 29.92 98.53 clipbox
277.576818 98.53 m
277.576818 138.78 l
stroke
grestore
[] 0 setdash
1.000 setgray
gsave
/o {
gsave
newpath
translate
0.8 setlinewidth
1 setlinejoin
0 setlinecap
0 0 m
0 -3.5 l

gsave
1.000 setgray
fill
grestore
stroke
grestore
} bind def
277.577 98.53 o
grestore
gsave
271.217443 83.936250 translate
0.000000 rotate
0.000000 0.000000 m /three glyphshow
6.362305 0.000000 m /zero glyphshow
grestore
[0.8 1.32] 0 setdash
0.502 setgray
gsave
259.4 40.25 29.92 98.53 clipbox
29.92 100.359545 m
289.37 100.359545 l
stroke
grestore
[] 0 setdash
0.000 setgray
gsave
/o {
gsave
newpath
translate
0.8 setlinewidth
1 setlinejoin
0 setlinecap
0 0 m
3.5 0 l

gsave
0.000 setgray
fill
grestore
stroke
grestore
} bind def
289.37 100.36 o
grestore
gsave
296.370000 96.562670 translate
0.000000 rotate
0.000000 0.000000 m /two glyphshow
6.362305 0.000000 m /period glyphshow
9.541016 0.000000 m /one glyphshow
15.903320 0.000000 m /eight glyphshow
22.265625 0.000000 m /e glyphshow
28.417969 0.000000 m /hyphen glyphshow
32.026367 0.000000 m /one glyphshow
38.388672 0.000000 m /two glyphshow
grestore
[0.8 1.32] 0 setdash
0.502 setgray
gsave
259.4 40.25 29.92 98.53 clipbox
29.92 136.950455 m
289.37 136.950455 l
stroke
grestore
[] 0 setdash
0.000 setgray
gsave
/o {
gsave
newpath
translate
0.8 setlinewidth
1 setlinejoin
0 setlinecap
0 0 m
3.5 0 l

gsave
0.000 setgray
fill
grestore
stroke
grestore
} bind def
289.37 136.95 o
grestore
gsave
296.370000 133.153580 translate
0.000000 rotate
0.000000 0.000000 m /two glyphshow
6.362305 0.000000 m /period glyphshow
9.541016 0.000000 m /zero glyphshow
15.903320 0.000000 m /four glyphshow
22.265625 0.000000 m /e glyphshow
28.417969 0.000000 m /plus glyphshow
36.796875 0.000000 m /zero glyphshow
43.159180 0.000000 m /three glyphshow
grestore
gsave
23.841875 104.655000 translate
90.000000 rotate
/DejaVuSans-Oblique findfont
10.0 scalefont
setfont
0.000000 0.976562 moveto
/f glyphshow

/DejaVuSans findfont
7.0 scalefont
setfont
3.520508 -0.664062 moveto
/seven glyphshow

/DejaVuSans findfont
10.0 scalefont
setfont
8.247559 0.976562 moveto
/parenleft glyphshow

/DejaVuSans-Oblique findfont
10.0 scalefont
setfont
12.148926 0.976562 moveto
/X glyphshow

/DejaVuSans findfont
7.0 scalefont
setfont
19.702064 4.804688 moveto
/asterisk glyphshow

/DejaVuSans findfont
10.0 scalefont
setfont
23.475501 0.976562 moveto
/parenright glyphshow


grestore
1.500 setlinewidth
2 setlinecap
gsave
259.4 40.25 29.92 98.53 clipbox
41.713182 100.784793 m
49.846411 100.359545 l
57.979639 100.572169 l
66.112868 100.359545 l
74.246097 101.210038 l
82.379326 101.635285 l
90.512555 102.025099 l
98.645784 102.698401 l
106.779013 103.938708 l
114.912241 104.644431 l
123.04547 107.34068 l
131.178699 107.482439 l
139.311928 109.396071 l
147.445157 110.712637 l
155.578386 112.868919 l
163.711614 114.865114 l
171.844843 115.314145 l
179.978072 113.376703 l
188.111301 119.035355 l
196.24453 119.919624 l
204.377759 122.865566 l
212.510987 125.392004 l
220.644216 124.010101 l
228.777445 127.50149 l
236.910674 130.851949 l
245.043903 128.613915 l
253.177132 131.990327 l
261.310361 135.448791 l
269.443589 133.041567 l
277.576818 136.950455 l
stroke
grestore
1.000 setlinewidth
0 setlinecap
1.000 0.000 0.000 setrgbcolor
gsave
259.4 40.25 29.92 98.53 clipbox
/o {
gsave
newpath
translate
1.0 setlinewidth
1 setlinejoin
0 setlinecap
0 -3 m
0.795609 -3 1.55874 -2.683901 2.12132 -2.12132 c
2.683901 -1.55874 3 -0.795609 3 0 c
3 0.795609 2.683901 1.55874 2.12132 2.12132 c
1.55874 2.683901 0.795609 3 0 3 c
-0.795609 3 -1.55874 2.683901 -2.12132 2.12132 c
-2.683901 1.55874 -3 0.795609 -3 0 c
-3 -0.795609 -2.683901 -1.55874 -2.12132 -2.12132 c
-1.55874 -2.683901 -0.795609 -3 0 -3 c
cl

gsave
1.000 0.000 0.000 setrgbcolor
fill
grestore
stroke
grestore
} bind def
66.1129 100.36 o
grestore
0.800 setlinewidth
0 setlinejoin
2 setlinecap
[] 0 setdash
0.000 setgray
gsave
29.92 98.53 m
29.92 138.78 l
stroke
grestore
gsave
289.37 98.53 m
289.37 138.78 l
stroke
grestore
gsave
29.92 98.53 m
289.37 98.53 l
stroke
grestore
gsave
29.92 138.78 m
289.37 138.78 l
stroke
grestore
gsave
29.92 27.88 m
289.37 27.88 l
289.37 68.13 l
29.92 68.13 l
cl
1.000 setgray
fill
grestore
1 setlinejoin
0 setlinecap
[0.8 1.32] 0 setdash
0.502 setgray
gsave
259.4 40.25 29.92 27.88 clipbox
57.979639 27.88 m
57.979639 68.13 l
stroke
grestore
[] 0 setdash
0.000 setgray
gsave
/o {
gsave
newpath
translate
0.8 setlinewidth
1 setlinejoin
0 setlinecap
0 0 m
0 -3.5 l

gsave
0.000 setgray
fill
grestore
stroke
grestore
} bind def
57.9796 27.88 o
grestore
gsave
54.799952 13.286250 translate
0.000000 rotate
0.000000 0.000000 m /three glyphshow
grestore
[0.8 1.32] 0 setdash
0.502 setgray
gsave
259.4 40.25 29.92 27.88 clipbox
82.379326 27.88 m
82.379326 68.13 l
stroke
grestore
[] 0 setdash
0.000 setgray
gsave
/o {
gsave
newpath
translate
0.8 setlinewidth
1 setlinejoin
0 setlinecap
0 0 m
0 -3.5 l

gsave
0.000 setgray
fill
grestore
stroke
grestore
} bind def
82.3793 27.88 o
grestore
gsave
79.199639 13.286250 translate
0.000000 rotate
0.000000 0.000000 m /six glyphshow
grestore
[0.8 1.32] 0 setdash
0.502 setgray
gsave
259.4 40.25 29.92 27.88 clipbox
106.779013 27.88 m
106.779013 68.13 l
stroke
grestore
[] 0 setdash
0.000 setgray
gsave
/o {
gsave
newpath
translate
0.8 setlinewidth
1 setlinejoin
0 setlinecap
0 0 m
0 -3.5 l

gsave
0.000 setgray
fill
grestore
stroke
grestore
} bind def
106.779 27.88 o
grestore
gsave
103.599325 13.286250 translate
0.000000 rotate
0.000000 0.000000 m /nine glyphshow
grestore
[0.8 1.32] 0 setdash
0.502 setgray
gsave
259.4 40.25 29.92 27.88 clipbox
131.178699 27.88 m
131.178699 68.13 l
stroke
grestore
[] 0 setdash
0.000 setgray
gsave
/o {
gsave
newpath
translate
0.8 setlinewidth
1 setlinejoin
0 setlinecap
0 0 m
0 -3.5 l

gsave
0.000 setgray
fill
grestore
stroke
grestore
} bind def
131.179 27.88 o
grestore
gsave
124.819324 13.286250 translate
0.000000 rotate
0.000000 0.000000 m /one glyphshow
6.362305 0.000000 m /two glyphshow
grestore
[0.8 1.32] 0 setdash
0.502 setgray
gsave
259.4 40.25 29.92 27.88 clipbox
155.578386 27.88 m
155.578386 68.13 l
stroke
grestore
[] 0 setdash
0.000 setgray
gsave
/o {
gsave
newpath
translate
0.8 setlinewidth
1 setlinejoin
0 setlinecap
0 0 m
0 -3.5 l

gsave
0.000 setgray
fill
grestore
stroke
grestore
} bind def
155.578 27.88 o
grestore
gsave
149.219011 13.286250 translate
0.000000 rotate
0.000000 0.000000 m /one glyphshow
6.362305 0.000000 m /five glyphshow
grestore
[0.8 1.32] 0 setdash
0.502 setgray
gsave
259.4 40.25 29.92 27.88 clipbox
179.978072 27.88 m
179.978072 68.13 l
stroke
grestore
[] 0 setdash
0.000 setgray
gsave
/o {
gsave
newpath
translate
0.8 setlinewidth
1 setlinejoin
0 setlinecap
0 0 m
0 -3.5 l

gsave
0.000 setgray
fill
grestore
stroke
grestore
} bind def
179.978 27.88 o
grestore
gsave
173.618697 13.286250 translate
0.000000 rotate
0.000000 0.000000 m /one glyphshow
6.362305 0.000000 m /eight glyphshow
grestore
[0.8 1.32] 0 setdash
0.502 setgray
gsave
259.4 40.25 29.92 27.88 clipbox
204.377759 27.88 m
204.377759 68.13 l
stroke
grestore
[] 0 setdash
0.000 setgray
gsave
/o {
gsave
newpath
translate
0.8 setlinewidth
1 setlinejoin
0 setlinecap
0 0 m
0 -3.5 l

gsave
0.000 setgray
fill
grestore
stroke
grestore
} bind def
204.378 27.88 o
grestore
gsave
198.018384 13.286250 translate
0.000000 rotate
0.000000 0.000000 m /two glyphshow
6.362305 0.000000 m /one glyphshow
grestore
[0.8 1.32] 0 setdash
0.502 setgray
gsave
259.4 40.25 29.92 27.88 clipbox
228.777445 27.88 m
228.777445 68.13 l
stroke
grestore
[] 0 setdash
0.000 setgray
gsave
/o {
gsave
newpath
translate
0.8 setlinewidth
1 setlinejoin
0 setlinecap
0 0 m
0 -3.5 l

gsave
0.000 setgray
fill
grestore
stroke
grestore
} bind def
228.777 27.88 o
grestore
gsave
222.418070 13.286250 translate
0.000000 rotate
0.000000 0.000000 m /two glyphshow
6.362305 0.000000 m /four glyphshow
grestore
[0.8 1.32] 0 setdash
0.502 setgray
gsave
259.4 40.25 29.92 27.88 clipbox
253.177132 27.88 m
253.177132 68.13 l
stroke
grestore
[] 0 setdash
0.000 setgray
gsave
/o {
gsave
newpath
translate
0.8 setlinewidth
1 setlinejoin
0 setlinecap
0 0 m
0 -3.5 l

gsave
0.000 setgray
fill
grestore
stroke
grestore
} bind def
253.177 27.88 o
grestore
gsave
246.817757 13.286250 translate
0.000000 rotate
0.000000 0.000000 m /two glyphshow
6.362305 0.000000 m /seven glyphshow
grestore
[0.8 1.32] 0 setdash
0.502 setgray
gsave
259.4 40.25 29.92 27.88 clipbox
277.576818 27.88 m
277.576818 68.13 l
stroke
grestore
[] 0 setdash
0.000 setgray
gsave
/o {
gsave
newpath
translate
0.8 setlinewidth
1 setlinejoin
0 setlinecap
0 0 m
0 -3.5 l

gsave
0.000 setgray
fill
grestore
stroke
grestore
} bind def
277.577 27.88 o
grestore
gsave
271.217443 13.286250 translate
0.000000 rotate
0.000000 0.000000 m /three glyphshow
6.362305 0.000000 m /zero glyphshow
grestore
[0.8 1.32] 0 setdash
0.502 setgray
gsave
259.4 40.25 29.92 27.88 clipbox
29.92 29.709545 m
289.37 29.709545 l
stroke
grestore
[] 0 setdash
0.000 setgray
gsave
/o {
gsave
newpath
translate
0.8 setlinewidth
1 setlinejoin
0 setlinecap
0 0 m
3.5 0 l

gsave
0.000 setgray
fill
grestore
stroke
grestore
} bind def
289.37 29.7095 o
grestore
gsave
296.370000 25.912670 translate
0.000000 rotate
0.000000 0.000000 m /six glyphshow
6.362305 0.000000 m /period glyphshow
9.541016 0.000000 m /one glyphshow
15.903320 0.000000 m /three glyphshow
22.265625 0.000000 m /e glyphshow
28.417969 0.000000 m /hyphen glyphshow
32.026367 0.000000 m /one glyphshow
38.388672 0.000000 m /six glyphshow
grestore
[0.8 1.32] 0 setdash
0.502 setgray
gsave
259.4 40.25 29.92 27.88 clipbox
29.92 66.300455 m
289.37 66.300455 l
stroke
grestore
[] 0 setdash
0.000 setgray
gsave
/o {
gsave
newpath
translate
0.8 setlinewidth
1 setlinejoin
0 setlinecap
0 0 m
3.5 0 l

gsave
0.000 setgray
fill
grestore
stroke
grestore
} bind def
289.37 66.3005 o
grestore
gsave
296.370000 62.503580 translate
0.000000 rotate
0.000000 0.000000 m /six glyphshow
6.362305 0.000000 m /period glyphshow
9.541016 0.000000 m /one glyphshow
15.903320 0.000000 m /six glyphshow
22.265625 0.000000 m /e glyphshow
28.417969 0.000000 m /hyphen glyphshow
32.026367 0.000000 m /zero glyphshow
38.388672 0.000000 m /eight glyphshow
grestore
gsave
23.841875 34.005000 translate
90.000000 rotate
/DejaVuSans-Oblique findfont
10.0 scalefont
setfont
0.000000 0.976562 moveto
/f glyphshow

/DejaVuSans findfont
7.0 scalefont
setfont
3.520508 -0.664062 moveto
/eight glyphshow

/DejaVuSans findfont
10.0 scalefont
setfont
8.247559 0.976562 moveto
/parenleft glyphshow

/DejaVuSans-Oblique findfont
10.0 scalefont
setfont
12.148926 0.976562 moveto
/X glyphshow

/DejaVuSans findfont
7.0 scalefont
setfont
19.702064 4.804688 moveto
/asterisk glyphshow

/DejaVuSans findfont
10.0 scalefont
setfont
23.475501 0.976562 moveto
/parenright glyphshow


grestore
1.500 setlinewidth
2 setlinecap
gsave
259.4 40.25 29.92 27.88 clipbox
41.713182 29.709545 m
49.846411 29.709546 l
57.979639 29.709546 l
66.112868 29.709546 l
74.246097 29.709546 l
82.379326 29.709546 l
90.512555 29.709546 l
98.645784 29.709546 l
106.779013 29.709546 l
114.912241 29.709546 l
123.04547 29.709546 l
131.178699 29.709547 l
139.311928 29.709546 l
147.445157 29.709549 l
155.578386 29.709546 l
163.711614 29.709547 l
171.844843 29.72204 l
179.978072 29.709607 l
188.111301 29.709727 l
196.24453 29.709561 l
204.377759 29.710212 l
212.510987 29.70958 l
220.644216 66.300455 l
228.777445 29.709757 l
236.910674 29.711596 l
245.043903 29.709553 l
253.177132 29.709699 l
261.310361 29.992478 l
269.443589 29.720932 l
277.576818 29.729029 l
stroke
grestore
1.000 setlinewidth
0 setlinecap
1.000 0.000 0.000 setrgbcolor
gsave
259.4 40.25 29.92 27.88 clipbox
/o {
gsave
newpath
translate
1.0 setlinewidth
1 setlinejoin
0 setlinecap
0 -3 m
0.795609 -3 1.55874 -2.683901 2.12132 -2.12132 c
2.683901 -1.55874 3 -0.795609 3 0 c
3 0.795609 2.683901 1.55874 2.12132 2.12132 c
1.55874 2.683901 0.795609 3 0 3 c
-0.795609 3 -1.55874 2.683901 -2.12132 2.12132 c
-2.683901 1.55874 -3 0.795609 -3 0 c
-3 -0.795609 -2.683901 -1.55874 -2.12132 -2.12132 c
-1.55874 -2.683901 -0.795609 -3 0 -3 c
cl

gsave
1.000 0.000 0.000 setrgbcolor
fill
grestore
stroke
grestore
} bind def
41.7132 29.7095 o
grestore
0.800 setlinewidth
0 setlinejoin
2 setlinecap
[] 0 setdash
0.000 setgray
gsave
29.92 27.88 m
29.92 68.13 l
stroke
grestore
gsave
289.37 27.88 m
289.37 68.13 l
stroke
grestore
gsave
29.92 27.88 m
289.37 27.88 l
stroke
grestore
gsave
29.92 68.13 m
289.37 68.13 l
stroke
grestore

end
showpage
