%!PS-Adobe-3.0 EPSF-3.0
%%Title: /home/gomes/Documents/Mestrado/Trabalho final/images/20d_30pop_1000iter.eps
%%Creator: matplotlib version 2.2.2, http://matplotlib.org/
%%CreationDate: Fri Nov 30 22:46:11 2018
%%Orientation: portrait
%%BoundingBox: 126 108 486 684
%%EndComments
%%BeginProlog
/mpldict 9 dict def
mpldict begin
/m { moveto } bind def
/l { lineto } bind def
/r { rlineto } bind def
/c { curveto } bind def
/cl { closepath } bind def
/box {
m
1 index 0 r
0 exch r
neg 0 r
cl
} bind def
/clipbox {
box
clip
newpath
} bind def
%!PS-Adobe-3.0 Resource-Font
%%Title: DejaVu Sans
%%Copyright: Copyright (c) 2003 by Bitstream, Inc. All Rights Reserved. Copyright (c) 2006 by Tavmjong Bah. All Rights Reserved. DejaVu changes are in public domain 
%%Creator: Converted from TrueType to type 3 by PPR
25 dict begin
/_d{bind def}bind def
/_m{moveto}_d
/_l{lineto}_d
/_cl{closepath eofill}_d
/_c{curveto}_d
/_sc{7 -1 roll{setcachedevice}{pop pop pop pop pop pop}ifelse}_d
/_e{exec}_d
/FontName /DejaVuSans def
/PaintType 0 def
/FontMatrix[.001 0 0 .001 0 0]def
/FontBBox[-1021 -463 1793 1232]def
/FontType 3 def
/Encoding [ /parenleft /parenright /asterisk /plus /hyphen /period /zero /one /two /three /four /five /six /seven /eight /nine /e ] def
/FontInfo 10 dict dup begin
/FamilyName (DejaVu Sans) def
/FullName (DejaVu Sans) def
/Notice (Copyright (c) 2003 by Bitstream, Inc. All Rights Reserved. Copyright (c) 2006 by Tavmjong Bah. All Rights Reserved. DejaVu changes are in public domain ) def
/Weight (Book) def
/Version (Version 2.35) def
/ItalicAngle 0.0 def
/isFixedPitch false def
/UnderlinePosition -130 def
/UnderlineThickness 90 def
end readonly def
/CharStrings 18 dict dup begin
/.notdef 0 def
/parenleft{390 0 86 -131 310 759 _sc
310 759 _m
266 683 234 609 213 536 _c
191 463 181 389 181 314 _c
181 238 191 164 213 91 _c
234 17 266 -56 310 -131 _c
232 -131 _l
183 -54 146 20 122 94 _c
98 168 86 241 86 314 _c
86 386 98 459 122 533 _c
146 607 182 682 232 759 _c
310 759 _l
_cl}_d
/parenright{390 0 80 -131 304 759 _sc
80 759 _m
158 759 _l
206 682 243 607 267 533 _c
291 459 304 386 304 314 _c
304 241 291 168 267 94 _c
243 20 206 -54 158 -131 _c
80 -131 _l
123 -56 155 17 177 91 _c
198 164 209 238 209 314 _c
209 389 198 463 177 536 _c
155 609 123 683 80 759 _c
_cl}_d
/asterisk{500 0 30 286 470 742 _sc
470 609 _m
295 514 _l
470 419 _l
442 371 _l
278 470 _l
278 286 _l
222 286 _l
222 470 _l
58 371 _l
30 419 _l
205 514 _l
30 609 _l
58 657 _l
222 558 _l
222 742 _l
278 742 _l
278 558 _l
442 657 _l
470 609 _l
_cl}_d
/plus{838 0 106 0 732 627 _sc
460 627 _m
460 355 _l
732 355 _l
732 272 _l
460 272 _l
460 0 _l
378 0 _l
378 272 _l
106 272 _l
106 355 _l
378 355 _l
378 627 _l
460 627 _l
_cl}_d
/hyphen{361 0 49 234 312 314 _sc
49 314 _m
312 314 _l
312 234 _l
49 234 _l
49 314 _l
_cl}_d
/period{318 0 107 0 210 124 _sc
107 124 _m
210 124 _l
210 0 _l
107 0 _l
107 124 _l
_cl}_d
/zero{636 0 66 -13 570 742 _sc
318 664 _m
267 664 229 639 203 589 _c
177 539 165 464 165 364 _c
165 264 177 189 203 139 _c
229 89 267 64 318 64 _c
369 64 407 89 433 139 _c
458 189 471 264 471 364 _c
471 464 458 539 433 589 _c
407 639 369 664 318 664 _c
318 742 _m
399 742 461 709 505 645 _c
548 580 570 486 570 364 _c
570 241 548 147 505 83 _c
461 19 399 -13 318 -13 _c
236 -13 173 19 130 83 _c
87 147 66 241 66 364 _c
66 486 87 580 130 645 _c
173 709 236 742 318 742 _c
_cl}_d
/one{636 0 110 0 544 729 _sc
124 83 _m
285 83 _l
285 639 _l
110 604 _l
110 694 _l
284 729 _l
383 729 _l
383 83 _l
544 83 _l
544 0 _l
124 0 _l
124 83 _l
_cl}_d
/two{{636 0 73 0 536 742 _sc
192 83 _m
536 83 _l
536 0 _l
73 0 _l
73 83 _l
110 121 161 173 226 239 _c
290 304 331 346 348 365 _c
380 400 402 430 414 455 _c
426 479 433 504 433 528 _c
433 566 419 598 392 622 _c
365 646 330 659 286 659 _c
255 659 222 653 188 643 _c
154 632 117 616 78 594 _c
78 694 _l
118 710 155 722 189 730 _c
223 738 255 742 284 742 _c
}_e{359 742 419 723 464 685 _c
509 647 532 597 532 534 _c
532 504 526 475 515 449 _c
504 422 484 390 454 354 _c
446 344 420 317 376 272 _c
332 227 271 164 192 83 _c
_cl}_e}_d
/three{{636 0 76 -13 556 742 _sc
406 393 _m
453 383 490 362 516 330 _c
542 298 556 258 556 212 _c
556 140 531 84 482 45 _c
432 6 362 -13 271 -13 _c
240 -13 208 -10 176 -4 _c
144 1 110 10 76 22 _c
76 117 _l
103 101 133 89 166 81 _c
198 73 232 69 268 69 _c
330 69 377 81 409 105 _c
441 129 458 165 458 212 _c
458 254 443 288 413 312 _c
383 336 341 349 287 349 _c
}_e{202 349 _l
202 430 _l
291 430 _l
339 430 376 439 402 459 _c
428 478 441 506 441 543 _c
441 580 427 609 401 629 _c
374 649 336 659 287 659 _c
260 659 231 656 200 650 _c
169 644 135 635 98 623 _c
98 711 _l
135 721 170 729 203 734 _c
235 739 266 742 296 742 _c
370 742 429 725 473 691 _c
517 657 539 611 539 553 _c
539 513 527 479 504 451 _c
481 423 448 403 406 393 _c
_cl}_e}_d
/four{636 0 49 0 580 729 _sc
378 643 _m
129 254 _l
378 254 _l
378 643 _l
352 729 _m
476 729 _l
476 254 _l
580 254 _l
580 172 _l
476 172 _l
476 0 _l
378 0 _l
378 172 _l
49 172 _l
49 267 _l
352 729 _l
_cl}_d
/five{{636 0 77 -13 549 729 _sc
108 729 _m
495 729 _l
495 646 _l
198 646 _l
198 467 _l
212 472 227 476 241 478 _c
255 480 270 482 284 482 _c
365 482 429 459 477 415 _c
525 370 549 310 549 234 _c
549 155 524 94 475 51 _c
426 8 357 -13 269 -13 _c
238 -13 207 -10 175 -6 _c
143 -1 111 6 77 17 _c
77 116 _l
106 100 136 88 168 80 _c
199 72 232 69 267 69 _c
}_e{323 69 368 83 401 113 _c
433 143 450 183 450 234 _c
450 284 433 324 401 354 _c
368 384 323 399 267 399 _c
241 399 214 396 188 390 _c
162 384 135 375 108 363 _c
108 729 _l
_cl}_e}_d
/six{{636 0 70 -13 573 742 _sc
330 404 _m
286 404 251 388 225 358 _c
199 328 186 286 186 234 _c
186 181 199 139 225 109 _c
251 79 286 64 330 64 _c
374 64 409 79 435 109 _c
461 139 474 181 474 234 _c
474 286 461 328 435 358 _c
409 388 374 404 330 404 _c
526 713 _m
526 623 _l
501 635 476 644 451 650 _c
425 656 400 659 376 659 _c
310 659 260 637 226 593 _c
}_e{192 549 172 482 168 394 _c
187 422 211 444 240 459 _c
269 474 301 482 336 482 _c
409 482 467 459 509 415 _c
551 371 573 310 573 234 _c
573 159 550 99 506 54 _c
462 9 403 -13 330 -13 _c
246 -13 181 19 137 83 _c
92 147 70 241 70 364 _c
70 479 97 571 152 639 _c
206 707 280 742 372 742 _c
396 742 421 739 447 735 _c
472 730 498 723 526 713 _c
_cl}_e}_d
/seven{636 0 82 0 551 729 _sc
82 729 _m
551 729 _l
551 687 _l
286 0 _l
183 0 _l
432 646 _l
82 646 _l
82 729 _l
_cl}_d
/eight{{636 0 68 -13 568 742 _sc
318 346 _m
271 346 234 333 207 308 _c
180 283 167 249 167 205 _c
167 161 180 126 207 101 _c
234 76 271 64 318 64 _c
364 64 401 76 428 102 _c
455 127 469 161 469 205 _c
469 249 455 283 429 308 _c
402 333 365 346 318 346 _c
219 388 _m
177 398 144 418 120 447 _c
96 476 85 511 85 553 _c
85 611 105 657 147 691 _c
188 725 245 742 318 742 _c
}_e{390 742 447 725 489 691 _c
530 657 551 611 551 553 _c
551 511 539 476 515 447 _c
491 418 459 398 417 388 _c
464 377 501 355 528 323 _c
554 291 568 251 568 205 _c
568 134 546 80 503 43 _c
459 5 398 -13 318 -13 _c
237 -13 175 5 132 43 _c
89 80 68 134 68 205 _c
68 251 81 291 108 323 _c
134 355 171 377 219 388 _c
183 544 _m
183 506 194 476 218 455 _c
}_e{242 434 275 424 318 424 _c
360 424 393 434 417 455 _c
441 476 453 506 453 544 _c
453 582 441 611 417 632 _c
393 653 360 664 318 664 _c
275 664 242 653 218 632 _c
194 611 183 582 183 544 _c
_cl}_e}_d
/nine{{636 0 63 -13 566 742 _sc
110 15 _m
110 105 _l
134 93 159 84 185 78 _c
210 72 235 69 260 69 _c
324 69 374 90 408 134 _c
442 178 462 244 468 334 _c
448 306 424 284 396 269 _c
367 254 335 247 300 247 _c
226 247 168 269 126 313 _c
84 357 63 417 63 494 _c
63 568 85 628 129 674 _c
173 719 232 742 306 742 _c
390 742 455 709 499 645 _c
543 580 566 486 566 364 _c
}_e{566 248 538 157 484 89 _c
429 21 356 -13 264 -13 _c
239 -13 214 -10 189 -6 _c
163 -2 137 5 110 15 _c
306 324 _m
350 324 385 339 411 369 _c
437 399 450 441 450 494 _c
450 546 437 588 411 618 _c
385 648 350 664 306 664 _c
262 664 227 648 201 618 _c
175 588 162 546 162 494 _c
162 441 175 399 201 369 _c
227 339 262 324 306 324 _c
_cl}_e}_d
/e{{615 0 55 -13 562 560 _sc
562 296 _m
562 252 _l
149 252 _l
153 190 171 142 205 110 _c
238 78 284 62 344 62 _c
378 62 412 66 444 74 _c
476 82 509 95 541 113 _c
541 28 _l
509 14 476 3 442 -3 _c
408 -9 373 -13 339 -13 _c
251 -13 182 12 131 62 _c
80 112 55 181 55 268 _c
55 357 79 428 127 481 _c
175 533 241 560 323 560 _c
397 560 455 536 498 489 _c
}_e{540 441 562 377 562 296 _c
472 322 _m
471 371 457 410 431 440 _c
404 469 368 484 324 484 _c
274 484 234 469 204 441 _c
174 413 156 373 152 322 _c
472 322 _l
_cl}_e}_d
end readonly def

/BuildGlyph
 {exch begin
 CharStrings exch
 2 copy known not{pop /.notdef}if
 true 3 1 roll get exec
 end}_d

/BuildChar {
 1 index /Encoding get exch get
 1 index /BuildGlyph get exec
}_d

FontName currentdict end definefont pop
%!PS-Adobe-3.0 Resource-Font
%%Title: DejaVu Sans Oblique
%%Copyright: Copyright (c) 2003 by Bitstream, Inc. All Rights Reserved. Copyright (c) 2006 by Tavmjong Bah. All Rights Reserved. DejaVu changes are in public domain 
%%Creator: Converted from TrueType to type 3 by PPR
25 dict begin
/_d{bind def}bind def
/_m{moveto}_d
/_l{lineto}_d
/_cl{closepath eofill}_d
/_c{curveto}_d
/_sc{7 -1 roll{setcachedevice}{pop pop pop pop pop pop}ifelse}_d
/_e{exec}_d
/FontName /DejaVuSans-Oblique def
/PaintType 0 def
/FontMatrix[.001 0 0 .001 0 0]def
/FontBBox[-1016 -350 1659 1068]def
/FontType 3 def
/Encoding [ /X /f ] def
/FontInfo 10 dict dup begin
/FamilyName (DejaVu Sans) def
/FullName (DejaVu Sans Oblique) def
/Notice (Copyright (c) 2003 by Bitstream, Inc. All Rights Reserved. Copyright (c) 2006 by Tavmjong Bah. All Rights Reserved. DejaVu changes are in public domain ) def
/Weight (Oblique) def
/Version (Version 2.35) def
/ItalicAngle -11.0 def
/isFixedPitch false def
/UnderlinePosition -130 def
/UnderlineThickness 90 def
end readonly def
/CharStrings 3 dict dup begin
/.notdef 0 def
/X{685 0 -42 0 703 729 _sc
137 729 _m
237 729 _l
362 466 _l
588 729 _l
703 729 _l
403 381 _l
584 0 _l
485 0 _l
338 307 _l
72 0 _l
-42 0 _l
298 392 _l
137 729 _l
_cl}_d
/f{352 0 68 0 478 760 _sc
478 760 _m
464 685 _l
378 685 _l
345 685 321 678 307 665 _c
292 652 281 629 274 595 _c
264 547 _l
412 547 _l
399 477 _l
251 477 _l
158 0 _l
68 0 _l
161 477 _l
75 477 _l
88 547 _l
174 547 _l
181 585 _l
193 649 215 695 246 721 _c
277 747 326 760 393 760 _c
478 760 _l
_cl}_d
end readonly def

/BuildGlyph
 {exch begin
 CharStrings exch
 2 copy known not{pop /.notdef}if
 true 3 1 roll get exec
 end}_d

/BuildChar {
 1 index /Encoding get exch get
 1 index /BuildGlyph get exec
}_d

FontName currentdict end definefont pop
end
%%EndProlog
mpldict begin
126 108 translate
360 576 0 0 clipbox
gsave
0 0 m
360 0 l
360 576 l
0 576 l
cl
1.000 setgray
fill
grestore
gsave
29.92 522.43 m
289.28 522.43 l
289.28 562.68 l
29.92 562.68 l
cl
1.000 setgray
fill
grestore
0.800 setlinewidth
1 setlinejoin
0 setlinecap
[0.8 1.32] 0 setdash
0.502 setgray
gsave
259.4 40.25 29.92 522.4 clipbox
54.11866 522.43 m
54.11866 562.68 l
stroke
grestore
[] 0 setdash
1.000 setgray
gsave
/o {
gsave
newpath
translate
0.8 setlinewidth
1 setlinejoin
0 setlinecap
0 0 m
0 -3.5 l

gsave
1.000 setgray
fill
grestore
stroke
grestore
} bind def
54.1187 522.43 o
grestore
/DejaVuSans findfont
10.000 scalefont
setfont
gsave
50.938973 507.836250 translate
0.000000 rotate
0.000000 0.000000 m /two glyphshow
grestore
[0.8 1.32] 0 setdash
0.502 setgray
gsave
259.4 40.25 29.92 522.4 clipbox
78.937799 522.43 m
78.937799 562.68 l
stroke
grestore
[] 0 setdash
1.000 setgray
gsave
/o {
gsave
newpath
translate
0.8 setlinewidth
1 setlinejoin
0 setlinecap
0 0 m
0 -3.5 l

gsave
1.000 setgray
fill
grestore
stroke
grestore
} bind def
78.9378 522.43 o
grestore
gsave
75.758112 507.836250 translate
0.000000 rotate
0.000000 0.000000 m /four glyphshow
grestore
[0.8 1.32] 0 setdash
0.502 setgray
gsave
259.4 40.25 29.92 522.4 clipbox
103.756938 522.43 m
103.756938 562.68 l
stroke
grestore
[] 0 setdash
1.000 setgray
gsave
/o {
gsave
newpath
translate
0.8 setlinewidth
1 setlinejoin
0 setlinecap
0 0 m
0 -3.5 l

gsave
1.000 setgray
fill
grestore
stroke
grestore
} bind def
103.757 522.43 o
grestore
gsave
100.577250 507.836250 translate
0.000000 rotate
0.000000 0.000000 m /six glyphshow
grestore
[0.8 1.32] 0 setdash
0.502 setgray
gsave
259.4 40.25 29.92 522.4 clipbox
128.576077 522.43 m
128.576077 562.68 l
stroke
grestore
[] 0 setdash
1.000 setgray
gsave
/o {
gsave
newpath
translate
0.8 setlinewidth
1 setlinejoin
0 setlinecap
0 0 m
0 -3.5 l

gsave
1.000 setgray
fill
grestore
stroke
grestore
} bind def
128.576 522.43 o
grestore
gsave
125.396389 507.836250 translate
0.000000 rotate
0.000000 0.000000 m /eight glyphshow
grestore
[0.8 1.32] 0 setdash
0.502 setgray
gsave
259.4 40.25 29.92 522.4 clipbox
153.395215 522.43 m
153.395215 562.68 l
stroke
grestore
[] 0 setdash
1.000 setgray
gsave
/o {
gsave
newpath
translate
0.8 setlinewidth
1 setlinejoin
0 setlinecap
0 0 m
0 -3.5 l

gsave
1.000 setgray
fill
grestore
stroke
grestore
} bind def
153.395 522.43 o
grestore
gsave
147.035840 507.836250 translate
0.000000 rotate
0.000000 0.000000 m /one glyphshow
6.362305 0.000000 m /zero glyphshow
grestore
[0.8 1.32] 0 setdash
0.502 setgray
gsave
259.4 40.25 29.92 522.4 clipbox
178.214354 522.43 m
178.214354 562.68 l
stroke
grestore
[] 0 setdash
1.000 setgray
gsave
/o {
gsave
newpath
translate
0.8 setlinewidth
1 setlinejoin
0 setlinecap
0 0 m
0 -3.5 l

gsave
1.000 setgray
fill
grestore
stroke
grestore
} bind def
178.214 522.43 o
grestore
gsave
171.854979 507.836250 translate
0.000000 rotate
0.000000 0.000000 m /one glyphshow
6.362305 0.000000 m /two glyphshow
grestore
[0.8 1.32] 0 setdash
0.502 setgray
gsave
259.4 40.25 29.92 522.4 clipbox
203.033493 522.43 m
203.033493 562.68 l
stroke
grestore
[] 0 setdash
1.000 setgray
gsave
/o {
gsave
newpath
translate
0.8 setlinewidth
1 setlinejoin
0 setlinecap
0 0 m
0 -3.5 l

gsave
1.000 setgray
fill
grestore
stroke
grestore
} bind def
203.033 522.43 o
grestore
gsave
196.674118 507.836250 translate
0.000000 rotate
0.000000 0.000000 m /one glyphshow
6.362305 0.000000 m /four glyphshow
grestore
[0.8 1.32] 0 setdash
0.502 setgray
gsave
259.4 40.25 29.92 522.4 clipbox
227.852632 522.43 m
227.852632 562.68 l
stroke
grestore
[] 0 setdash
1.000 setgray
gsave
/o {
gsave
newpath
translate
0.8 setlinewidth
1 setlinejoin
0 setlinecap
0 0 m
0 -3.5 l

gsave
1.000 setgray
fill
grestore
stroke
grestore
} bind def
227.853 522.43 o
grestore
gsave
221.493257 507.836250 translate
0.000000 rotate
0.000000 0.000000 m /one glyphshow
6.362305 0.000000 m /six glyphshow
grestore
[0.8 1.32] 0 setdash
0.502 setgray
gsave
259.4 40.25 29.92 522.4 clipbox
252.67177 522.43 m
252.67177 562.68 l
stroke
grestore
[] 0 setdash
1.000 setgray
gsave
/o {
gsave
newpath
translate
0.8 setlinewidth
1 setlinejoin
0 setlinecap
0 0 m
0 -3.5 l

gsave
1.000 setgray
fill
grestore
stroke
grestore
} bind def
252.672 522.43 o
grestore
gsave
246.312395 507.836250 translate
0.000000 rotate
0.000000 0.000000 m /one glyphshow
6.362305 0.000000 m /eight glyphshow
grestore
[0.8 1.32] 0 setdash
0.502 setgray
gsave
259.4 40.25 29.92 522.4 clipbox
277.490909 522.43 m
277.490909 562.68 l
stroke
grestore
[] 0 setdash
1.000 setgray
gsave
/o {
gsave
newpath
translate
0.8 setlinewidth
1 setlinejoin
0 setlinecap
0 0 m
0 -3.5 l

gsave
1.000 setgray
fill
grestore
stroke
grestore
} bind def
277.491 522.43 o
grestore
gsave
271.131534 507.836250 translate
0.000000 rotate
0.000000 0.000000 m /two glyphshow
6.362305 0.000000 m /zero glyphshow
grestore
[0.8 1.32] 0 setdash
0.502 setgray
gsave
259.4 40.25 29.92 522.4 clipbox
29.92 524.259545 m
289.28 524.259545 l
stroke
grestore
[] 0 setdash
0.000 setgray
gsave
/o {
gsave
newpath
translate
0.8 setlinewidth
1 setlinejoin
0 setlinecap
0 0 m
3.5 0 l

gsave
0.000 setgray
fill
grestore
stroke
grestore
} bind def
289.28 524.26 o
grestore
gsave
296.280000 520.462670 translate
0.000000 rotate
0.000000 0.000000 m /seven glyphshow
6.362305 0.000000 m /period glyphshow
9.541016 0.000000 m /five glyphshow
15.903320 0.000000 m /three glyphshow
22.265625 0.000000 m /e glyphshow
28.417969 0.000000 m /hyphen glyphshow
32.026367 0.000000 m /one glyphshow
38.388672 0.000000 m /one glyphshow
grestore
[0.8 1.32] 0 setdash
0.502 setgray
gsave
259.4 40.25 29.92 522.4 clipbox
29.92 560.850455 m
289.28 560.850455 l
stroke
grestore
[] 0 setdash
0.000 setgray
gsave
/o {
gsave
newpath
translate
0.8 setlinewidth
1 setlinejoin
0 setlinecap
0 0 m
3.5 0 l

gsave
0.000 setgray
fill
grestore
stroke
grestore
} bind def
289.28 560.85 o
grestore
gsave
296.280000 557.053580 translate
0.000000 rotate
0.000000 0.000000 m /five glyphshow
6.362305 0.000000 m /period glyphshow
9.541016 0.000000 m /eight glyphshow
15.903320 0.000000 m /one glyphshow
22.265625 0.000000 m /e glyphshow
28.417969 0.000000 m /plus glyphshow
36.796875 0.000000 m /zero glyphshow
43.159180 0.000000 m /zero glyphshow
grestore
gsave
23.841875 528.555000 translate
90.000000 rotate
/DejaVuSans-Oblique findfont
10.0 scalefont
setfont
0.000000 0.976562 moveto
/f glyphshow

/DejaVuSans findfont
7.0 scalefont
setfont
3.520508 -0.664062 moveto
/one glyphshow

/DejaVuSans findfont
10.0 scalefont
setfont
8.247559 0.976562 moveto
/parenleft glyphshow

/DejaVuSans-Oblique findfont
10.0 scalefont
setfont
12.148926 0.976562 moveto
/X glyphshow

/DejaVuSans findfont
7.0 scalefont
setfont
19.702064 4.804688 moveto
/asterisk glyphshow

/DejaVuSans findfont
10.0 scalefont
setfont
23.475501 0.976562 moveto
/parenright glyphshow


grestore
1.500 setlinewidth
2 setlinecap
gsave
259.4 40.25 29.92 522.4 clipbox
41.709091 524.259545 m
54.11866 524.259545 l
66.52823 524.259545 l
78.937799 526.869762 l
91.347368 530.006573 l
103.756938 535.835207 l
116.166507 536.45537 l
128.576077 538.594431 l
140.985646 539.348745 l
153.395215 543.66898 l
165.804785 549.568639 l
178.214354 546.513004 l
190.623923 549.715037 l
203.033493 553.719333 l
215.443062 549.050021 l
227.852632 550.852422 l
240.262201 557.163724 l
252.67177 552.196329 l
265.08134 560.850455 l
277.490909 558.282186 l
stroke
grestore
1.000 setlinewidth
0 setlinecap
1.000 0.000 0.000 setrgbcolor
gsave
259.4 40.25 29.92 522.4 clipbox
/o {
gsave
newpath
translate
1.0 setlinewidth
1 setlinejoin
0 setlinecap
0 -3 m
0.795609 -3 1.55874 -2.683901 2.12132 -2.12132 c
2.683901 -1.55874 3 -0.795609 3 0 c
3 0.795609 2.683901 1.55874 2.12132 2.12132 c
1.55874 2.683901 0.795609 3 0 3 c
-0.795609 3 -1.55874 2.683901 -2.12132 2.12132 c
-2.683901 1.55874 -3 0.795609 -3 0 c
-3 -0.795609 -2.683901 -1.55874 -2.12132 -2.12132 c
-1.55874 -2.683901 -0.795609 -3 0 -3 c
cl

gsave
1.000 0.000 0.000 setrgbcolor
fill
grestore
stroke
grestore
} bind def
54.1187 524.26 o
grestore
0.800 setlinewidth
0 setlinejoin
2 setlinecap
[] 0 setdash
0.000 setgray
gsave
29.92 522.43 m
29.92 562.68 l
stroke
grestore
gsave
289.28 522.43 m
289.28 562.68 l
stroke
grestore
gsave
29.92 522.43 m
289.28 522.43 l
stroke
grestore
gsave
29.92 562.68 m
289.28 562.68 l
stroke
grestore
gsave
29.92 451.78 m
289.28 451.78 l
289.28 492.03 l
29.92 492.03 l
cl
1.000 setgray
fill
grestore
1 setlinejoin
0 setlinecap
[0.8 1.32] 0 setdash
0.502 setgray
gsave
259.4 40.25 29.92 451.8 clipbox
54.11866 451.78 m
54.11866 492.03 l
stroke
grestore
[] 0 setdash
1.000 setgray
gsave
/o {
gsave
newpath
translate
0.8 setlinewidth
1 setlinejoin
0 setlinecap
0 0 m
0 -3.5 l

gsave
1.000 setgray
fill
grestore
stroke
grestore
} bind def
54.1187 451.78 o
grestore
gsave
50.938973 437.186250 translate
0.000000 rotate
0.000000 0.000000 m /two glyphshow
grestore
[0.8 1.32] 0 setdash
0.502 setgray
gsave
259.4 40.25 29.92 451.8 clipbox
78.937799 451.78 m
78.937799 492.03 l
stroke
grestore
[] 0 setdash
1.000 setgray
gsave
/o {
gsave
newpath
translate
0.8 setlinewidth
1 setlinejoin
0 setlinecap
0 0 m
0 -3.5 l

gsave
1.000 setgray
fill
grestore
stroke
grestore
} bind def
78.9378 451.78 o
grestore
gsave
75.758112 437.186250 translate
0.000000 rotate
0.000000 0.000000 m /four glyphshow
grestore
[0.8 1.32] 0 setdash
0.502 setgray
gsave
259.4 40.25 29.92 451.8 clipbox
103.756938 451.78 m
103.756938 492.03 l
stroke
grestore
[] 0 setdash
1.000 setgray
gsave
/o {
gsave
newpath
translate
0.8 setlinewidth
1 setlinejoin
0 setlinecap
0 0 m
0 -3.5 l

gsave
1.000 setgray
fill
grestore
stroke
grestore
} bind def
103.757 451.78 o
grestore
gsave
100.577250 437.186250 translate
0.000000 rotate
0.000000 0.000000 m /six glyphshow
grestore
[0.8 1.32] 0 setdash
0.502 setgray
gsave
259.4 40.25 29.92 451.8 clipbox
128.576077 451.78 m
128.576077 492.03 l
stroke
grestore
[] 0 setdash
1.000 setgray
gsave
/o {
gsave
newpath
translate
0.8 setlinewidth
1 setlinejoin
0 setlinecap
0 0 m
0 -3.5 l

gsave
1.000 setgray
fill
grestore
stroke
grestore
} bind def
128.576 451.78 o
grestore
gsave
125.396389 437.186250 translate
0.000000 rotate
0.000000 0.000000 m /eight glyphshow
grestore
[0.8 1.32] 0 setdash
0.502 setgray
gsave
259.4 40.25 29.92 451.8 clipbox
153.395215 451.78 m
153.395215 492.03 l
stroke
grestore
[] 0 setdash
1.000 setgray
gsave
/o {
gsave
newpath
translate
0.8 setlinewidth
1 setlinejoin
0 setlinecap
0 0 m
0 -3.5 l

gsave
1.000 setgray
fill
grestore
stroke
grestore
} bind def
153.395 451.78 o
grestore
gsave
147.035840 437.186250 translate
0.000000 rotate
0.000000 0.000000 m /one glyphshow
6.362305 0.000000 m /zero glyphshow
grestore
[0.8 1.32] 0 setdash
0.502 setgray
gsave
259.4 40.25 29.92 451.8 clipbox
178.214354 451.78 m
178.214354 492.03 l
stroke
grestore
[] 0 setdash
1.000 setgray
gsave
/o {
gsave
newpath
translate
0.8 setlinewidth
1 setlinejoin
0 setlinecap
0 0 m
0 -3.5 l

gsave
1.000 setgray
fill
grestore
stroke
grestore
} bind def
178.214 451.78 o
grestore
gsave
171.854979 437.186250 translate
0.000000 rotate
0.000000 0.000000 m /one glyphshow
6.362305 0.000000 m /two glyphshow
grestore
[0.8 1.32] 0 setdash
0.502 setgray
gsave
259.4 40.25 29.92 451.8 clipbox
203.033493 451.78 m
203.033493 492.03 l
stroke
grestore
[] 0 setdash
1.000 setgray
gsave
/o {
gsave
newpath
translate
0.8 setlinewidth
1 setlinejoin
0 setlinecap
0 0 m
0 -3.5 l

gsave
1.000 setgray
fill
grestore
stroke
grestore
} bind def
203.033 451.78 o
grestore
gsave
196.674118 437.186250 translate
0.000000 rotate
0.000000 0.000000 m /one glyphshow
6.362305 0.000000 m /four glyphshow
grestore
[0.8 1.32] 0 setdash
0.502 setgray
gsave
259.4 40.25 29.92 451.8 clipbox
227.852632 451.78 m
227.852632 492.03 l
stroke
grestore
[] 0 setdash
1.000 setgray
gsave
/o {
gsave
newpath
translate
0.8 setlinewidth
1 setlinejoin
0 setlinecap
0 0 m
0 -3.5 l

gsave
1.000 setgray
fill
grestore
stroke
grestore
} bind def
227.853 451.78 o
grestore
gsave
221.493257 437.186250 translate
0.000000 rotate
0.000000 0.000000 m /one glyphshow
6.362305 0.000000 m /six glyphshow
grestore
[0.8 1.32] 0 setdash
0.502 setgray
gsave
259.4 40.25 29.92 451.8 clipbox
252.67177 451.78 m
252.67177 492.03 l
stroke
grestore
[] 0 setdash
1.000 setgray
gsave
/o {
gsave
newpath
translate
0.8 setlinewidth
1 setlinejoin
0 setlinecap
0 0 m
0 -3.5 l

gsave
1.000 setgray
fill
grestore
stroke
grestore
} bind def
252.672 451.78 o
grestore
gsave
246.312395 437.186250 translate
0.000000 rotate
0.000000 0.000000 m /one glyphshow
6.362305 0.000000 m /eight glyphshow
grestore
[0.8 1.32] 0 setdash
0.502 setgray
gsave
259.4 40.25 29.92 451.8 clipbox
277.490909 451.78 m
277.490909 492.03 l
stroke
grestore
[] 0 setdash
1.000 setgray
gsave
/o {
gsave
newpath
translate
0.8 setlinewidth
1 setlinejoin
0 setlinecap
0 0 m
0 -3.5 l

gsave
1.000 setgray
fill
grestore
stroke
grestore
} bind def
277.491 451.78 o
grestore
gsave
271.131534 437.186250 translate
0.000000 rotate
0.000000 0.000000 m /two glyphshow
6.362305 0.000000 m /zero glyphshow
grestore
[0.8 1.32] 0 setdash
0.502 setgray
gsave
259.4 40.25 29.92 451.8 clipbox
29.92 453.609545 m
289.28 453.609545 l
stroke
grestore
[] 0 setdash
0.000 setgray
gsave
/o {
gsave
newpath
translate
0.8 setlinewidth
1 setlinejoin
0 setlinecap
0 0 m
3.5 0 l

gsave
0.000 setgray
fill
grestore
stroke
grestore
} bind def
289.28 453.61 o
grestore
gsave
296.280000 449.812670 translate
0.000000 rotate
0.000000 0.000000 m /seven glyphshow
6.362305 0.000000 m /period glyphshow
9.541016 0.000000 m /six glyphshow
15.903320 0.000000 m /seven glyphshow
22.265625 0.000000 m /e glyphshow
28.417969 0.000000 m /hyphen glyphshow
32.026367 0.000000 m /one glyphshow
38.388672 0.000000 m /one glyphshow
grestore
[0.8 1.32] 0 setdash
0.502 setgray
gsave
259.4 40.25 29.92 451.8 clipbox
29.92 490.200455 m
289.28 490.200455 l
stroke
grestore
[] 0 setdash
0.000 setgray
gsave
/o {
gsave
newpath
translate
0.8 setlinewidth
1 setlinejoin
0 setlinecap
0 0 m
3.5 0 l

gsave
0.000 setgray
fill
grestore
stroke
grestore
} bind def
289.28 490.2 o
grestore
gsave
296.280000 486.403580 translate
0.000000 rotate
0.000000 0.000000 m /one glyphshow
6.362305 0.000000 m /period glyphshow
9.541016 0.000000 m /nine glyphshow
15.903320 0.000000 m /two glyphshow
22.265625 0.000000 m /e glyphshow
28.417969 0.000000 m /hyphen glyphshow
32.026367 0.000000 m /zero glyphshow
38.388672 0.000000 m /five glyphshow
grestore
gsave
23.841875 457.905000 translate
90.000000 rotate
/DejaVuSans-Oblique findfont
10.0 scalefont
setfont
0.000000 0.976562 moveto
/f glyphshow

/DejaVuSans findfont
7.0 scalefont
setfont
3.520508 -0.664062 moveto
/two glyphshow

/DejaVuSans findfont
10.0 scalefont
setfont
8.247559 0.976562 moveto
/parenleft glyphshow

/DejaVuSans-Oblique findfont
10.0 scalefont
setfont
12.148926 0.976562 moveto
/X glyphshow

/DejaVuSans findfont
7.0 scalefont
setfont
19.702064 4.804688 moveto
/asterisk glyphshow

/DejaVuSans findfont
10.0 scalefont
setfont
23.475501 0.976562 moveto
/parenright glyphshow


grestore
1.500 setlinewidth
2 setlinecap
gsave
259.4 40.25 29.92 451.8 clipbox
41.709091 490.200455 m
54.11866 455.259285 l
66.52823 456.69565 l
78.937799 453.794089 l
91.347368 454.847652 l
103.756938 453.648027 l
116.166507 453.647342 l
128.576077 453.684321 l
140.985646 454.036698 l
153.395215 453.638002 l
165.804785 454.162942 l
178.214354 455.674044 l
190.623923 453.609698 l
203.033493 453.617701 l
215.443062 456.260953 l
227.852632 453.679924 l
240.262201 453.609545 l
252.67177 479.631729 l
265.08134 453.631239 l
277.490909 453.624911 l
stroke
grestore
1.000 setlinewidth
0 setlinecap
1.000 0.000 0.000 setrgbcolor
gsave
259.4 40.25 29.92 451.8 clipbox
/o {
gsave
newpath
translate
1.0 setlinewidth
1 setlinejoin
0 setlinecap
0 -3 m
0.795609 -3 1.55874 -2.683901 2.12132 -2.12132 c
2.683901 -1.55874 3 -0.795609 3 0 c
3 0.795609 2.683901 1.55874 2.12132 2.12132 c
1.55874 2.683901 0.795609 3 0 3 c
-0.795609 3 -1.55874 2.683901 -2.12132 2.12132 c
-2.683901 1.55874 -3 0.795609 -3 0 c
-3 -0.795609 -2.683901 -1.55874 -2.12132 -2.12132 c
-1.55874 -2.683901 -0.795609 -3 0 -3 c
cl

gsave
1.000 0.000 0.000 setrgbcolor
fill
grestore
stroke
grestore
} bind def
240.262 453.61 o
grestore
0.800 setlinewidth
0 setlinejoin
2 setlinecap
[] 0 setdash
0.000 setgray
gsave
29.92 451.78 m
29.92 492.03 l
stroke
grestore
gsave
289.28 451.78 m
289.28 492.03 l
stroke
grestore
gsave
29.92 451.78 m
289.28 451.78 l
stroke
grestore
gsave
29.92 492.03 m
289.28 492.03 l
stroke
grestore
gsave
29.92 381.13 m
289.28 381.13 l
289.28 421.38 l
29.92 421.38 l
cl
1.000 setgray
fill
grestore
1 setlinejoin
0 setlinecap
[0.8 1.32] 0 setdash
0.502 setgray
gsave
259.4 40.25 29.92 381.1 clipbox
54.11866 381.13 m
54.11866 421.38 l
stroke
grestore
[] 0 setdash
1.000 setgray
gsave
/o {
gsave
newpath
translate
0.8 setlinewidth
1 setlinejoin
0 setlinecap
0 0 m
0 -3.5 l

gsave
1.000 setgray
fill
grestore
stroke
grestore
} bind def
54.1187 381.13 o
grestore
gsave
50.938973 366.536250 translate
0.000000 rotate
0.000000 0.000000 m /two glyphshow
grestore
[0.8 1.32] 0 setdash
0.502 setgray
gsave
259.4 40.25 29.92 381.1 clipbox
78.937799 381.13 m
78.937799 421.38 l
stroke
grestore
[] 0 setdash
1.000 setgray
gsave
/o {
gsave
newpath
translate
0.8 setlinewidth
1 setlinejoin
0 setlinecap
0 0 m
0 -3.5 l

gsave
1.000 setgray
fill
grestore
stroke
grestore
} bind def
78.9378 381.13 o
grestore
gsave
75.758112 366.536250 translate
0.000000 rotate
0.000000 0.000000 m /four glyphshow
grestore
[0.8 1.32] 0 setdash
0.502 setgray
gsave
259.4 40.25 29.92 381.1 clipbox
103.756938 381.13 m
103.756938 421.38 l
stroke
grestore
[] 0 setdash
1.000 setgray
gsave
/o {
gsave
newpath
translate
0.8 setlinewidth
1 setlinejoin
0 setlinecap
0 0 m
0 -3.5 l

gsave
1.000 setgray
fill
grestore
stroke
grestore
} bind def
103.757 381.13 o
grestore
gsave
100.577250 366.536250 translate
0.000000 rotate
0.000000 0.000000 m /six glyphshow
grestore
[0.8 1.32] 0 setdash
0.502 setgray
gsave
259.4 40.25 29.92 381.1 clipbox
128.576077 381.13 m
128.576077 421.38 l
stroke
grestore
[] 0 setdash
1.000 setgray
gsave
/o {
gsave
newpath
translate
0.8 setlinewidth
1 setlinejoin
0 setlinecap
0 0 m
0 -3.5 l

gsave
1.000 setgray
fill
grestore
stroke
grestore
} bind def
128.576 381.13 o
grestore
gsave
125.396389 366.536250 translate
0.000000 rotate
0.000000 0.000000 m /eight glyphshow
grestore
[0.8 1.32] 0 setdash
0.502 setgray
gsave
259.4 40.25 29.92 381.1 clipbox
153.395215 381.13 m
153.395215 421.38 l
stroke
grestore
[] 0 setdash
1.000 setgray
gsave
/o {
gsave
newpath
translate
0.8 setlinewidth
1 setlinejoin
0 setlinecap
0 0 m
0 -3.5 l

gsave
1.000 setgray
fill
grestore
stroke
grestore
} bind def
153.395 381.13 o
grestore
gsave
147.035840 366.536250 translate
0.000000 rotate
0.000000 0.000000 m /one glyphshow
6.362305 0.000000 m /zero glyphshow
grestore
[0.8 1.32] 0 setdash
0.502 setgray
gsave
259.4 40.25 29.92 381.1 clipbox
178.214354 381.13 m
178.214354 421.38 l
stroke
grestore
[] 0 setdash
1.000 setgray
gsave
/o {
gsave
newpath
translate
0.8 setlinewidth
1 setlinejoin
0 setlinecap
0 0 m
0 -3.5 l

gsave
1.000 setgray
fill
grestore
stroke
grestore
} bind def
178.214 381.13 o
grestore
gsave
171.854979 366.536250 translate
0.000000 rotate
0.000000 0.000000 m /one glyphshow
6.362305 0.000000 m /two glyphshow
grestore
[0.8 1.32] 0 setdash
0.502 setgray
gsave
259.4 40.25 29.92 381.1 clipbox
203.033493 381.13 m
203.033493 421.38 l
stroke
grestore
[] 0 setdash
1.000 setgray
gsave
/o {
gsave
newpath
translate
0.8 setlinewidth
1 setlinejoin
0 setlinecap
0 0 m
0 -3.5 l

gsave
1.000 setgray
fill
grestore
stroke
grestore
} bind def
203.033 381.13 o
grestore
gsave
196.674118 366.536250 translate
0.000000 rotate
0.000000 0.000000 m /one glyphshow
6.362305 0.000000 m /four glyphshow
grestore
[0.8 1.32] 0 setdash
0.502 setgray
gsave
259.4 40.25 29.92 381.1 clipbox
227.852632 381.13 m
227.852632 421.38 l
stroke
grestore
[] 0 setdash
1.000 setgray
gsave
/o {
gsave
newpath
translate
0.8 setlinewidth
1 setlinejoin
0 setlinecap
0 0 m
0 -3.5 l

gsave
1.000 setgray
fill
grestore
stroke
grestore
} bind def
227.853 381.13 o
grestore
gsave
221.493257 366.536250 translate
0.000000 rotate
0.000000 0.000000 m /one glyphshow
6.362305 0.000000 m /six glyphshow
grestore
[0.8 1.32] 0 setdash
0.502 setgray
gsave
259.4 40.25 29.92 381.1 clipbox
252.67177 381.13 m
252.67177 421.38 l
stroke
grestore
[] 0 setdash
1.000 setgray
gsave
/o {
gsave
newpath
translate
0.8 setlinewidth
1 setlinejoin
0 setlinecap
0 0 m
0 -3.5 l

gsave
1.000 setgray
fill
grestore
stroke
grestore
} bind def
252.672 381.13 o
grestore
gsave
246.312395 366.536250 translate
0.000000 rotate
0.000000 0.000000 m /one glyphshow
6.362305 0.000000 m /eight glyphshow
grestore
[0.8 1.32] 0 setdash
0.502 setgray
gsave
259.4 40.25 29.92 381.1 clipbox
277.490909 381.13 m
277.490909 421.38 l
stroke
grestore
[] 0 setdash
1.000 setgray
gsave
/o {
gsave
newpath
translate
0.8 setlinewidth
1 setlinejoin
0 setlinecap
0 0 m
0 -3.5 l

gsave
1.000 setgray
fill
grestore
stroke
grestore
} bind def
277.491 381.13 o
grestore
gsave
271.131534 366.536250 translate
0.000000 rotate
0.000000 0.000000 m /two glyphshow
6.362305 0.000000 m /zero glyphshow
grestore
[0.8 1.32] 0 setdash
0.502 setgray
gsave
259.4 40.25 29.92 381.1 clipbox
29.92 382.959545 m
289.28 382.959545 l
stroke
grestore
[] 0 setdash
0.000 setgray
gsave
/o {
gsave
newpath
translate
0.8 setlinewidth
1 setlinejoin
0 setlinecap
0 0 m
3.5 0 l

gsave
0.000 setgray
fill
grestore
stroke
grestore
} bind def
289.28 382.96 o
grestore
gsave
296.280000 379.162670 translate
0.000000 rotate
0.000000 0.000000 m /three glyphshow
6.362305 0.000000 m /period glyphshow
9.541016 0.000000 m /six glyphshow
15.903320 0.000000 m /seven glyphshow
22.265625 0.000000 m /e glyphshow
28.417969 0.000000 m /hyphen glyphshow
32.026367 0.000000 m /zero glyphshow
38.388672 0.000000 m /nine glyphshow
grestore
[0.8 1.32] 0 setdash
0.502 setgray
gsave
259.4 40.25 29.92 381.1 clipbox
29.92 419.550455 m
289.28 419.550455 l
stroke
grestore
[] 0 setdash
0.000 setgray
gsave
/o {
gsave
newpath
translate
0.8 setlinewidth
1 setlinejoin
0 setlinecap
0 0 m
3.5 0 l

gsave
0.000 setgray
fill
grestore
stroke
grestore
} bind def
289.28 419.55 o
grestore
gsave
296.280000 415.753580 translate
0.000000 rotate
0.000000 0.000000 m /three glyphshow
6.362305 0.000000 m /period glyphshow
9.541016 0.000000 m /four glyphshow
15.903320 0.000000 m /two glyphshow
22.265625 0.000000 m /e glyphshow
28.417969 0.000000 m /hyphen glyphshow
32.026367 0.000000 m /zero glyphshow
38.388672 0.000000 m /one glyphshow
grestore
gsave
23.841875 387.255000 translate
90.000000 rotate
/DejaVuSans-Oblique findfont
10.0 scalefont
setfont
0.000000 0.976562 moveto
/f glyphshow

/DejaVuSans findfont
7.0 scalefont
setfont
3.520508 -0.664062 moveto
/three glyphshow

/DejaVuSans findfont
10.0 scalefont
setfont
8.247559 0.976562 moveto
/parenleft glyphshow

/DejaVuSans-Oblique findfont
10.0 scalefont
setfont
12.148926 0.976562 moveto
/X glyphshow

/DejaVuSans findfont
7.0 scalefont
setfont
19.702064 4.804688 moveto
/asterisk glyphshow

/DejaVuSans findfont
10.0 scalefont
setfont
23.475501 0.976562 moveto
/parenright glyphshow


grestore
1.500 setlinewidth
2 setlinecap
gsave
259.4 40.25 29.92 381.1 clipbox
41.709091 383.704704 m
54.11866 382.959545 l
66.52823 382.959549 l
78.937799 383.038784 l
91.347368 383.302549 l
103.756938 383.223395 l
116.166507 383.433151 l
128.576077 383.695394 l
140.985646 383.987626 l
153.395215 383.828977 l
165.804785 384.405362 l
178.214354 384.776707 l
190.623923 387.410068 l
203.033493 385.375629 l
215.443062 384.617538 l
227.852632 393.455259 l
240.262201 386.271271 l
252.67177 419.550455 l
265.08134 395.552653 l
277.490909 391.662522 l
stroke
grestore
1.000 setlinewidth
0 setlinecap
1.000 0.000 0.000 setrgbcolor
gsave
259.4 40.25 29.92 381.1 clipbox
/o {
gsave
newpath
translate
1.0 setlinewidth
1 setlinejoin
0 setlinecap
0 -3 m
0.795609 -3 1.55874 -2.683901 2.12132 -2.12132 c
2.683901 -1.55874 3 -0.795609 3 0 c
3 0.795609 2.683901 1.55874 2.12132 2.12132 c
1.55874 2.683901 0.795609 3 0 3 c
-0.795609 3 -1.55874 2.683901 -2.12132 2.12132 c
-2.683901 1.55874 -3 0.795609 -3 0 c
-3 -0.795609 -2.683901 -1.55874 -2.12132 -2.12132 c
-1.55874 -2.683901 -0.795609 -3 0 -3 c
cl

gsave
1.000 0.000 0.000 setrgbcolor
fill
grestore
stroke
grestore
} bind def
54.1187 382.96 o
grestore
0.800 setlinewidth
0 setlinejoin
2 setlinecap
[] 0 setdash
0.000 setgray
gsave
29.92 381.13 m
29.92 421.38 l
stroke
grestore
gsave
289.28 381.13 m
289.28 421.38 l
stroke
grestore
gsave
29.92 381.13 m
289.28 381.13 l
stroke
grestore
gsave
29.92 421.38 m
289.28 421.38 l
stroke
grestore
gsave
29.92 310.48 m
289.28 310.48 l
289.28 350.73 l
29.92 350.73 l
cl
1.000 setgray
fill
grestore
1 setlinejoin
0 setlinecap
[0.8 1.32] 0 setdash
0.502 setgray
gsave
259.4 40.25 29.92 310.5 clipbox
54.11866 310.48 m
54.11866 350.73 l
stroke
grestore
[] 0 setdash
1.000 setgray
gsave
/o {
gsave
newpath
translate
0.8 setlinewidth
1 setlinejoin
0 setlinecap
0 0 m
0 -3.5 l

gsave
1.000 setgray
fill
grestore
stroke
grestore
} bind def
54.1187 310.48 o
grestore
gsave
50.938973 295.886250 translate
0.000000 rotate
0.000000 0.000000 m /two glyphshow
grestore
[0.8 1.32] 0 setdash
0.502 setgray
gsave
259.4 40.25 29.92 310.5 clipbox
78.937799 310.48 m
78.937799 350.73 l
stroke
grestore
[] 0 setdash
1.000 setgray
gsave
/o {
gsave
newpath
translate
0.8 setlinewidth
1 setlinejoin
0 setlinecap
0 0 m
0 -3.5 l

gsave
1.000 setgray
fill
grestore
stroke
grestore
} bind def
78.9378 310.48 o
grestore
gsave
75.758112 295.886250 translate
0.000000 rotate
0.000000 0.000000 m /four glyphshow
grestore
[0.8 1.32] 0 setdash
0.502 setgray
gsave
259.4 40.25 29.92 310.5 clipbox
103.756938 310.48 m
103.756938 350.73 l
stroke
grestore
[] 0 setdash
1.000 setgray
gsave
/o {
gsave
newpath
translate
0.8 setlinewidth
1 setlinejoin
0 setlinecap
0 0 m
0 -3.5 l

gsave
1.000 setgray
fill
grestore
stroke
grestore
} bind def
103.757 310.48 o
grestore
gsave
100.577250 295.886250 translate
0.000000 rotate
0.000000 0.000000 m /six glyphshow
grestore
[0.8 1.32] 0 setdash
0.502 setgray
gsave
259.4 40.25 29.92 310.5 clipbox
128.576077 310.48 m
128.576077 350.73 l
stroke
grestore
[] 0 setdash
1.000 setgray
gsave
/o {
gsave
newpath
translate
0.8 setlinewidth
1 setlinejoin
0 setlinecap
0 0 m
0 -3.5 l

gsave
1.000 setgray
fill
grestore
stroke
grestore
} bind def
128.576 310.48 o
grestore
gsave
125.396389 295.886250 translate
0.000000 rotate
0.000000 0.000000 m /eight glyphshow
grestore
[0.8 1.32] 0 setdash
0.502 setgray
gsave
259.4 40.25 29.92 310.5 clipbox
153.395215 310.48 m
153.395215 350.73 l
stroke
grestore
[] 0 setdash
1.000 setgray
gsave
/o {
gsave
newpath
translate
0.8 setlinewidth
1 setlinejoin
0 setlinecap
0 0 m
0 -3.5 l

gsave
1.000 setgray
fill
grestore
stroke
grestore
} bind def
153.395 310.48 o
grestore
gsave
147.035840 295.886250 translate
0.000000 rotate
0.000000 0.000000 m /one glyphshow
6.362305 0.000000 m /zero glyphshow
grestore
[0.8 1.32] 0 setdash
0.502 setgray
gsave
259.4 40.25 29.92 310.5 clipbox
178.214354 310.48 m
178.214354 350.73 l
stroke
grestore
[] 0 setdash
1.000 setgray
gsave
/o {
gsave
newpath
translate
0.8 setlinewidth
1 setlinejoin
0 setlinecap
0 0 m
0 -3.5 l

gsave
1.000 setgray
fill
grestore
stroke
grestore
} bind def
178.214 310.48 o
grestore
gsave
171.854979 295.886250 translate
0.000000 rotate
0.000000 0.000000 m /one glyphshow
6.362305 0.000000 m /two glyphshow
grestore
[0.8 1.32] 0 setdash
0.502 setgray
gsave
259.4 40.25 29.92 310.5 clipbox
203.033493 310.48 m
203.033493 350.73 l
stroke
grestore
[] 0 setdash
1.000 setgray
gsave
/o {
gsave
newpath
translate
0.8 setlinewidth
1 setlinejoin
0 setlinecap
0 0 m
0 -3.5 l

gsave
1.000 setgray
fill
grestore
stroke
grestore
} bind def
203.033 310.48 o
grestore
gsave
196.674118 295.886250 translate
0.000000 rotate
0.000000 0.000000 m /one glyphshow
6.362305 0.000000 m /four glyphshow
grestore
[0.8 1.32] 0 setdash
0.502 setgray
gsave
259.4 40.25 29.92 310.5 clipbox
227.852632 310.48 m
227.852632 350.73 l
stroke
grestore
[] 0 setdash
1.000 setgray
gsave
/o {
gsave
newpath
translate
0.8 setlinewidth
1 setlinejoin
0 setlinecap
0 0 m
0 -3.5 l

gsave
1.000 setgray
fill
grestore
stroke
grestore
} bind def
227.853 310.48 o
grestore
gsave
221.493257 295.886250 translate
0.000000 rotate
0.000000 0.000000 m /one glyphshow
6.362305 0.000000 m /six glyphshow
grestore
[0.8 1.32] 0 setdash
0.502 setgray
gsave
259.4 40.25 29.92 310.5 clipbox
252.67177 310.48 m
252.67177 350.73 l
stroke
grestore
[] 0 setdash
1.000 setgray
gsave
/o {
gsave
newpath
translate
0.8 setlinewidth
1 setlinejoin
0 setlinecap
0 0 m
0 -3.5 l

gsave
1.000 setgray
fill
grestore
stroke
grestore
} bind def
252.672 310.48 o
grestore
gsave
246.312395 295.886250 translate
0.000000 rotate
0.000000 0.000000 m /one glyphshow
6.362305 0.000000 m /eight glyphshow
grestore
[0.8 1.32] 0 setdash
0.502 setgray
gsave
259.4 40.25 29.92 310.5 clipbox
277.490909 310.48 m
277.490909 350.73 l
stroke
grestore
[] 0 setdash
1.000 setgray
gsave
/o {
gsave
newpath
translate
0.8 setlinewidth
1 setlinejoin
0 setlinecap
0 0 m
0 -3.5 l

gsave
1.000 setgray
fill
grestore
stroke
grestore
} bind def
277.491 310.48 o
grestore
gsave
271.131534 295.886250 translate
0.000000 rotate
0.000000 0.000000 m /two glyphshow
6.362305 0.000000 m /zero glyphshow
grestore
[0.8 1.32] 0 setdash
0.502 setgray
gsave
259.4 40.25 29.92 310.5 clipbox
29.92 312.309545 m
289.28 312.309545 l
stroke
grestore
[] 0 setdash
0.000 setgray
gsave
/o {
gsave
newpath
translate
0.8 setlinewidth
1 setlinejoin
0 setlinecap
0 0 m
3.5 0 l

gsave
0.000 setgray
fill
grestore
stroke
grestore
} bind def
289.28 312.31 o
grestore
gsave
296.280000 308.512670 translate
0.000000 rotate
0.000000 0.000000 m /hyphen glyphshow
3.608398 0.000000 m /one glyphshow
9.970703 0.000000 m /period glyphshow
13.149414 0.000000 m /nine glyphshow
19.511719 0.000000 m /five glyphshow
25.874023 0.000000 m /e glyphshow
32.026367 0.000000 m /plus glyphshow
40.405273 0.000000 m /zero glyphshow
46.767578 0.000000 m /one glyphshow
grestore
[0.8 1.32] 0 setdash
0.502 setgray
gsave
259.4 40.25 29.92 310.5 clipbox
29.92 348.900455 m
289.28 348.900455 l
stroke
grestore
[] 0 setdash
0.000 setgray
gsave
/o {
gsave
newpath
translate
0.8 setlinewidth
1 setlinejoin
0 setlinecap
0 0 m
3.5 0 l

gsave
0.000 setgray
fill
grestore
stroke
grestore
} bind def
289.28 348.9 o
grestore
gsave
296.280000 345.103580 translate
0.000000 rotate
0.000000 0.000000 m /hyphen glyphshow
3.608398 0.000000 m /one glyphshow
9.970703 0.000000 m /period glyphshow
13.149414 0.000000 m /eight glyphshow
19.511719 0.000000 m /four glyphshow
25.874023 0.000000 m /e glyphshow
32.026367 0.000000 m /plus glyphshow
40.405273 0.000000 m /zero glyphshow
46.767578 0.000000 m /one glyphshow
grestore
gsave
23.841875 316.605000 translate
90.000000 rotate
/DejaVuSans-Oblique findfont
10.0 scalefont
setfont
0.000000 0.976562 moveto
/f glyphshow

/DejaVuSans findfont
7.0 scalefont
setfont
3.520508 -0.664062 moveto
/four glyphshow

/DejaVuSans findfont
10.0 scalefont
setfont
8.247559 0.976562 moveto
/parenleft glyphshow

/DejaVuSans-Oblique findfont
10.0 scalefont
setfont
12.148926 0.976562 moveto
/X glyphshow

/DejaVuSans findfont
7.0 scalefont
setfont
19.702064 4.804688 moveto
/asterisk glyphshow

/DejaVuSans findfont
10.0 scalefont
setfont
23.475501 0.976562 moveto
/parenright glyphshow


grestore
1.500 setlinewidth
2 setlinecap
gsave
259.4 40.25 29.92 310.5 clipbox
41.709091 314.120436 m
54.11866 312.518031 l
66.52823 312.309545 l
78.937799 313.98949 l
91.347368 313.237389 l
103.756938 315.175102 l
116.166507 316.964055 l
128.576077 322.65707 l
140.985646 321.362115 l
153.395215 320.458005 l
165.804785 323.304287 l
178.214354 328.459155 l
190.623923 334.182298 l
203.033493 327.694572 l
215.443062 327.584111 l
227.852632 341.02936 l
240.262201 339.486153 l
252.67177 348.900455 l
265.08134 338.795996 l
277.490909 339.177932 l
stroke
grestore
1.000 setlinewidth
0 setlinecap
1.000 0.000 0.000 setrgbcolor
gsave
259.4 40.25 29.92 310.5 clipbox
/o {
gsave
newpath
translate
1.0 setlinewidth
1 setlinejoin
0 setlinecap
0 -3 m
0.795609 -3 1.55874 -2.683901 2.12132 -2.12132 c
2.683901 -1.55874 3 -0.795609 3 0 c
3 0.795609 2.683901 1.55874 2.12132 2.12132 c
1.55874 2.683901 0.795609 3 0 3 c
-0.795609 3 -1.55874 2.683901 -2.12132 2.12132 c
-2.683901 1.55874 -3 0.795609 -3 0 c
-3 -0.795609 -2.683901 -1.55874 -2.12132 -2.12132 c
-1.55874 -2.683901 -0.795609 -3 0 -3 c
cl

gsave
1.000 0.000 0.000 setrgbcolor
fill
grestore
stroke
grestore
} bind def
66.5282 312.31 o
grestore
0.800 setlinewidth
0 setlinejoin
2 setlinecap
[] 0 setdash
0.000 setgray
gsave
29.92 310.48 m
29.92 350.73 l
stroke
grestore
gsave
289.28 310.48 m
289.28 350.73 l
stroke
grestore
gsave
29.92 310.48 m
289.28 310.48 l
stroke
grestore
gsave
29.92 350.73 m
289.28 350.73 l
stroke
grestore
gsave
29.92 239.83 m
289.28 239.83 l
289.28 280.08 l
29.92 280.08 l
cl
1.000 setgray
fill
grestore
1 setlinejoin
0 setlinecap
[0.8 1.32] 0 setdash
0.502 setgray
gsave
259.4 40.25 29.92 239.8 clipbox
54.11866 239.83 m
54.11866 280.08 l
stroke
grestore
[] 0 setdash
1.000 setgray
gsave
/o {
gsave
newpath
translate
0.8 setlinewidth
1 setlinejoin
0 setlinecap
0 0 m
0 -3.5 l

gsave
1.000 setgray
fill
grestore
stroke
grestore
} bind def
54.1187 239.83 o
grestore
gsave
50.938973 225.236250 translate
0.000000 rotate
0.000000 0.000000 m /two glyphshow
grestore
[0.8 1.32] 0 setdash
0.502 setgray
gsave
259.4 40.25 29.92 239.8 clipbox
78.937799 239.83 m
78.937799 280.08 l
stroke
grestore
[] 0 setdash
1.000 setgray
gsave
/o {
gsave
newpath
translate
0.8 setlinewidth
1 setlinejoin
0 setlinecap
0 0 m
0 -3.5 l

gsave
1.000 setgray
fill
grestore
stroke
grestore
} bind def
78.9378 239.83 o
grestore
gsave
75.758112 225.236250 translate
0.000000 rotate
0.000000 0.000000 m /four glyphshow
grestore
[0.8 1.32] 0 setdash
0.502 setgray
gsave
259.4 40.25 29.92 239.8 clipbox
103.756938 239.83 m
103.756938 280.08 l
stroke
grestore
[] 0 setdash
1.000 setgray
gsave
/o {
gsave
newpath
translate
0.8 setlinewidth
1 setlinejoin
0 setlinecap
0 0 m
0 -3.5 l

gsave
1.000 setgray
fill
grestore
stroke
grestore
} bind def
103.757 239.83 o
grestore
gsave
100.577250 225.236250 translate
0.000000 rotate
0.000000 0.000000 m /six glyphshow
grestore
[0.8 1.32] 0 setdash
0.502 setgray
gsave
259.4 40.25 29.92 239.8 clipbox
128.576077 239.83 m
128.576077 280.08 l
stroke
grestore
[] 0 setdash
1.000 setgray
gsave
/o {
gsave
newpath
translate
0.8 setlinewidth
1 setlinejoin
0 setlinecap
0 0 m
0 -3.5 l

gsave
1.000 setgray
fill
grestore
stroke
grestore
} bind def
128.576 239.83 o
grestore
gsave
125.396389 225.236250 translate
0.000000 rotate
0.000000 0.000000 m /eight glyphshow
grestore
[0.8 1.32] 0 setdash
0.502 setgray
gsave
259.4 40.25 29.92 239.8 clipbox
153.395215 239.83 m
153.395215 280.08 l
stroke
grestore
[] 0 setdash
1.000 setgray
gsave
/o {
gsave
newpath
translate
0.8 setlinewidth
1 setlinejoin
0 setlinecap
0 0 m
0 -3.5 l

gsave
1.000 setgray
fill
grestore
stroke
grestore
} bind def
153.395 239.83 o
grestore
gsave
147.035840 225.236250 translate
0.000000 rotate
0.000000 0.000000 m /one glyphshow
6.362305 0.000000 m /zero glyphshow
grestore
[0.8 1.32] 0 setdash
0.502 setgray
gsave
259.4 40.25 29.92 239.8 clipbox
178.214354 239.83 m
178.214354 280.08 l
stroke
grestore
[] 0 setdash
1.000 setgray
gsave
/o {
gsave
newpath
translate
0.8 setlinewidth
1 setlinejoin
0 setlinecap
0 0 m
0 -3.5 l

gsave
1.000 setgray
fill
grestore
stroke
grestore
} bind def
178.214 239.83 o
grestore
gsave
171.854979 225.236250 translate
0.000000 rotate
0.000000 0.000000 m /one glyphshow
6.362305 0.000000 m /two glyphshow
grestore
[0.8 1.32] 0 setdash
0.502 setgray
gsave
259.4 40.25 29.92 239.8 clipbox
203.033493 239.83 m
203.033493 280.08 l
stroke
grestore
[] 0 setdash
1.000 setgray
gsave
/o {
gsave
newpath
translate
0.8 setlinewidth
1 setlinejoin
0 setlinecap
0 0 m
0 -3.5 l

gsave
1.000 setgray
fill
grestore
stroke
grestore
} bind def
203.033 239.83 o
grestore
gsave
196.674118 225.236250 translate
0.000000 rotate
0.000000 0.000000 m /one glyphshow
6.362305 0.000000 m /four glyphshow
grestore
[0.8 1.32] 0 setdash
0.502 setgray
gsave
259.4 40.25 29.92 239.8 clipbox
227.852632 239.83 m
227.852632 280.08 l
stroke
grestore
[] 0 setdash
1.000 setgray
gsave
/o {
gsave
newpath
translate
0.8 setlinewidth
1 setlinejoin
0 setlinecap
0 0 m
0 -3.5 l

gsave
1.000 setgray
fill
grestore
stroke
grestore
} bind def
227.853 239.83 o
grestore
gsave
221.493257 225.236250 translate
0.000000 rotate
0.000000 0.000000 m /one glyphshow
6.362305 0.000000 m /six glyphshow
grestore
[0.8 1.32] 0 setdash
0.502 setgray
gsave
259.4 40.25 29.92 239.8 clipbox
252.67177 239.83 m
252.67177 280.08 l
stroke
grestore
[] 0 setdash
1.000 setgray
gsave
/o {
gsave
newpath
translate
0.8 setlinewidth
1 setlinejoin
0 setlinecap
0 0 m
0 -3.5 l

gsave
1.000 setgray
fill
grestore
stroke
grestore
} bind def
252.672 239.83 o
grestore
gsave
246.312395 225.236250 translate
0.000000 rotate
0.000000 0.000000 m /one glyphshow
6.362305 0.000000 m /eight glyphshow
grestore
[0.8 1.32] 0 setdash
0.502 setgray
gsave
259.4 40.25 29.92 239.8 clipbox
277.490909 239.83 m
277.490909 280.08 l
stroke
grestore
[] 0 setdash
1.000 setgray
gsave
/o {
gsave
newpath
translate
0.8 setlinewidth
1 setlinejoin
0 setlinecap
0 0 m
0 -3.5 l

gsave
1.000 setgray
fill
grestore
stroke
grestore
} bind def
277.491 239.83 o
grestore
gsave
271.131534 225.236250 translate
0.000000 rotate
0.000000 0.000000 m /two glyphshow
6.362305 0.000000 m /zero glyphshow
grestore
[0.8 1.32] 0 setdash
0.502 setgray
gsave
259.4 40.25 29.92 239.8 clipbox
29.92 241.659545 m
289.28 241.659545 l
stroke
grestore
[] 0 setdash
0.000 setgray
gsave
/o {
gsave
newpath
translate
0.8 setlinewidth
1 setlinejoin
0 setlinecap
0 0 m
3.5 0 l

gsave
0.000 setgray
fill
grestore
stroke
grestore
} bind def
289.28 241.66 o
grestore
gsave
296.280000 237.862670 translate
0.000000 rotate
0.000000 0.000000 m /three glyphshow
6.362305 0.000000 m /period glyphshow
9.541016 0.000000 m /two glyphshow
15.903320 0.000000 m /one glyphshow
22.265625 0.000000 m /e glyphshow
28.417969 0.000000 m /hyphen glyphshow
32.026367 0.000000 m /one glyphshow
38.388672 0.000000 m /two glyphshow
grestore
[0.8 1.32] 0 setdash
0.502 setgray
gsave
259.4 40.25 29.92 239.8 clipbox
29.92 278.250455 m
289.28 278.250455 l
stroke
grestore
[] 0 setdash
0.000 setgray
gsave
/o {
gsave
newpath
translate
0.8 setlinewidth
1 setlinejoin
0 setlinecap
0 0 m
3.5 0 l

gsave
0.000 setgray
fill
grestore
stroke
grestore
} bind def
289.28 278.25 o
grestore
gsave
296.280000 274.453580 translate
0.000000 rotate
0.000000 0.000000 m /one glyphshow
6.362305 0.000000 m /period glyphshow
9.541016 0.000000 m /seven glyphshow
15.903320 0.000000 m /four glyphshow
22.265625 0.000000 m /e glyphshow
28.417969 0.000000 m /plus glyphshow
36.796875 0.000000 m /zero glyphshow
43.159180 0.000000 m /one glyphshow
grestore
gsave
23.841875 245.955000 translate
90.000000 rotate
/DejaVuSans-Oblique findfont
10.0 scalefont
setfont
0.000000 0.976562 moveto
/f glyphshow

/DejaVuSans findfont
7.0 scalefont
setfont
3.520508 -0.664062 moveto
/five glyphshow

/DejaVuSans findfont
10.0 scalefont
setfont
8.247559 0.976562 moveto
/parenleft glyphshow

/DejaVuSans-Oblique findfont
10.0 scalefont
setfont
12.148926 0.976562 moveto
/X glyphshow

/DejaVuSans findfont
7.0 scalefont
setfont
19.702064 4.804688 moveto
/asterisk glyphshow

/DejaVuSans findfont
10.0 scalefont
setfont
23.475501 0.976562 moveto
/parenright glyphshow


grestore
1.500 setlinewidth
2 setlinecap
gsave
259.4 40.25 29.92 239.8 clipbox
41.709091 241.659545 m
54.11866 241.659545 l
66.52823 242.286819 l
78.937799 242.49591 l
91.347368 247.305002 l
103.756938 247.932275 l
116.166507 246.259547 l
128.576077 254.414095 l
140.985646 255.041362 l
153.395215 258.386818 l
165.804785 255.250459 l
178.214354 259.223188 l
190.623923 258.805002 l
203.033493 262.359544 l
215.443062 265.28682 l
227.852632 272.008573 l
240.262201 271.990834 l
252.67177 268.005 l
265.08134 275.950448 l
277.490909 278.250455 l
stroke
grestore
1.000 setlinewidth
0 setlinecap
1.000 0.000 0.000 setrgbcolor
gsave
259.4 40.25 29.92 239.8 clipbox
/o {
gsave
newpath
translate
1.0 setlinewidth
1 setlinejoin
0 setlinecap
0 -3 m
0.795609 -3 1.55874 -2.683901 2.12132 -2.12132 c
2.683901 -1.55874 3 -0.795609 3 0 c
3 0.795609 2.683901 1.55874 2.12132 2.12132 c
1.55874 2.683901 0.795609 3 0 3 c
-0.795609 3 -1.55874 2.683901 -2.12132 2.12132 c
-2.683901 1.55874 -3 0.795609 -3 0 c
-3 -0.795609 -2.683901 -1.55874 -2.12132 -2.12132 c
-1.55874 -2.683901 -0.795609 -3 0 -3 c
cl

gsave
1.000 0.000 0.000 setrgbcolor
fill
grestore
stroke
grestore
} bind def
54.1187 241.66 o
grestore
0.800 setlinewidth
0 setlinejoin
2 setlinecap
[] 0 setdash
0.000 setgray
gsave
29.92 239.83 m
29.92 280.08 l
stroke
grestore
gsave
289.28 239.83 m
289.28 280.08 l
stroke
grestore
gsave
29.92 239.83 m
289.28 239.83 l
stroke
grestore
gsave
29.92 280.08 m
289.28 280.08 l
stroke
grestore
gsave
29.92 169.18 m
289.28 169.18 l
289.28 209.43 l
29.92 209.43 l
cl
1.000 setgray
fill
grestore
1 setlinejoin
0 setlinecap
[0.8 1.32] 0 setdash
0.502 setgray
gsave
259.4 40.25 29.92 169.2 clipbox
54.11866 169.18 m
54.11866 209.43 l
stroke
grestore
[] 0 setdash
1.000 setgray
gsave
/o {
gsave
newpath
translate
0.8 setlinewidth
1 setlinejoin
0 setlinecap
0 0 m
0 -3.5 l

gsave
1.000 setgray
fill
grestore
stroke
grestore
} bind def
54.1187 169.18 o
grestore
gsave
50.938973 154.586250 translate
0.000000 rotate
0.000000 0.000000 m /two glyphshow
grestore
[0.8 1.32] 0 setdash
0.502 setgray
gsave
259.4 40.25 29.92 169.2 clipbox
78.937799 169.18 m
78.937799 209.43 l
stroke
grestore
[] 0 setdash
1.000 setgray
gsave
/o {
gsave
newpath
translate
0.8 setlinewidth
1 setlinejoin
0 setlinecap
0 0 m
0 -3.5 l

gsave
1.000 setgray
fill
grestore
stroke
grestore
} bind def
78.9378 169.18 o
grestore
gsave
75.758112 154.586250 translate
0.000000 rotate
0.000000 0.000000 m /four glyphshow
grestore
[0.8 1.32] 0 setdash
0.502 setgray
gsave
259.4 40.25 29.92 169.2 clipbox
103.756938 169.18 m
103.756938 209.43 l
stroke
grestore
[] 0 setdash
1.000 setgray
gsave
/o {
gsave
newpath
translate
0.8 setlinewidth
1 setlinejoin
0 setlinecap
0 0 m
0 -3.5 l

gsave
1.000 setgray
fill
grestore
stroke
grestore
} bind def
103.757 169.18 o
grestore
gsave
100.577250 154.586250 translate
0.000000 rotate
0.000000 0.000000 m /six glyphshow
grestore
[0.8 1.32] 0 setdash
0.502 setgray
gsave
259.4 40.25 29.92 169.2 clipbox
128.576077 169.18 m
128.576077 209.43 l
stroke
grestore
[] 0 setdash
1.000 setgray
gsave
/o {
gsave
newpath
translate
0.8 setlinewidth
1 setlinejoin
0 setlinecap
0 0 m
0 -3.5 l

gsave
1.000 setgray
fill
grestore
stroke
grestore
} bind def
128.576 169.18 o
grestore
gsave
125.396389 154.586250 translate
0.000000 rotate
0.000000 0.000000 m /eight glyphshow
grestore
[0.8 1.32] 0 setdash
0.502 setgray
gsave
259.4 40.25 29.92 169.2 clipbox
153.395215 169.18 m
153.395215 209.43 l
stroke
grestore
[] 0 setdash
1.000 setgray
gsave
/o {
gsave
newpath
translate
0.8 setlinewidth
1 setlinejoin
0 setlinecap
0 0 m
0 -3.5 l

gsave
1.000 setgray
fill
grestore
stroke
grestore
} bind def
153.395 169.18 o
grestore
gsave
147.035840 154.586250 translate
0.000000 rotate
0.000000 0.000000 m /one glyphshow
6.362305 0.000000 m /zero glyphshow
grestore
[0.8 1.32] 0 setdash
0.502 setgray
gsave
259.4 40.25 29.92 169.2 clipbox
178.214354 169.18 m
178.214354 209.43 l
stroke
grestore
[] 0 setdash
1.000 setgray
gsave
/o {
gsave
newpath
translate
0.8 setlinewidth
1 setlinejoin
0 setlinecap
0 0 m
0 -3.5 l

gsave
1.000 setgray
fill
grestore
stroke
grestore
} bind def
178.214 169.18 o
grestore
gsave
171.854979 154.586250 translate
0.000000 rotate
0.000000 0.000000 m /one glyphshow
6.362305 0.000000 m /two glyphshow
grestore
[0.8 1.32] 0 setdash
0.502 setgray
gsave
259.4 40.25 29.92 169.2 clipbox
203.033493 169.18 m
203.033493 209.43 l
stroke
grestore
[] 0 setdash
1.000 setgray
gsave
/o {
gsave
newpath
translate
0.8 setlinewidth
1 setlinejoin
0 setlinecap
0 0 m
0 -3.5 l

gsave
1.000 setgray
fill
grestore
stroke
grestore
} bind def
203.033 169.18 o
grestore
gsave
196.674118 154.586250 translate
0.000000 rotate
0.000000 0.000000 m /one glyphshow
6.362305 0.000000 m /four glyphshow
grestore
[0.8 1.32] 0 setdash
0.502 setgray
gsave
259.4 40.25 29.92 169.2 clipbox
227.852632 169.18 m
227.852632 209.43 l
stroke
grestore
[] 0 setdash
1.000 setgray
gsave
/o {
gsave
newpath
translate
0.8 setlinewidth
1 setlinejoin
0 setlinecap
0 0 m
0 -3.5 l

gsave
1.000 setgray
fill
grestore
stroke
grestore
} bind def
227.853 169.18 o
grestore
gsave
221.493257 154.586250 translate
0.000000 rotate
0.000000 0.000000 m /one glyphshow
6.362305 0.000000 m /six glyphshow
grestore
[0.8 1.32] 0 setdash
0.502 setgray
gsave
259.4 40.25 29.92 169.2 clipbox
252.67177 169.18 m
252.67177 209.43 l
stroke
grestore
[] 0 setdash
1.000 setgray
gsave
/o {
gsave
newpath
translate
0.8 setlinewidth
1 setlinejoin
0 setlinecap
0 0 m
0 -3.5 l

gsave
1.000 setgray
fill
grestore
stroke
grestore
} bind def
252.672 169.18 o
grestore
gsave
246.312395 154.586250 translate
0.000000 rotate
0.000000 0.000000 m /one glyphshow
6.362305 0.000000 m /eight glyphshow
grestore
[0.8 1.32] 0 setdash
0.502 setgray
gsave
259.4 40.25 29.92 169.2 clipbox
277.490909 169.18 m
277.490909 209.43 l
stroke
grestore
[] 0 setdash
1.000 setgray
gsave
/o {
gsave
newpath
translate
0.8 setlinewidth
1 setlinejoin
0 setlinecap
0 0 m
0 -3.5 l

gsave
1.000 setgray
fill
grestore
stroke
grestore
} bind def
277.491 169.18 o
grestore
gsave
271.131534 154.586250 translate
0.000000 rotate
0.000000 0.000000 m /two glyphshow
6.362305 0.000000 m /zero glyphshow
grestore
[0.8 1.32] 0 setdash
0.502 setgray
gsave
259.4 40.25 29.92 169.2 clipbox
29.92 171.009545 m
289.28 171.009545 l
stroke
grestore
[] 0 setdash
0.000 setgray
gsave
/o {
gsave
newpath
translate
0.8 setlinewidth
1 setlinejoin
0 setlinecap
0 0 m
3.5 0 l

gsave
0.000 setgray
fill
grestore
stroke
grestore
} bind def
289.28 171.01 o
grestore
gsave
296.280000 167.212670 translate
0.000000 rotate
0.000000 0.000000 m /one glyphshow
6.362305 0.000000 m /period glyphshow
9.541016 0.000000 m /seven glyphshow
15.903320 0.000000 m /three glyphshow
22.265625 0.000000 m /e glyphshow
28.417969 0.000000 m /hyphen glyphshow
32.026367 0.000000 m /zero glyphshow
38.388672 0.000000 m /one glyphshow
grestore
[0.8 1.32] 0 setdash
0.502 setgray
gsave
259.4 40.25 29.92 169.2 clipbox
29.92 207.600455 m
289.28 207.600455 l
stroke
grestore
[] 0 setdash
0.000 setgray
gsave
/o {
gsave
newpath
translate
0.8 setlinewidth
1 setlinejoin
0 setlinecap
0 0 m
3.5 0 l

gsave
0.000 setgray
fill
grestore
stroke
grestore
} bind def
289.28 207.6 o
grestore
gsave
296.280000 203.803580 translate
0.000000 rotate
0.000000 0.000000 m /four glyphshow
6.362305 0.000000 m /period glyphshow
9.541016 0.000000 m /four glyphshow
15.903320 0.000000 m /three glyphshow
22.265625 0.000000 m /e glyphshow
28.417969 0.000000 m /plus glyphshow
36.796875 0.000000 m /zero glyphshow
43.159180 0.000000 m /one glyphshow
grestore
gsave
23.841875 175.305000 translate
90.000000 rotate
/DejaVuSans-Oblique findfont
10.0 scalefont
setfont
0.000000 0.976562 moveto
/f glyphshow

/DejaVuSans findfont
7.0 scalefont
setfont
3.520508 -0.664062 moveto
/six glyphshow

/DejaVuSans findfont
10.0 scalefont
setfont
8.247559 0.976562 moveto
/parenleft glyphshow

/DejaVuSans-Oblique findfont
10.0 scalefont
setfont
12.148926 0.976562 moveto
/X glyphshow

/DejaVuSans findfont
7.0 scalefont
setfont
19.702064 4.804688 moveto
/asterisk glyphshow

/DejaVuSans findfont
10.0 scalefont
setfont
23.475501 0.976562 moveto
/parenright glyphshow


grestore
1.500 setlinewidth
2 setlinecap
gsave
259.4 40.25 29.92 169.2 clipbox
41.709091 171.131879 m
54.11866 171.009545 l
66.52823 171.108834 l
78.937799 171.271512 l
91.347368 172.07327 l
103.756938 172.259291 l
116.166507 183.321772 l
128.576077 189.384675 l
140.985646 179.672779 l
153.395215 178.475375 l
165.804785 194.600004 l
178.214354 184.814265 l
190.623923 182.981707 l
203.033493 190.104048 l
215.443062 200.586835 l
227.852632 184.120707 l
240.262201 207.600455 l
252.67177 206.798999 l
265.08134 195.566256 l
277.490909 196.39588 l
stroke
grestore
1.000 setlinewidth
0 setlinecap
1.000 0.000 0.000 setrgbcolor
gsave
259.4 40.25 29.92 169.2 clipbox
/o {
gsave
newpath
translate
1.0 setlinewidth
1 setlinejoin
0 setlinecap
0 -3 m
0.795609 -3 1.55874 -2.683901 2.12132 -2.12132 c
2.683901 -1.55874 3 -0.795609 3 0 c
3 0.795609 2.683901 1.55874 2.12132 2.12132 c
1.55874 2.683901 0.795609 3 0 3 c
-0.795609 3 -1.55874 2.683901 -2.12132 2.12132 c
-2.683901 1.55874 -3 0.795609 -3 0 c
-3 -0.795609 -2.683901 -1.55874 -2.12132 -2.12132 c
-1.55874 -2.683901 -0.795609 -3 0 -3 c
cl

gsave
1.000 0.000 0.000 setrgbcolor
fill
grestore
stroke
grestore
} bind def
54.1187 171.01 o
grestore
0.800 setlinewidth
0 setlinejoin
2 setlinecap
[] 0 setdash
0.000 setgray
gsave
29.92 169.18 m
29.92 209.43 l
stroke
grestore
gsave
289.28 169.18 m
289.28 209.43 l
stroke
grestore
gsave
29.92 169.18 m
289.28 169.18 l
stroke
grestore
gsave
29.92 209.43 m
289.28 209.43 l
stroke
grestore
gsave
29.92 98.53 m
289.28 98.53 l
289.28 138.78 l
29.92 138.78 l
cl
1.000 setgray
fill
grestore
1 setlinejoin
0 setlinecap
[0.8 1.32] 0 setdash
0.502 setgray
gsave
259.4 40.25 29.92 98.53 clipbox
54.11866 98.53 m
54.11866 138.78 l
stroke
grestore
[] 0 setdash
1.000 setgray
gsave
/o {
gsave
newpath
translate
0.8 setlinewidth
1 setlinejoin
0 setlinecap
0 0 m
0 -3.5 l

gsave
1.000 setgray
fill
grestore
stroke
grestore
} bind def
54.1187 98.53 o
grestore
gsave
50.938973 83.936250 translate
0.000000 rotate
0.000000 0.000000 m /two glyphshow
grestore
[0.8 1.32] 0 setdash
0.502 setgray
gsave
259.4 40.25 29.92 98.53 clipbox
78.937799 98.53 m
78.937799 138.78 l
stroke
grestore
[] 0 setdash
1.000 setgray
gsave
/o {
gsave
newpath
translate
0.8 setlinewidth
1 setlinejoin
0 setlinecap
0 0 m
0 -3.5 l

gsave
1.000 setgray
fill
grestore
stroke
grestore
} bind def
78.9378 98.53 o
grestore
gsave
75.758112 83.936250 translate
0.000000 rotate
0.000000 0.000000 m /four glyphshow
grestore
[0.8 1.32] 0 setdash
0.502 setgray
gsave
259.4 40.25 29.92 98.53 clipbox
103.756938 98.53 m
103.756938 138.78 l
stroke
grestore
[] 0 setdash
1.000 setgray
gsave
/o {
gsave
newpath
translate
0.8 setlinewidth
1 setlinejoin
0 setlinecap
0 0 m
0 -3.5 l

gsave
1.000 setgray
fill
grestore
stroke
grestore
} bind def
103.757 98.53 o
grestore
gsave
100.577250 83.936250 translate
0.000000 rotate
0.000000 0.000000 m /six glyphshow
grestore
[0.8 1.32] 0 setdash
0.502 setgray
gsave
259.4 40.25 29.92 98.53 clipbox
128.576077 98.53 m
128.576077 138.78 l
stroke
grestore
[] 0 setdash
1.000 setgray
gsave
/o {
gsave
newpath
translate
0.8 setlinewidth
1 setlinejoin
0 setlinecap
0 0 m
0 -3.5 l

gsave
1.000 setgray
fill
grestore
stroke
grestore
} bind def
128.576 98.53 o
grestore
gsave
125.396389 83.936250 translate
0.000000 rotate
0.000000 0.000000 m /eight glyphshow
grestore
[0.8 1.32] 0 setdash
0.502 setgray
gsave
259.4 40.25 29.92 98.53 clipbox
153.395215 98.53 m
153.395215 138.78 l
stroke
grestore
[] 0 setdash
1.000 setgray
gsave
/o {
gsave
newpath
translate
0.8 setlinewidth
1 setlinejoin
0 setlinecap
0 0 m
0 -3.5 l

gsave
1.000 setgray
fill
grestore
stroke
grestore
} bind def
153.395 98.53 o
grestore
gsave
147.035840 83.936250 translate
0.000000 rotate
0.000000 0.000000 m /one glyphshow
6.362305 0.000000 m /zero glyphshow
grestore
[0.8 1.32] 0 setdash
0.502 setgray
gsave
259.4 40.25 29.92 98.53 clipbox
178.214354 98.53 m
178.214354 138.78 l
stroke
grestore
[] 0 setdash
1.000 setgray
gsave
/o {
gsave
newpath
translate
0.8 setlinewidth
1 setlinejoin
0 setlinecap
0 0 m
0 -3.5 l

gsave
1.000 setgray
fill
grestore
stroke
grestore
} bind def
178.214 98.53 o
grestore
gsave
171.854979 83.936250 translate
0.000000 rotate
0.000000 0.000000 m /one glyphshow
6.362305 0.000000 m /two glyphshow
grestore
[0.8 1.32] 0 setdash
0.502 setgray
gsave
259.4 40.25 29.92 98.53 clipbox
203.033493 98.53 m
203.033493 138.78 l
stroke
grestore
[] 0 setdash
1.000 setgray
gsave
/o {
gsave
newpath
translate
0.8 setlinewidth
1 setlinejoin
0 setlinecap
0 0 m
0 -3.5 l

gsave
1.000 setgray
fill
grestore
stroke
grestore
} bind def
203.033 98.53 o
grestore
gsave
196.674118 83.936250 translate
0.000000 rotate
0.000000 0.000000 m /one glyphshow
6.362305 0.000000 m /four glyphshow
grestore
[0.8 1.32] 0 setdash
0.502 setgray
gsave
259.4 40.25 29.92 98.53 clipbox
227.852632 98.53 m
227.852632 138.78 l
stroke
grestore
[] 0 setdash
1.000 setgray
gsave
/o {
gsave
newpath
translate
0.8 setlinewidth
1 setlinejoin
0 setlinecap
0 0 m
0 -3.5 l

gsave
1.000 setgray
fill
grestore
stroke
grestore
} bind def
227.853 98.53 o
grestore
gsave
221.493257 83.936250 translate
0.000000 rotate
0.000000 0.000000 m /one glyphshow
6.362305 0.000000 m /six glyphshow
grestore
[0.8 1.32] 0 setdash
0.502 setgray
gsave
259.4 40.25 29.92 98.53 clipbox
252.67177 98.53 m
252.67177 138.78 l
stroke
grestore
[] 0 setdash
1.000 setgray
gsave
/o {
gsave
newpath
translate
0.8 setlinewidth
1 setlinejoin
0 setlinecap
0 0 m
0 -3.5 l

gsave
1.000 setgray
fill
grestore
stroke
grestore
} bind def
252.672 98.53 o
grestore
gsave
246.312395 83.936250 translate
0.000000 rotate
0.000000 0.000000 m /one glyphshow
6.362305 0.000000 m /eight glyphshow
grestore
[0.8 1.32] 0 setdash
0.502 setgray
gsave
259.4 40.25 29.92 98.53 clipbox
277.490909 98.53 m
277.490909 138.78 l
stroke
grestore
[] 0 setdash
1.000 setgray
gsave
/o {
gsave
newpath
translate
0.8 setlinewidth
1 setlinejoin
0 setlinecap
0 0 m
0 -3.5 l

gsave
1.000 setgray
fill
grestore
stroke
grestore
} bind def
277.491 98.53 o
grestore
gsave
271.131534 83.936250 translate
0.000000 rotate
0.000000 0.000000 m /two glyphshow
6.362305 0.000000 m /zero glyphshow
grestore
[0.8 1.32] 0 setdash
0.502 setgray
gsave
259.4 40.25 29.92 98.53 clipbox
29.92 100.359545 m
289.28 100.359545 l
stroke
grestore
[] 0 setdash
0.000 setgray
gsave
/o {
gsave
newpath
translate
0.8 setlinewidth
1 setlinejoin
0 setlinecap
0 0 m
3.5 0 l

gsave
0.000 setgray
fill
grestore
stroke
grestore
} bind def
289.28 100.36 o
grestore
gsave
296.280000 96.562670 translate
0.000000 rotate
0.000000 0.000000 m /one glyphshow
6.362305 0.000000 m /period glyphshow
9.541016 0.000000 m /one glyphshow
15.903320 0.000000 m /eight glyphshow
22.265625 0.000000 m /e glyphshow
28.417969 0.000000 m /plus glyphshow
36.796875 0.000000 m /zero glyphshow
43.159180 0.000000 m /one glyphshow
grestore
[0.8 1.32] 0 setdash
0.502 setgray
gsave
259.4 40.25 29.92 98.53 clipbox
29.92 136.950455 m
289.28 136.950455 l
stroke
grestore
[] 0 setdash
0.000 setgray
gsave
/o {
gsave
newpath
translate
0.8 setlinewidth
1 setlinejoin
0 setlinecap
0 0 m
3.5 0 l

gsave
0.000 setgray
fill
grestore
stroke
grestore
} bind def
289.28 136.95 o
grestore
gsave
296.280000 133.153580 translate
0.000000 rotate
0.000000 0.000000 m /nine glyphshow
6.362305 0.000000 m /period glyphshow
9.541016 0.000000 m /four glyphshow
15.903320 0.000000 m /four glyphshow
22.265625 0.000000 m /e glyphshow
28.417969 0.000000 m /plus glyphshow
36.796875 0.000000 m /zero glyphshow
43.159180 0.000000 m /two glyphshow
grestore
gsave
23.841875 104.655000 translate
90.000000 rotate
/DejaVuSans-Oblique findfont
10.0 scalefont
setfont
0.000000 0.976562 moveto
/f glyphshow

/DejaVuSans findfont
7.0 scalefont
setfont
3.520508 -0.664062 moveto
/seven glyphshow

/DejaVuSans findfont
10.0 scalefont
setfont
8.247559 0.976562 moveto
/parenleft glyphshow

/DejaVuSans-Oblique findfont
10.0 scalefont
setfont
12.148926 0.976562 moveto
/X glyphshow

/DejaVuSans findfont
7.0 scalefont
setfont
19.702064 4.804688 moveto
/asterisk glyphshow

/DejaVuSans findfont
10.0 scalefont
setfont
23.475501 0.976562 moveto
/parenright glyphshow


grestore
1.500 setlinewidth
2 setlinecap
gsave
259.4 40.25 29.92 98.53 clipbox
41.709091 102.226043 m
54.11866 100.359573 l
66.52823 100.359545 l
78.937799 100.824521 l
91.347368 100.824521 l
103.756938 103.149399 l
116.166507 104.776856 l
128.576077 108.26413 l
140.985646 110.899013 l
153.395215 109.581572 l
165.804785 113.843837 l
178.214354 114.702259 l
190.623923 122.135987 l
203.033493 118.726113 l
215.443062 122.911107 l
227.852632 121.903542 l
240.262201 125.551732 l
252.67177 132.52644 l
265.08134 134.636751 l
277.490909 136.950455 l
stroke
grestore
1.000 setlinewidth
0 setlinecap
1.000 0.000 0.000 setrgbcolor
gsave
259.4 40.25 29.92 98.53 clipbox
/o {
gsave
newpath
translate
1.0 setlinewidth
1 setlinejoin
0 setlinecap
0 -3 m
0.795609 -3 1.55874 -2.683901 2.12132 -2.12132 c
2.683901 -1.55874 3 -0.795609 3 0 c
3 0.795609 2.683901 1.55874 2.12132 2.12132 c
1.55874 2.683901 0.795609 3 0 3 c
-0.795609 3 -1.55874 2.683901 -2.12132 2.12132 c
-2.683901 1.55874 -3 0.795609 -3 0 c
-3 -0.795609 -2.683901 -1.55874 -2.12132 -2.12132 c
-1.55874 -2.683901 -0.795609 -3 0 -3 c
cl

gsave
1.000 0.000 0.000 setrgbcolor
fill
grestore
stroke
grestore
} bind def
66.5282 100.36 o
grestore
0.800 setlinewidth
0 setlinejoin
2 setlinecap
[] 0 setdash
0.000 setgray
gsave
29.92 98.53 m
29.92 138.78 l
stroke
grestore
gsave
289.28 98.53 m
289.28 138.78 l
stroke
grestore
gsave
29.92 98.53 m
289.28 98.53 l
stroke
grestore
gsave
29.92 138.78 m
289.28 138.78 l
stroke
grestore
gsave
29.92 27.88 m
289.28 27.88 l
289.28 68.13 l
29.92 68.13 l
cl
1.000 setgray
fill
grestore
1 setlinejoin
0 setlinecap
[0.8 1.32] 0 setdash
0.502 setgray
gsave
259.4 40.25 29.92 27.88 clipbox
54.11866 27.88 m
54.11866 68.13 l
stroke
grestore
[] 0 setdash
0.000 setgray
gsave
/o {
gsave
newpath
translate
0.8 setlinewidth
1 setlinejoin
0 setlinecap
0 0 m
0 -3.5 l

gsave
0.000 setgray
fill
grestore
stroke
grestore
} bind def
54.1187 27.88 o
grestore
gsave
50.938973 13.286250 translate
0.000000 rotate
0.000000 0.000000 m /two glyphshow
grestore
[0.8 1.32] 0 setdash
0.502 setgray
gsave
259.4 40.25 29.92 27.88 clipbox
78.937799 27.88 m
78.937799 68.13 l
stroke
grestore
[] 0 setdash
0.000 setgray
gsave
/o {
gsave
newpath
translate
0.8 setlinewidth
1 setlinejoin
0 setlinecap
0 0 m
0 -3.5 l

gsave
0.000 setgray
fill
grestore
stroke
grestore
} bind def
78.9378 27.88 o
grestore
gsave
75.758112 13.286250 translate
0.000000 rotate
0.000000 0.000000 m /four glyphshow
grestore
[0.8 1.32] 0 setdash
0.502 setgray
gsave
259.4 40.25 29.92 27.88 clipbox
103.756938 27.88 m
103.756938 68.13 l
stroke
grestore
[] 0 setdash
0.000 setgray
gsave
/o {
gsave
newpath
translate
0.8 setlinewidth
1 setlinejoin
0 setlinecap
0 0 m
0 -3.5 l

gsave
0.000 setgray
fill
grestore
stroke
grestore
} bind def
103.757 27.88 o
grestore
gsave
100.577250 13.286250 translate
0.000000 rotate
0.000000 0.000000 m /six glyphshow
grestore
[0.8 1.32] 0 setdash
0.502 setgray
gsave
259.4 40.25 29.92 27.88 clipbox
128.576077 27.88 m
128.576077 68.13 l
stroke
grestore
[] 0 setdash
0.000 setgray
gsave
/o {
gsave
newpath
translate
0.8 setlinewidth
1 setlinejoin
0 setlinecap
0 0 m
0 -3.5 l

gsave
0.000 setgray
fill
grestore
stroke
grestore
} bind def
128.576 27.88 o
grestore
gsave
125.396389 13.286250 translate
0.000000 rotate
0.000000 0.000000 m /eight glyphshow
grestore
[0.8 1.32] 0 setdash
0.502 setgray
gsave
259.4 40.25 29.92 27.88 clipbox
153.395215 27.88 m
153.395215 68.13 l
stroke
grestore
[] 0 setdash
0.000 setgray
gsave
/o {
gsave
newpath
translate
0.8 setlinewidth
1 setlinejoin
0 setlinecap
0 0 m
0 -3.5 l

gsave
0.000 setgray
fill
grestore
stroke
grestore
} bind def
153.395 27.88 o
grestore
gsave
147.035840 13.286250 translate
0.000000 rotate
0.000000 0.000000 m /one glyphshow
6.362305 0.000000 m /zero glyphshow
grestore
[0.8 1.32] 0 setdash
0.502 setgray
gsave
259.4 40.25 29.92 27.88 clipbox
178.214354 27.88 m
178.214354 68.13 l
stroke
grestore
[] 0 setdash
0.000 setgray
gsave
/o {
gsave
newpath
translate
0.8 setlinewidth
1 setlinejoin
0 setlinecap
0 0 m
0 -3.5 l

gsave
0.000 setgray
fill
grestore
stroke
grestore
} bind def
178.214 27.88 o
grestore
gsave
171.854979 13.286250 translate
0.000000 rotate
0.000000 0.000000 m /one glyphshow
6.362305 0.000000 m /two glyphshow
grestore
[0.8 1.32] 0 setdash
0.502 setgray
gsave
259.4 40.25 29.92 27.88 clipbox
203.033493 27.88 m
203.033493 68.13 l
stroke
grestore
[] 0 setdash
0.000 setgray
gsave
/o {
gsave
newpath
translate
0.8 setlinewidth
1 setlinejoin
0 setlinecap
0 0 m
0 -3.5 l

gsave
0.000 setgray
fill
grestore
stroke
grestore
} bind def
203.033 27.88 o
grestore
gsave
196.674118 13.286250 translate
0.000000 rotate
0.000000 0.000000 m /one glyphshow
6.362305 0.000000 m /four glyphshow
grestore
[0.8 1.32] 0 setdash
0.502 setgray
gsave
259.4 40.25 29.92 27.88 clipbox
227.852632 27.88 m
227.852632 68.13 l
stroke
grestore
[] 0 setdash
0.000 setgray
gsave
/o {
gsave
newpath
translate
0.8 setlinewidth
1 setlinejoin
0 setlinecap
0 0 m
0 -3.5 l

gsave
0.000 setgray
fill
grestore
stroke
grestore
} bind def
227.853 27.88 o
grestore
gsave
221.493257 13.286250 translate
0.000000 rotate
0.000000 0.000000 m /one glyphshow
6.362305 0.000000 m /six glyphshow
grestore
[0.8 1.32] 0 setdash
0.502 setgray
gsave
259.4 40.25 29.92 27.88 clipbox
252.67177 27.88 m
252.67177 68.13 l
stroke
grestore
[] 0 setdash
0.000 setgray
gsave
/o {
gsave
newpath
translate
0.8 setlinewidth
1 setlinejoin
0 setlinecap
0 0 m
0 -3.5 l

gsave
0.000 setgray
fill
grestore
stroke
grestore
} bind def
252.672 27.88 o
grestore
gsave
246.312395 13.286250 translate
0.000000 rotate
0.000000 0.000000 m /one glyphshow
6.362305 0.000000 m /eight glyphshow
grestore
[0.8 1.32] 0 setdash
0.502 setgray
gsave
259.4 40.25 29.92 27.88 clipbox
277.490909 27.88 m
277.490909 68.13 l
stroke
grestore
[] 0 setdash
0.000 setgray
gsave
/o {
gsave
newpath
translate
0.8 setlinewidth
1 setlinejoin
0 setlinecap
0 0 m
0 -3.5 l

gsave
0.000 setgray
fill
grestore
stroke
grestore
} bind def
277.491 27.88 o
grestore
gsave
271.131534 13.286250 translate
0.000000 rotate
0.000000 0.000000 m /two glyphshow
6.362305 0.000000 m /zero glyphshow
grestore
[0.8 1.32] 0 setdash
0.502 setgray
gsave
259.4 40.25 29.92 27.88 clipbox
29.92 29.709545 m
289.28 29.709545 l
stroke
grestore
[] 0 setdash
0.000 setgray
gsave
/o {
gsave
newpath
translate
0.8 setlinewidth
1 setlinejoin
0 setlinecap
0 0 m
3.5 0 l

gsave
0.000 setgray
fill
grestore
stroke
grestore
} bind def
289.28 29.7095 o
grestore
gsave
296.280000 25.912670 translate
0.000000 rotate
0.000000 0.000000 m /four glyphshow
6.362305 0.000000 m /period glyphshow
9.541016 0.000000 m /one glyphshow
15.903320 0.000000 m /seven glyphshow
22.265625 0.000000 m /e glyphshow
28.417969 0.000000 m /hyphen glyphshow
32.026367 0.000000 m /one glyphshow
38.388672 0.000000 m /six glyphshow
grestore
[0.8 1.32] 0 setdash
0.502 setgray
gsave
259.4 40.25 29.92 27.88 clipbox
29.92 66.300455 m
289.28 66.300455 l
stroke
grestore
[] 0 setdash
0.000 setgray
gsave
/o {
gsave
newpath
translate
0.8 setlinewidth
1 setlinejoin
0 setlinecap
0 0 m
3.5 0 l

gsave
0.000 setgray
fill
grestore
stroke
grestore
} bind def
289.28 66.3005 o
grestore
gsave
296.280000 62.503580 translate
0.000000 rotate
0.000000 0.000000 m /three glyphshow
6.362305 0.000000 m /period glyphshow
9.541016 0.000000 m /nine glyphshow
15.903320 0.000000 m /nine glyphshow
22.265625 0.000000 m /e glyphshow
28.417969 0.000000 m /hyphen glyphshow
32.026367 0.000000 m /one glyphshow
38.388672 0.000000 m /zero glyphshow
grestore
gsave
23.841875 34.005000 translate
90.000000 rotate
/DejaVuSans-Oblique findfont
10.0 scalefont
setfont
0.000000 0.976562 moveto
/f glyphshow

/DejaVuSans findfont
7.0 scalefont
setfont
3.520508 -0.664062 moveto
/eight glyphshow

/DejaVuSans findfont
10.0 scalefont
setfont
8.247559 0.976562 moveto
/parenleft glyphshow

/DejaVuSans-Oblique findfont
10.0 scalefont
setfont
12.148926 0.976562 moveto
/X glyphshow

/DejaVuSans findfont
7.0 scalefont
setfont
19.702064 4.804688 moveto
/asterisk glyphshow

/DejaVuSans findfont
10.0 scalefont
setfont
23.475501 0.976562 moveto
/parenright glyphshow


grestore
1.500 setlinewidth
2 setlinecap
gsave
259.4 40.25 29.92 27.88 clipbox
41.709091 29.709552 m
54.11866 29.709545 l
66.52823 29.709552 l
78.937799 29.709567 l
91.347368 29.709637 l
103.756938 29.70961 l
116.166507 29.709639 l
128.576077 29.709796 l
140.985646 29.709799 l
153.395215 29.710424 l
165.804785 29.712147 l
178.214354 29.709799 l
190.623923 29.71143 l
203.033493 29.711799 l
215.443062 29.713254 l
227.852632 29.766173 l
240.262201 29.717298 l
252.67177 29.719282 l
265.08134 29.728513 l
277.490909 66.300455 l
stroke
grestore
1.000 setlinewidth
0 setlinecap
1.000 0.000 0.000 setrgbcolor
gsave
259.4 40.25 29.92 27.88 clipbox
/o {
gsave
newpath
translate
1.0 setlinewidth
1 setlinejoin
0 setlinecap
0 -3 m
0.795609 -3 1.55874 -2.683901 2.12132 -2.12132 c
2.683901 -1.55874 3 -0.795609 3 0 c
3 0.795609 2.683901 1.55874 2.12132 2.12132 c
1.55874 2.683901 0.795609 3 0 3 c
-0.795609 3 -1.55874 2.683901 -2.12132 2.12132 c
-2.683901 1.55874 -3 0.795609 -3 0 c
-3 -0.795609 -2.683901 -1.55874 -2.12132 -2.12132 c
-1.55874 -2.683901 -0.795609 -3 0 -3 c
cl

gsave
1.000 0.000 0.000 setrgbcolor
fill
grestore
stroke
grestore
} bind def
54.1187 29.7095 o
grestore
0.800 setlinewidth
0 setlinejoin
2 setlinecap
[] 0 setdash
0.000 setgray
gsave
29.92 27.88 m
29.92 68.13 l
stroke
grestore
gsave
289.28 27.88 m
289.28 68.13 l
stroke
grestore
gsave
29.92 27.88 m
289.28 27.88 l
stroke
grestore
gsave
29.92 68.13 m
289.28 68.13 l
stroke
grestore

end
showpage
