\beamer@endinputifotherversion {3.36pt}
\beamer@sectionintoc {1}{Introdu\IeC {\c c}\IeC {\~a}o}{3}{0}{1}
\beamer@sectionintoc {2}{Col\IeC {\^o}nia Artificial de Abelhas}{18}{0}{2}
\beamer@sectionintoc {3}{Col\IeC {\^o}nia Artificial de Abelhas com Ajuste de Par\IeC {\^a}metros}{24}{0}{3}
\beamer@sectionintoc {4}{Resultados e An\IeC {\'a}lise}{34}{0}{4}
\beamer@sectionintoc {5}{Conclus\IeC {\~a}o}{51}{0}{5}
