\BOOKMARK [2][]{Outline0.1}{Introdu\347\343o}{}% 1
\BOOKMARK [2][]{Outline0.2}{Trabalhos Relacionados}{}% 2
\BOOKMARK [2][]{Outline0.3}{Col\364nia Artificial de Abelhas}{}% 3
\BOOKMARK [2][]{Outline0.4}{Equa\347\343o de Busca}{}% 4
\BOOKMARK [2][]{Outline0.5}{Experimentos e An\341lises}{}% 5
\BOOKMARK [3][]{Outline0.5.1.27}{Fun\347\365es de Teste}{Outline0.5}% 6
\BOOKMARK [3][]{Outline0.5.2.29}{Metodologia}{Outline0.5}% 7
\BOOKMARK [3][]{Outline0.5.3.30}{Resultados}{Outline0.5}% 8
\BOOKMARK [2][]{Outline0.6}{Conclus\343o}{}% 9
